Inizio misurazione prestazioni.
----------------------------------------
elapsed time: 0.12188s
----------------------------------------
elapsed time: 0.0598856s
----------------------------------------
elapsed time: 0.0567198s
----------------------------------------
elapsed time: 0.0485088s
----------------------------------------
elapsed time: 0.051881s
----------------------------------------
elapsed time: 0.0617596s
----------------------------------------
elapsed time: 0.0597809s
----------------------------------------
elapsed time: 0.0549437s
----------------------------------------
elapsed time: 0.0522993s
----------------------------------------
elapsed time: 0.0542819s
----------------------------------------
elapsed time: 0.0542395s
----------------------------------------
elapsed time: 0.0488923s
----------------------------------------
elapsed time: 0.0549841s
----------------------------------------
elapsed time: 0.0572031s
----------------------------------------
elapsed time: 0.0458435s
----------------------------------------
elapsed time: 0.0669349s
----------------------------------------
elapsed time: 0.0581844s
----------------------------------------
elapsed time: 0.058528s
----------------------------------------
elapsed time: 0.0509199s
----------------------------------------
elapsed time: 0.0515946s
----------------------------------------
elapsed time: 0.0502349s
----------------------------------------
elapsed time: 0.0537313s
----------------------------------------
elapsed time: 0.0563421s
----------------------------------------
elapsed time: 0.0759943s
----------------------------------------
elapsed time: 0.0450221s
----------------------------------------
elapsed time: 0.0616525s
----------------------------------------
elapsed time: 0.0485903s
----------------------------------------
elapsed time: 0.0547957s
----------------------------------------
elapsed time: 0.0508568s
----------------------------------------
elapsed time: 0.0476945s
----------------------------------------
elapsed time: 0.0718111s
----------------------------------------
elapsed time: 0.0690434s
----------------------------------------
elapsed time: 0.0839712s
----------------------------------------
elapsed time: 0.0541885s
----------------------------------------
elapsed time: 0.110934s
----------------------------------------
elapsed time: 0.105364s
----------------------------------------
elapsed time: 0.0728072s
----------------------------------------
elapsed time: 0.0585887s
----------------------------------------
elapsed time: 0.0500873s
----------------------------------------
elapsed time: 0.0581298s
----------------------------------------
elapsed time: 0.0549418s
----------------------------------------
elapsed time: 0.0474295s
----------------------------------------
elapsed time: 0.0578495s
----------------------------------------
elapsed time: 0.0472366s
----------------------------------------
elapsed time: 0.0524332s
----------------------------------------
elapsed time: 0.0529688s
----------------------------------------
elapsed time: 0.0505564s
----------------------------------------
elapsed time: 0.0528561s
----------------------------------------
elapsed time: 0.0614349s
----------------------------------------
elapsed time: 0.054617s
----------------------------------------
elapsed time: 0.059496s
----------------------------------------
elapsed time: 0.0460526s
----------------------------------------
elapsed time: 0.0486347s
----------------------------------------
elapsed time: 0.0470043s
----------------------------------------
elapsed time: 0.0480468s
----------------------------------------
elapsed time: 0.0485921s
----------------------------------------
elapsed time: 0.131977s
----------------------------------------
elapsed time: 0.101907s
----------------------------------------
elapsed time: 0.0728857s
----------------------------------------
elapsed time: 0.0537589s
----------------------------------------
elapsed time: 0.0737855s
----------------------------------------
elapsed time: 0.0710871s
----------------------------------------
elapsed time: 0.0580283s
----------------------------------------
elapsed time: 0.0645026s
----------------------------------------
elapsed time: 0.0601678s
----------------------------------------
elapsed time: 0.0657888s
----------------------------------------
elapsed time: 0.0494873s
----------------------------------------
elapsed time: 0.0600436s
----------------------------------------
elapsed time: 0.0589835s
----------------------------------------
elapsed time: 0.0602557s
----------------------------------------
elapsed time: 0.0576676s
----------------------------------------
elapsed time: 0.0595113s
----------------------------------------
elapsed time: 0.064675s
----------------------------------------
elapsed time: 0.0604756s
----------------------------------------
elapsed time: 0.0600649s
----------------------------------------
elapsed time: 0.079078s
----------------------------------------
elapsed time: 0.0588972s
----------------------------------------
elapsed time: 0.0584499s
----------------------------------------
elapsed time: 0.0606896s
----------------------------------------
elapsed time: 0.0487768s
----------------------------------------
elapsed time: 0.0471847s
----------------------------------------
elapsed time: 0.0536791s
----------------------------------------
elapsed time: 0.0726651s
----------------------------------------
elapsed time: 0.372804s
----------------------------------------
elapsed time: 0.0580857s
----------------------------------------
elapsed time: 0.0491869s
----------------------------------------
elapsed time: 0.0647842s
----------------------------------------
elapsed time: 0.0516928s
----------------------------------------
elapsed time: 0.0596573s
----------------------------------------
elapsed time: 0.0498743s
----------------------------------------
elapsed time: 0.0615496s
----------------------------------------
elapsed time: 0.0566488s
----------------------------------------
elapsed time: 0.0541316s
----------------------------------------
elapsed time: 0.0553549s
----------------------------------------
elapsed time: 0.053626s
----------------------------------------
elapsed time: 0.0495718s
----------------------------------------
elapsed time: 0.0498283s
----------------------------------------
elapsed time: 0.0474908s
----------------------------------------
elapsed time: 0.0461234s
----------------------------------------
elapsed time: 0.0576805s
----------------------------------------
elapsed time: 0.0495313s
----------------------------------------
elapsed time: 0.0598006s
----------------------------------------
elapsed time: 0.0551353s
----------------------------------------
elapsed time: 0.0558427s
----------------------------------------
elapsed time: 0.051975s
----------------------------------------
elapsed time: 0.058768s
----------------------------------------
elapsed time: 0.0580136s
----------------------------------------
elapsed time: 0.0459678s
----------------------------------------
elapsed time: 0.0501148s
----------------------------------------
elapsed time: 0.0461392s
----------------------------------------
elapsed time: 0.0478911s
----------------------------------------
elapsed time: 0.0803598s
----------------------------------------
elapsed time: 0.0617731s
----------------------------------------
elapsed time: 0.0554344s
----------------------------------------
elapsed time: 0.0774339s
----------------------------------------
elapsed time: 0.105912s
----------------------------------------
elapsed time: 0.0765789s
----------------------------------------
elapsed time: 0.0871263s
----------------------------------------
elapsed time: 0.116301s
----------------------------------------
elapsed time: 0.0614813s
----------------------------------------
elapsed time: 0.0736352s
----------------------------------------
elapsed time: 0.0848392s
----------------------------------------
elapsed time: 0.0578669s
----------------------------------------
elapsed time: 0.0685809s
----------------------------------------
elapsed time: 0.0637769s
----------------------------------------
elapsed time: 0.0521225s
----------------------------------------
elapsed time: 0.0552638s
----------------------------------------
elapsed time: 0.05848s
----------------------------------------
elapsed time: 0.0494596s
----------------------------------------
elapsed time: 0.0574426s
----------------------------------------
elapsed time: 0.062015s
----------------------------------------
elapsed time: 0.0620265s
----------------------------------------
elapsed time: 0.070358s
----------------------------------------
elapsed time: 0.0641177s
----------------------------------------
elapsed time: 0.0548119s
----------------------------------------
elapsed time: 0.051911s
----------------------------------------
elapsed time: 0.0600207s
----------------------------------------
elapsed time: 0.0575041s
----------------------------------------
elapsed time: 0.0589488s
----------------------------------------
elapsed time: 0.0550661s
----------------------------------------
elapsed time: 0.0472346s
----------------------------------------
elapsed time: 0.0482946s
----------------------------------------
elapsed time: 0.0563391s
----------------------------------------
elapsed time: 0.0720685s
----------------------------------------
elapsed time: 0.0702214s
----------------------------------------
elapsed time: 0.0731514s
----------------------------------------
elapsed time: 0.0706683s
----------------------------------------
elapsed time: 0.0637835s
----------------------------------------
elapsed time: 0.0743896s
----------------------------------------
elapsed time: 0.0582906s
----------------------------------------
elapsed time: 0.051926s
----------------------------------------
elapsed time: 0.066261s
----------------------------------------
elapsed time: 0.0653843s
----------------------------------------
elapsed time: 0.0504567s
----------------------------------------
elapsed time: 0.0696549s
----------------------------------------
elapsed time: 0.0603863s
----------------------------------------
elapsed time: 0.0553284s
----------------------------------------
elapsed time: 0.0458152s
----------------------------------------
elapsed time: 0.0557696s
----------------------------------------
elapsed time: 0.0483586s
----------------------------------------
elapsed time: 0.0496845s
----------------------------------------
elapsed time: 0.0565365s
----------------------------------------
elapsed time: 0.0564068s
----------------------------------------
elapsed time: 0.0517442s
----------------------------------------
elapsed time: 0.0623993s
----------------------------------------
elapsed time: 0.0455556s
----------------------------------------
elapsed time: 0.0493815s
----------------------------------------
elapsed time: 0.0470418s
----------------------------------------
elapsed time: 0.0514323s
----------------------------------------
elapsed time: 0.0489432s
----------------------------------------
elapsed time: 0.0527372s
----------------------------------------
elapsed time: 0.0547407s
----------------------------------------
elapsed time: 0.0502822s
----------------------------------------
elapsed time: 0.0593125s
----------------------------------------
elapsed time: 0.0689106s
----------------------------------------
elapsed time: 0.0578054s
----------------------------------------
elapsed time: 0.0629853s
----------------------------------------
elapsed time: 0.060611s
----------------------------------------
elapsed time: 0.0556468s
----------------------------------------
elapsed time: 0.0566491s
----------------------------------------
elapsed time: 0.0506946s
----------------------------------------
elapsed time: 0.0541942s
----------------------------------------
elapsed time: 0.0481602s
----------------------------------------
elapsed time: 0.0541739s
----------------------------------------
elapsed time: 0.0473022s
----------------------------------------
elapsed time: 0.066544s
----------------------------------------
elapsed time: 0.0522882s
----------------------------------------
elapsed time: 0.0525258s
----------------------------------------
elapsed time: 0.0554763s
----------------------------------------
elapsed time: 0.0528191s
----------------------------------------
elapsed time: 0.0495281s
----------------------------------------
elapsed time: 0.0611106s
----------------------------------------
elapsed time: 0.0616858s
----------------------------------------
elapsed time: 0.0592647s
----------------------------------------
elapsed time: 0.0562497s
----------------------------------------
elapsed time: 0.0594071s
----------------------------------------
elapsed time: 0.0448508s
----------------------------------------
elapsed time: 0.0467563s
----------------------------------------
elapsed time: 0.0449875s
----------------------------------------
elapsed time: 0.0478383s
----------------------------------------
elapsed time: 0.0502655s
----------------------------------------
elapsed time: 0.0563219s
----------------------------------------
elapsed time: 0.0484966s
----------------------------------------
elapsed time: 0.070662s
----------------------------------------
elapsed time: 0.0658071s
----------------------------------------
elapsed time: 0.0469021s
----------------------------------------
elapsed time: 0.0479416s
----------------------------------------
elapsed time: 0.0448025s
----------------------------------------
elapsed time: 0.0692601s
----------------------------------------
elapsed time: 0.0738329s
----------------------------------------
elapsed time: 0.0634292s
----------------------------------------
elapsed time: 0.0500037s
----------------------------------------
elapsed time: 0.0513549s
----------------------------------------
elapsed time: 0.0595584s
----------------------------------------
elapsed time: 0.0510672s
----------------------------------------
elapsed time: 0.0552774s
----------------------------------------
elapsed time: 0.0531071s
----------------------------------------
elapsed time: 0.0575082s
----------------------------------------
elapsed time: 0.0687633s
----------------------------------------
elapsed time: 0.0566796s
----------------------------------------
elapsed time: 0.0608107s
----------------------------------------
elapsed time: 0.055373s
----------------------------------------
elapsed time: 0.0525906s
----------------------------------------
elapsed time: 0.0584724s
----------------------------------------
elapsed time: 0.0506617s
----------------------------------------
elapsed time: 0.0508952s
----------------------------------------
elapsed time: 0.073642s
----------------------------------------
elapsed time: 0.058172s
----------------------------------------
elapsed time: 0.0566691s
----------------------------------------
elapsed time: 0.0625577s
----------------------------------------
elapsed time: 0.0558993s
----------------------------------------
elapsed time: 0.0677168s
----------------------------------------
elapsed time: 0.0747236s
----------------------------------------
elapsed time: 0.0543329s
----------------------------------------
elapsed time: 0.0588039s
----------------------------------------
elapsed time: 0.052024s
----------------------------------------
elapsed time: 0.0549897s
----------------------------------------
elapsed time: 0.0523259s
----------------------------------------
elapsed time: 0.0542134s
----------------------------------------
elapsed time: 0.0547907s
----------------------------------------
elapsed time: 0.0597307s
----------------------------------------
elapsed time: 0.0610233s
----------------------------------------
elapsed time: 0.0531953s
----------------------------------------
elapsed time: 0.0615414s
----------------------------------------
elapsed time: 0.0766224s
----------------------------------------
elapsed time: 0.0861247s
----------------------------------------
elapsed time: 0.0656968s
----------------------------------------
elapsed time: 0.0594347s
----------------------------------------
elapsed time: 0.0628766s
----------------------------------------
elapsed time: 0.0647904s
----------------------------------------
elapsed time: 0.0731648s
----------------------------------------
elapsed time: 0.0604744s
----------------------------------------
elapsed time: 0.063948s
----------------------------------------
elapsed time: 0.0632996s
----------------------------------------
elapsed time: 0.0641542s
----------------------------------------
elapsed time: 0.0642422s
----------------------------------------
elapsed time: 0.0670826s
----------------------------------------
elapsed time: 0.0565884s
----------------------------------------
elapsed time: 0.0557206s
----------------------------------------
elapsed time: 0.0535149s
----------------------------------------
elapsed time: 0.0606495s
----------------------------------------
elapsed time: 0.0712322s
----------------------------------------
elapsed time: 0.0640024s
----------------------------------------
elapsed time: 0.0883983s
----------------------------------------
elapsed time: 0.0664217s
----------------------------------------
elapsed time: 0.0670213s
----------------------------------------
elapsed time: 0.0656178s
----------------------------------------
elapsed time: 0.0635057s
----------------------------------------
elapsed time: 0.0599172s
----------------------------------------
elapsed time: 0.072499s
----------------------------------------
elapsed time: 0.0664229s
----------------------------------------
elapsed time: 0.0638097s
----------------------------------------
elapsed time: 0.0790521s
----------------------------------------
elapsed time: 0.106353s
----------------------------------------
elapsed time: 0.0698602s
----------------------------------------
elapsed time: 0.0761842s
----------------------------------------
elapsed time: 0.0910524s
----------------------------------------
elapsed time: 0.0775147s
----------------------------------------
elapsed time: 0.07221s
----------------------------------------
elapsed time: 0.0680914s
----------------------------------------
elapsed time: 0.0684716s
----------------------------------------
elapsed time: 0.0641743s
----------------------------------------
elapsed time: 0.0583112s
----------------------------------------
elapsed time: 0.0476116s
----------------------------------------
elapsed time: 0.0429957s
----------------------------------------
elapsed time: 0.0488236s
----------------------------------------
elapsed time: 0.0467887s
----------------------------------------
elapsed time: 0.0497342s
----------------------------------------
elapsed time: 0.0630067s
----------------------------------------
elapsed time: 0.0596482s
----------------------------------------
elapsed time: 0.0587182s
----------------------------------------
elapsed time: 0.0658246s
----------------------------------------
elapsed time: 0.048667s
----------------------------------------
elapsed time: 0.063403s
----------------------------------------
elapsed time: 0.0463704s
----------------------------------------
elapsed time: 0.0597429s
----------------------------------------
elapsed time: 0.0520655s
----------------------------------------
elapsed time: 0.0434377s
----------------------------------------
elapsed time: 0.0525743s
----------------------------------------
elapsed time: 0.0578584s
----------------------------------------
elapsed time: 0.0522757s
----------------------------------------
elapsed time: 0.0562494s
----------------------------------------
elapsed time: 0.0554517s
----------------------------------------
elapsed time: 0.0551583s
----------------------------------------
elapsed time: 0.0689504s
----------------------------------------
elapsed time: 0.0778746s
----------------------------------------
elapsed time: 0.0648974s
----------------------------------------
elapsed time: 0.0659145s
----------------------------------------
elapsed time: 0.0694883s
----------------------------------------
elapsed time: 0.0667403s
----------------------------------------
elapsed time: 0.0656353s
----------------------------------------
elapsed time: 0.0707853s
----------------------------------------
elapsed time: 0.0655285s
----------------------------------------
elapsed time: 0.0804115s
----------------------------------------
elapsed time: 0.0787855s
----------------------------------------
elapsed time: 0.083848s
----------------------------------------
elapsed time: 0.0690195s
----------------------------------------
elapsed time: 0.0777724s
----------------------------------------
elapsed time: 0.0718927s
----------------------------------------
elapsed time: 0.0738022s
----------------------------------------
elapsed time: 0.0538312s
----------------------------------------
elapsed time: 0.0519741s
----------------------------------------
elapsed time: 0.0578582s
----------------------------------------
elapsed time: 0.0546215s
----------------------------------------
elapsed time: 0.0510362s
----------------------------------------
elapsed time: 0.0765071s
----------------------------------------
elapsed time: 0.0688891s
----------------------------------------
elapsed time: 0.0664992s
----------------------------------------
elapsed time: 0.055949s
----------------------------------------
elapsed time: 0.0582211s
----------------------------------------
elapsed time: 0.0757205s
----------------------------------------
elapsed time: 0.064034s
----------------------------------------
elapsed time: 0.0567981s
----------------------------------------
elapsed time: 0.056136s
----------------------------------------
elapsed time: 0.0595167s
----------------------------------------
elapsed time: 0.0667609s
----------------------------------------
elapsed time: 0.0523277s
----------------------------------------
elapsed time: 0.0567733s
----------------------------------------
elapsed time: 0.0558368s
----------------------------------------
elapsed time: 0.0574797s
----------------------------------------
elapsed time: 0.0500938s
----------------------------------------
elapsed time: 0.0610947s
----------------------------------------
elapsed time: 0.0549321s
----------------------------------------
elapsed time: 0.0578588s
----------------------------------------
elapsed time: 0.0583228s
----------------------------------------
elapsed time: 0.0511976s
----------------------------------------
elapsed time: 0.0595548s
----------------------------------------
elapsed time: 0.061449s
----------------------------------------
elapsed time: 0.0570999s
----------------------------------------
elapsed time: 0.085314s
----------------------------------------
elapsed time: 0.0633472s
----------------------------------------
elapsed time: 0.0678187s
----------------------------------------
elapsed time: 0.061989s
----------------------------------------
elapsed time: 0.0673035s
----------------------------------------
elapsed time: 0.0722887s
----------------------------------------
elapsed time: 0.0635267s
----------------------------------------
elapsed time: 0.0597573s
----------------------------------------
elapsed time: 0.0746715s
----------------------------------------
elapsed time: 0.0599175s
----------------------------------------
elapsed time: 0.0506427s
----------------------------------------
elapsed time: 0.0660267s
----------------------------------------
elapsed time: 0.0560639s
----------------------------------------
elapsed time: 0.05967s
----------------------------------------
elapsed time: 0.0621608s
----------------------------------------
elapsed time: 0.0618513s
----------------------------------------
elapsed time: 0.055484s
----------------------------------------
elapsed time: 0.0593643s
----------------------------------------
elapsed time: 0.0558787s
----------------------------------------
elapsed time: 0.0580984s
----------------------------------------
elapsed time: 0.0617563s
----------------------------------------
elapsed time: 0.0588322s
----------------------------------------
elapsed time: 0.0545834s
----------------------------------------
elapsed time: 0.0751983s
----------------------------------------
elapsed time: 0.0680139s
----------------------------------------
elapsed time: 0.068061s
----------------------------------------
elapsed time: 0.0532247s
----------------------------------------
elapsed time: 0.0643444s
----------------------------------------
elapsed time: 0.0494311s
----------------------------------------
elapsed time: 0.0496513s
----------------------------------------
elapsed time: 0.0549704s
----------------------------------------
elapsed time: 0.0529719s
----------------------------------------
elapsed time: 0.0554032s
----------------------------------------
elapsed time: 0.0572366s
----------------------------------------
elapsed time: 0.056412s
----------------------------------------
elapsed time: 0.0548604s
----------------------------------------
elapsed time: 0.0634858s
----------------------------------------
elapsed time: 0.0737308s
----------------------------------------
elapsed time: 0.0646044s
----------------------------------------
elapsed time: 0.0639981s
----------------------------------------
elapsed time: 0.0630525s
----------------------------------------
elapsed time: 0.0634719s
----------------------------------------
elapsed time: 0.0736669s
----------------------------------------
elapsed time: 0.0696482s
----------------------------------------
elapsed time: 0.07281s
----------------------------------------
elapsed time: 0.0636516s
----------------------------------------
elapsed time: 0.0686327s
----------------------------------------
elapsed time: 0.102334s
----------------------------------------
elapsed time: 0.0632604s
----------------------------------------
elapsed time: 0.0617072s
----------------------------------------
elapsed time: 0.0645834s
----------------------------------------
elapsed time: 0.0636444s
----------------------------------------
elapsed time: 0.056151s
----------------------------------------
elapsed time: 0.0559553s
----------------------------------------
elapsed time: 0.0766606s
----------------------------------------
elapsed time: 0.0632003s
----------------------------------------
elapsed time: 0.0642894s
----------------------------------------
elapsed time: 0.054115s
----------------------------------------
elapsed time: 0.0628886s
----------------------------------------
elapsed time: 0.0638098s
----------------------------------------
elapsed time: 0.0608206s
----------------------------------------
elapsed time: 0.0659586s
----------------------------------------
elapsed time: 0.0648534s
----------------------------------------
elapsed time: 0.079015s
----------------------------------------
elapsed time: 0.069014s
----------------------------------------
elapsed time: 0.0605861s
----------------------------------------
elapsed time: 0.0661683s
----------------------------------------
elapsed time: 0.0684972s
----------------------------------------
elapsed time: 0.0669548s
----------------------------------------
elapsed time: 0.0677018s
----------------------------------------
elapsed time: 0.0650193s
----------------------------------------
elapsed time: 0.0745958s
----------------------------------------
elapsed time: 0.0660355s
----------------------------------------
elapsed time: 0.0676173s
----------------------------------------
elapsed time: 0.0787103s
----------------------------------------
elapsed time: 0.0608986s
----------------------------------------
elapsed time: 0.0798978s
----------------------------------------
elapsed time: 0.0787102s
----------------------------------------
elapsed time: 0.0798593s
----------------------------------------
elapsed time: 0.0736507s
----------------------------------------
elapsed time: 0.0710442s
----------------------------------------
elapsed time: 0.068622s
----------------------------------------
elapsed time: 0.0820264s
----------------------------------------
elapsed time: 0.0815472s
----------------------------------------
elapsed time: 0.0739214s
----------------------------------------
elapsed time: 0.0858361s
----------------------------------------
elapsed time: 0.0698337s
----------------------------------------
elapsed time: 0.0809824s
----------------------------------------
elapsed time: 0.0712708s
----------------------------------------
elapsed time: 0.065057s
----------------------------------------
elapsed time: 0.0951142s
----------------------------------------
elapsed time: 0.0751175s
----------------------------------------
elapsed time: 0.0712343s
----------------------------------------
elapsed time: 0.0631869s
----------------------------------------
elapsed time: 0.141437s
----------------------------------------
elapsed time: 0.0805912s
----------------------------------------
elapsed time: 0.0852582s
----------------------------------------
elapsed time: 0.0728128s
----------------------------------------
elapsed time: 0.0755252s
----------------------------------------
elapsed time: 0.0756763s
----------------------------------------
elapsed time: 0.0843965s
----------------------------------------
elapsed time: 0.073049s
----------------------------------------
elapsed time: 0.0796179s
----------------------------------------
elapsed time: 0.0879795s
----------------------------------------
elapsed time: 0.0733892s
----------------------------------------
elapsed time: 0.0655699s
----------------------------------------
elapsed time: 0.0656022s
----------------------------------------
elapsed time: 0.0897666s
----------------------------------------
elapsed time: 0.091224s
----------------------------------------
elapsed time: 0.0860189s
----------------------------------------
elapsed time: 0.0797403s
----------------------------------------
elapsed time: 0.0843419s
----------------------------------------
elapsed time: 0.0800799s
----------------------------------------
elapsed time: 0.0797882s
----------------------------------------
elapsed time: 0.0896131s
----------------------------------------
elapsed time: 0.109901s
----------------------------------------
elapsed time: 0.079971s
----------------------------------------
elapsed time: 0.0798538s
----------------------------------------
elapsed time: 0.0698499s
----------------------------------------
elapsed time: 0.114152s
----------------------------------------
elapsed time: 0.0732173s
----------------------------------------
elapsed time: 0.0901559s
----------------------------------------
elapsed time: 0.0784114s
----------------------------------------
elapsed time: 0.0687472s
----------------------------------------
elapsed time: 0.0699058s
----------------------------------------
elapsed time: 0.143289s
----------------------------------------
elapsed time: 0.220274s
----------------------------------------
elapsed time: 0.0641923s
----------------------------------------
elapsed time: 0.0868765s
----------------------------------------
elapsed time: 0.0603024s
----------------------------------------
elapsed time: 0.0769769s
----------------------------------------
elapsed time: 0.0687368s
----------------------------------------
elapsed time: 0.0739595s
----------------------------------------
elapsed time: 0.112252s
----------------------------------------
elapsed time: 0.0619287s
----------------------------------------
elapsed time: 0.0951046s
----------------------------------------
elapsed time: 0.0545299s
----------------------------------------
elapsed time: 0.0983234s
----------------------------------------
elapsed time: 0.0605663s
----------------------------------------
elapsed time: 0.0622437s
----------------------------------------
elapsed time: 0.0607987s
----------------------------------------
elapsed time: 0.0699934s
----------------------------------------
elapsed time: 0.0605109s
----------------------------------------
elapsed time: 0.0666706s
----------------------------------------
elapsed time: 0.0759423s
----------------------------------------
elapsed time: 0.0839897s
----------------------------------------
elapsed time: 0.0532767s
----------------------------------------
elapsed time: 0.0717971s
----------------------------------------
elapsed time: 0.0660125s
----------------------------------------
elapsed time: 0.0691549s
----------------------------------------
elapsed time: 0.0668514s
----------------------------------------
elapsed time: 0.0673319s
----------------------------------------
elapsed time: 0.0605172s
----------------------------------------
elapsed time: 0.0718794s
----------------------------------------
elapsed time: 0.0646809s
----------------------------------------
elapsed time: 0.0657715s
----------------------------------------
elapsed time: 0.0647507s
----------------------------------------
elapsed time: 0.0657855s
----------------------------------------
elapsed time: 0.0625135s
----------------------------------------
elapsed time: 0.0653287s
----------------------------------------
elapsed time: 0.0586519s
----------------------------------------
elapsed time: 0.0541111s
----------------------------------------
elapsed time: 0.0524143s
----------------------------------------
elapsed time: 0.0620555s
----------------------------------------
elapsed time: 0.0511001s
----------------------------------------
elapsed time: 0.0549747s
----------------------------------------
elapsed time: 0.0533947s
----------------------------------------
elapsed time: 0.0814314s
----------------------------------------
elapsed time: 0.0456376s
----------------------------------------
elapsed time: 0.057407s
----------------------------------------
elapsed time: 0.061934s
----------------------------------------
elapsed time: 0.0557599s
----------------------------------------
elapsed time: 0.0561072s
----------------------------------------
elapsed time: 0.046756s
----------------------------------------
elapsed time: 0.0652083s
----------------------------------------
elapsed time: 0.0491525s
----------------------------------------
elapsed time: 0.0551482s
----------------------------------------
elapsed time: 0.0528166s
----------------------------------------
elapsed time: 0.0516477s
----------------------------------------
elapsed time: 0.0628043s
----------------------------------------
elapsed time: 0.0476129s
----------------------------------------
elapsed time: 0.0516401s
----------------------------------------
elapsed time: 0.0511208s
----------------------------------------
elapsed time: 0.0592321s
----------------------------------------
elapsed time: 0.0594197s
----------------------------------------
elapsed time: 0.0510428s
----------------------------------------
elapsed time: 0.0559784s
----------------------------------------
elapsed time: 0.0642506s
----------------------------------------
elapsed time: 0.05015s
----------------------------------------
elapsed time: 0.0482343s
----------------------------------------
elapsed time: 0.0564326s
----------------------------------------
elapsed time: 0.0506356s
----------------------------------------
elapsed time: 0.0523862s
----------------------------------------
elapsed time: 0.0652374s
----------------------------------------
elapsed time: 0.0544786s
----------------------------------------
elapsed time: 0.0527271s
----------------------------------------
elapsed time: 0.0497883s
----------------------------------------
elapsed time: 0.0920066s
----------------------------------------
elapsed time: 0.0523339s
----------------------------------------
elapsed time: 0.060504s
----------------------------------------
elapsed time: 0.0506596s
----------------------------------------
elapsed time: 0.0571505s
----------------------------------------
elapsed time: 0.0792884s
----------------------------------------
elapsed time: 0.0554279s
----------------------------------------
elapsed time: 0.127866s
----------------------------------------
elapsed time: 0.104102s
----------------------------------------
elapsed time: 0.0670312s
----------------------------------------
elapsed time: 0.0752279s
----------------------------------------
elapsed time: 0.0728775s
----------------------------------------
elapsed time: 0.0962361s
----------------------------------------
elapsed time: 0.0893641s
----------------------------------------
elapsed time: 0.11662s
----------------------------------------
elapsed time: 0.0990501s
----------------------------------------
elapsed time: 0.0881235s
----------------------------------------
elapsed time: 0.067997s
----------------------------------------
elapsed time: 0.0717928s
----------------------------------------
elapsed time: 0.0788464s
----------------------------------------
elapsed time: 0.0631384s
----------------------------------------
elapsed time: 0.0938004s
----------------------------------------
elapsed time: 0.0874234s
----------------------------------------
elapsed time: 0.0847098s
----------------------------------------
elapsed time: 0.0737567s
----------------------------------------
elapsed time: 0.0770014s
----------------------------------------
elapsed time: 0.0541634s
----------------------------------------
elapsed time: 0.0637169s
----------------------------------------
elapsed time: 0.0587963s
----------------------------------------
elapsed time: 0.0560642s
----------------------------------------
elapsed time: 0.0677474s
----------------------------------------
elapsed time: 0.0560381s
----------------------------------------
elapsed time: 0.0700717s
----------------------------------------
elapsed time: 0.0708161s
----------------------------------------
elapsed time: 0.0635771s
----------------------------------------
elapsed time: 0.0583709s
----------------------------------------
elapsed time: 0.0672685s
----------------------------------------
elapsed time: 0.0606294s
----------------------------------------
elapsed time: 0.0585683s
----------------------------------------
elapsed time: 0.0673929s
----------------------------------------
elapsed time: 0.0604283s
----------------------------------------
elapsed time: 0.0601403s
----------------------------------------
elapsed time: 0.0583943s
----------------------------------------
elapsed time: 0.0554412s
----------------------------------------
elapsed time: 0.0627847s
----------------------------------------
elapsed time: 0.066101s
----------------------------------------
elapsed time: 0.0571778s
----------------------------------------
elapsed time: 0.0810915s
----------------------------------------
elapsed time: 0.0547969s
----------------------------------------
elapsed time: 0.0614296s
----------------------------------------
elapsed time: 0.0695473s
----------------------------------------
elapsed time: 0.0998889s
----------------------------------------
elapsed time: 0.0663159s
----------------------------------------
elapsed time: 0.068531s
----------------------------------------
elapsed time: 0.0619607s
----------------------------------------
elapsed time: 0.0730313s
----------------------------------------
elapsed time: 0.0753784s
----------------------------------------
elapsed time: 0.0684972s
----------------------------------------
elapsed time: 0.068588s
----------------------------------------
elapsed time: 0.0856556s
----------------------------------------
elapsed time: 0.110741s
----------------------------------------
elapsed time: 0.0696683s
----------------------------------------
elapsed time: 0.0587478s
----------------------------------------
elapsed time: 0.0548761s
----------------------------------------
elapsed time: 0.0827016s
----------------------------------------
elapsed time: 0.0758098s
----------------------------------------
elapsed time: 0.0660796s
----------------------------------------
elapsed time: 0.0641696s
----------------------------------------
elapsed time: 0.1118s
----------------------------------------
elapsed time: 0.0703881s
----------------------------------------
elapsed time: 0.0651597s
----------------------------------------
elapsed time: 0.0661686s
----------------------------------------
elapsed time: 0.0579834s
----------------------------------------
elapsed time: 0.059947s
----------------------------------------
elapsed time: 0.0671902s
----------------------------------------
elapsed time: 0.0582538s
----------------------------------------
elapsed time: 0.0554337s
----------------------------------------
elapsed time: 0.0544142s
----------------------------------------
elapsed time: 0.0706569s
----------------------------------------
elapsed time: 0.0545707s
----------------------------------------
elapsed time: 0.0634409s
----------------------------------------
elapsed time: 0.0584931s
----------------------------------------
elapsed time: 0.0532262s
----------------------------------------
elapsed time: 0.0668331s
----------------------------------------
elapsed time: 0.0619084s
----------------------------------------
elapsed time: 0.0697024s
----------------------------------------
elapsed time: 0.064722s
----------------------------------------
elapsed time: 0.0588247s
----------------------------------------
elapsed time: 0.0530919s
----------------------------------------
elapsed time: 0.0604966s
----------------------------------------
elapsed time: 0.0602054s
----------------------------------------
elapsed time: 0.0568343s
----------------------------------------
elapsed time: 0.0613121s
----------------------------------------
elapsed time: 0.0587126s
----------------------------------------
elapsed time: 0.0551813s
----------------------------------------
elapsed time: 0.0544839s
----------------------------------------
elapsed time: 0.0731736s
----------------------------------------
elapsed time: 0.0632904s
----------------------------------------
elapsed time: 0.0847272s
----------------------------------------
elapsed time: 0.0583001s
----------------------------------------
elapsed time: 0.0797681s
----------------------------------------
elapsed time: 0.0645411s
----------------------------------------
elapsed time: 0.0591612s
----------------------------------------
elapsed time: 0.058915s
----------------------------------------
elapsed time: 0.124712s
----------------------------------------
elapsed time: 0.0783612s
----------------------------------------
elapsed time: 0.0595787s
----------------------------------------
elapsed time: 0.0787533s
----------------------------------------
elapsed time: 0.0812378s
----------------------------------------
elapsed time: 0.0601718s
----------------------------------------
elapsed time: 0.064611s
----------------------------------------
elapsed time: 0.0538941s
----------------------------------------
elapsed time: 0.0597961s
----------------------------------------
elapsed time: 0.0569517s
----------------------------------------
elapsed time: 0.0626195s
----------------------------------------
elapsed time: 0.171441s
----------------------------------------
elapsed time: 1.03342s
----------------------------------------
elapsed time: 0.0572455s
----------------------------------------
elapsed time: 0.0755484s
----------------------------------------
elapsed time: 0.0747496s
----------------------------------------
elapsed time: 0.0559984s
----------------------------------------
elapsed time: 0.0684016s
----------------------------------------
elapsed time: 0.0563071s
----------------------------------------
elapsed time: 0.0532083s
----------------------------------------
elapsed time: 0.0567674s
----------------------------------------
elapsed time: 0.0605882s
----------------------------------------
elapsed time: 0.055477s
----------------------------------------
elapsed time: 0.0565794s
----------------------------------------
elapsed time: 0.0521762s
----------------------------------------
elapsed time: 0.0515911s
----------------------------------------
elapsed time: 0.0797217s
----------------------------------------
elapsed time: 0.0907976s
----------------------------------------
elapsed time: 0.0532884s
----------------------------------------
elapsed time: 0.0718466s
----------------------------------------
elapsed time: 0.112385s
----------------------------------------
elapsed time: 0.076631s
----------------------------------------
elapsed time: 0.0576796s
----------------------------------------
elapsed time: 0.0648413s
----------------------------------------
elapsed time: 0.0662426s
----------------------------------------
elapsed time: 0.0750747s
----------------------------------------
elapsed time: 0.128736s
----------------------------------------
elapsed time: 0.0771178s
----------------------------------------
elapsed time: 0.072266s
----------------------------------------
elapsed time: 0.0598167s
----------------------------------------
elapsed time: 0.0756331s
----------------------------------------
elapsed time: 0.0632317s
----------------------------------------
elapsed time: 0.082807s
----------------------------------------
elapsed time: 0.0595878s
----------------------------------------
elapsed time: 0.0662889s
----------------------------------------
elapsed time: 0.0740602s
----------------------------------------
elapsed time: 0.0650869s
----------------------------------------
elapsed time: 0.0703342s
----------------------------------------
elapsed time: 0.0832073s
----------------------------------------
elapsed time: 0.0804386s
----------------------------------------
elapsed time: 0.0519585s
----------------------------------------
elapsed time: 0.0796875s
----------------------------------------
elapsed time: 0.0730955s
----------------------------------------
elapsed time: 0.0608267s
----------------------------------------
elapsed time: 0.0921303s
----------------------------------------
elapsed time: 0.0955235s
----------------------------------------
elapsed time: 0.0722035s
----------------------------------------
elapsed time: 0.0650758s
----------------------------------------
elapsed time: 0.0731341s
----------------------------------------
elapsed time: 0.0759158s
----------------------------------------
elapsed time: 0.0645375s
----------------------------------------
elapsed time: 0.0746204s
----------------------------------------
elapsed time: 0.0649043s
----------------------------------------
elapsed time: 0.0808966s
----------------------------------------
elapsed time: 0.0666551s
----------------------------------------
elapsed time: 0.0547552s
----------------------------------------
elapsed time: 0.0620646s
----------------------------------------
elapsed time: 0.0616448s
----------------------------------------
elapsed time: 0.0632323s
----------------------------------------
elapsed time: 0.0593519s
----------------------------------------
elapsed time: 0.0621349s
----------------------------------------
elapsed time: 0.0671971s
----------------------------------------
elapsed time: 0.0686264s
----------------------------------------
elapsed time: 0.0730083s
----------------------------------------
elapsed time: 0.0732699s
----------------------------------------
elapsed time: 0.0668214s
----------------------------------------
elapsed time: 0.069341s
----------------------------------------
elapsed time: 0.0698288s
----------------------------------------
elapsed time: 0.0661639s
----------------------------------------
elapsed time: 0.0977593s
----------------------------------------
elapsed time: 0.0794738s
----------------------------------------
elapsed time: 0.058902s
----------------------------------------
elapsed time: 0.0598857s
----------------------------------------
elapsed time: 0.0843882s
----------------------------------------
elapsed time: 0.0730217s
----------------------------------------
elapsed time: 0.0670316s
----------------------------------------
elapsed time: 0.0682152s
----------------------------------------
elapsed time: 0.0601564s
----------------------------------------
elapsed time: 0.0674752s
----------------------------------------
elapsed time: 0.0769112s
----------------------------------------
elapsed time: 0.0726455s
----------------------------------------
elapsed time: 0.0654988s
----------------------------------------
elapsed time: 0.0618294s
----------------------------------------
elapsed time: 0.0715593s
----------------------------------------
elapsed time: 0.0589026s
----------------------------------------
elapsed time: 0.0749196s
----------------------------------------
elapsed time: 0.0744205s
----------------------------------------
elapsed time: 0.0695122s
----------------------------------------
elapsed time: 0.0768769s
----------------------------------------
elapsed time: 0.0784181s
----------------------------------------
elapsed time: 0.0950887s
----------------------------------------
elapsed time: 0.102201s
----------------------------------------
elapsed time: 0.120787s
----------------------------------------
elapsed time: 0.0895763s
----------------------------------------
elapsed time: 0.0770049s
----------------------------------------
elapsed time: 0.0756344s
----------------------------------------
elapsed time: 0.0709497s
----------------------------------------
elapsed time: 0.0840155s
----------------------------------------
elapsed time: 0.0774698s
----------------------------------------
elapsed time: 0.0787852s
----------------------------------------
elapsed time: 0.0702206s
----------------------------------------
elapsed time: 0.0824872s
----------------------------------------
elapsed time: 0.0790801s
----------------------------------------
elapsed time: 0.0775707s
----------------------------------------
elapsed time: 0.0524608s
----------------------------------------
elapsed time: 0.0646919s
----------------------------------------
elapsed time: 0.0543863s
----------------------------------------
elapsed time: 0.0690924s
----------------------------------------
elapsed time: 0.0838967s
----------------------------------------
elapsed time: 0.077076s
----------------------------------------
elapsed time: 0.058385s
----------------------------------------
elapsed time: 0.0622548s
----------------------------------------
elapsed time: 0.0882755s
----------------------------------------
elapsed time: 0.106439s
----------------------------------------
elapsed time: 0.0790202s
----------------------------------------
elapsed time: 0.0780364s
----------------------------------------
elapsed time: 0.0665725s
----------------------------------------
elapsed time: 0.0834911s
----------------------------------------
elapsed time: 0.0920152s
----------------------------------------
elapsed time: 0.0615158s
----------------------------------------
elapsed time: 0.0654695s
----------------------------------------
elapsed time: 0.069465s
----------------------------------------
elapsed time: 0.0629103s
----------------------------------------
elapsed time: 0.0696408s
----------------------------------------
elapsed time: 0.0589118s
----------------------------------------
elapsed time: 0.0615384s
----------------------------------------
elapsed time: 0.0598829s
----------------------------------------
elapsed time: 0.0588698s
----------------------------------------
elapsed time: 0.0618592s
----------------------------------------
elapsed time: 0.0505212s
----------------------------------------
elapsed time: 0.0580196s
----------------------------------------
elapsed time: 0.0569728s
----------------------------------------
elapsed time: 0.0550826s
----------------------------------------
elapsed time: 0.0746082s
----------------------------------------
elapsed time: 0.0731206s
----------------------------------------
elapsed time: 0.062645s
----------------------------------------
elapsed time: 0.0604972s
----------------------------------------
elapsed time: 0.0698726s
----------------------------------------
elapsed time: 0.0595639s
----------------------------------------
elapsed time: 0.0806241s
----------------------------------------
elapsed time: 0.0626392s
----------------------------------------
elapsed time: 0.0592822s
----------------------------------------
elapsed time: 0.0562534s
----------------------------------------
elapsed time: 0.0654873s
----------------------------------------
elapsed time: 0.0656662s
----------------------------------------
elapsed time: 0.0666922s
----------------------------------------
elapsed time: 0.0615428s
----------------------------------------
elapsed time: 0.0751535s
----------------------------------------
elapsed time: 0.0719015s
----------------------------------------
elapsed time: 0.0689315s
----------------------------------------
elapsed time: 0.0775152s
----------------------------------------
elapsed time: 0.0590698s
----------------------------------------
elapsed time: 0.0544915s
----------------------------------------
elapsed time: 0.0622718s
----------------------------------------
elapsed time: 0.0692635s
----------------------------------------
elapsed time: 0.096136s
----------------------------------------
elapsed time: 0.0703207s
----------------------------------------
elapsed time: 0.0645409s
----------------------------------------
elapsed time: 0.0630027s
----------------------------------------
elapsed time: 0.0655075s
----------------------------------------
elapsed time: 0.0602885s
----------------------------------------
elapsed time: 0.0712337s
----------------------------------------
elapsed time: 0.0950846s
----------------------------------------
elapsed time: 0.0891482s
----------------------------------------
elapsed time: 0.074698s
----------------------------------------
elapsed time: 0.0729445s
----------------------------------------
elapsed time: 0.0743861s
----------------------------------------
elapsed time: 0.0765715s
----------------------------------------
elapsed time: 0.0609153s
----------------------------------------
elapsed time: 0.0646943s
----------------------------------------
elapsed time: 0.052558s
----------------------------------------
elapsed time: 0.0652106s
----------------------------------------
elapsed time: 0.0559267s
----------------------------------------
elapsed time: 0.0585687s
----------------------------------------
elapsed time: 0.0556819s
----------------------------------------
elapsed time: 0.0461152s
----------------------------------------
elapsed time: 0.0512584s
----------------------------------------
elapsed time: 0.0520661s
----------------------------------------
elapsed time: 0.0571733s
----------------------------------------
elapsed time: 0.0560911s
----------------------------------------
elapsed time: 0.0575701s
----------------------------------------
elapsed time: 0.0560151s
----------------------------------------
elapsed time: 0.06281s
----------------------------------------
elapsed time: 0.0745056s
----------------------------------------
elapsed time: 0.0535708s
----------------------------------------
elapsed time: 0.0565404s
----------------------------------------
elapsed time: 0.0621603s
----------------------------------------
elapsed time: 0.0559571s
----------------------------------------
elapsed time: 0.0632758s
----------------------------------------
elapsed time: 0.0708701s
----------------------------------------
elapsed time: 0.0940114s
----------------------------------------
elapsed time: 0.0600253s
----------------------------------------
elapsed time: 0.0609506s
----------------------------------------
elapsed time: 0.0454024s
----------------------------------------
elapsed time: 0.0579259s
----------------------------------------
elapsed time: 0.0752384s
----------------------------------------
elapsed time: 0.0825555s
----------------------------------------
elapsed time: 0.0911047s
----------------------------------------
elapsed time: 0.0743854s
----------------------------------------
elapsed time: 0.0745672s
----------------------------------------
elapsed time: 0.0726923s
----------------------------------------
elapsed time: 0.0759964s
----------------------------------------
elapsed time: 0.0663652s
----------------------------------------
elapsed time: 0.0975013s
----------------------------------------
elapsed time: 0.0734592s
----------------------------------------
elapsed time: 0.0686823s
----------------------------------------
elapsed time: 0.0809762s
----------------------------------------
elapsed time: 0.0806135s
----------------------------------------
elapsed time: 0.0670113s
----------------------------------------
elapsed time: 0.0635572s
----------------------------------------
elapsed time: 0.0581078s
----------------------------------------
elapsed time: 0.0640926s
----------------------------------------
elapsed time: 0.521354s
----------------------------------------
elapsed time: 0.0924282s
----------------------------------------
elapsed time: 0.0614773s
----------------------------------------
elapsed time: 0.0684818s
----------------------------------------
elapsed time: 0.0788848s
----------------------------------------
elapsed time: 0.0736134s
----------------------------------------
elapsed time: 0.0786124s
----------------------------------------
elapsed time: 0.0755854s
----------------------------------------
elapsed time: 0.0660776s
----------------------------------------
elapsed time: 0.0727067s
----------------------------------------
elapsed time: 0.059323s
----------------------------------------
elapsed time: 0.0614904s
----------------------------------------
elapsed time: 0.0595702s
----------------------------------------
elapsed time: 0.0621254s
----------------------------------------
elapsed time: 0.0839114s
----------------------------------------
elapsed time: 0.0664585s
----------------------------------------
elapsed time: 0.279168s
----------------------------------------
elapsed time: 0.0796803s
----------------------------------------
elapsed time: 0.0638801s
----------------------------------------
elapsed time: 0.0641071s
----------------------------------------
elapsed time: 0.0684959s
----------------------------------------
elapsed time: 0.265536s
----------------------------------------
elapsed time: 0.0564451s
----------------------------------------
elapsed time: 0.0646913s
----------------------------------------
elapsed time: 0.0680854s
----------------------------------------
elapsed time: 0.0751643s
----------------------------------------
elapsed time: 0.0713622s
----------------------------------------
elapsed time: 0.0751451s
----------------------------------------
elapsed time: 0.0749989s
----------------------------------------
elapsed time: 0.068834s
----------------------------------------
elapsed time: 0.0584733s
----------------------------------------
elapsed time: 0.0618133s
----------------------------------------
elapsed time: 0.063247s
----------------------------------------
elapsed time: 0.0667215s
----------------------------------------
elapsed time: 0.067966s
----------------------------------------
elapsed time: 0.0635324s
----------------------------------------
elapsed time: 0.075717s
----------------------------------------
elapsed time: 0.0666277s
----------------------------------------
elapsed time: 0.0761074s
----------------------------------------
elapsed time: 0.0711831s
----------------------------------------
elapsed time: 0.0817053s
----------------------------------------
elapsed time: 0.0617675s
----------------------------------------
elapsed time: 0.0837943s
----------------------------------------
elapsed time: 0.0671367s
----------------------------------------
elapsed time: 0.0642012s
----------------------------------------
elapsed time: 0.0620482s
----------------------------------------
elapsed time: 0.0586823s
----------------------------------------
elapsed time: 0.0820463s
----------------------------------------
elapsed time: 0.0708901s
----------------------------------------
elapsed time: 0.0690394s
----------------------------------------
elapsed time: 0.0657147s
----------------------------------------
elapsed time: 0.0727884s
----------------------------------------
elapsed time: 0.0667558s
----------------------------------------
elapsed time: 0.0821159s
----------------------------------------
elapsed time: 0.06391s
----------------------------------------
elapsed time: 0.0862117s
----------------------------------------
elapsed time: 0.0567391s
----------------------------------------
elapsed time: 0.058538s
----------------------------------------
elapsed time: 0.0740953s
----------------------------------------
elapsed time: 0.0648868s
----------------------------------------
elapsed time: 0.0664517s
----------------------------------------
elapsed time: 0.0596371s
----------------------------------------
elapsed time: 0.0620219s
----------------------------------------
elapsed time: 0.0661756s
----------------------------------------
elapsed time: 0.0572814s
----------------------------------------
elapsed time: 0.0583375s
----------------------------------------
elapsed time: 0.0680409s
----------------------------------------
elapsed time: 0.0599945s
----------------------------------------
elapsed time: 0.0708379s
----------------------------------------
elapsed time: 0.0603506s
----------------------------------------
elapsed time: 0.0654889s
----------------------------------------
elapsed time: 0.0751776s
----------------------------------------
elapsed time: 0.0629533s
----------------------------------------
elapsed time: 0.065691s
----------------------------------------
elapsed time: 0.0627437s
----------------------------------------
elapsed time: 0.0582994s
----------------------------------------
elapsed time: 0.0664654s
----------------------------------------
elapsed time: 0.0728678s
----------------------------------------
elapsed time: 0.0689517s
----------------------------------------
elapsed time: 0.080665s
----------------------------------------
elapsed time: 0.0658414s
----------------------------------------
elapsed time: 0.0650631s
----------------------------------------
elapsed time: 0.0630942s
----------------------------------------
elapsed time: 0.0662757s
----------------------------------------
elapsed time: 0.0674674s
----------------------------------------
elapsed time: 0.0683917s
----------------------------------------
elapsed time: 0.0676879s
----------------------------------------
elapsed time: 0.077939s
----------------------------------------
elapsed time: 0.0679366s
----------------------------------------
elapsed time: 0.0646369s
----------------------------------------
elapsed time: 0.0975939s
----------------------------------------
elapsed time: 0.0856622s
----------------------------------------
elapsed time: 0.0729005s
----------------------------------------
elapsed time: 0.0686794s
----------------------------------------
elapsed time: 0.0733405s
----------------------------------------
elapsed time: 0.0821636s
----------------------------------------
elapsed time: 0.0628803s
----------------------------------------
elapsed time: 0.0666727s
----------------------------------------
elapsed time: 0.0708523s
----------------------------------------
elapsed time: 0.0795096s
----------------------------------------
elapsed time: 0.069969s
----------------------------------------
elapsed time: 0.393193s
----------------------------------------
elapsed time: 0.401621s
----------------------------------------
elapsed time: 0.0732511s
----------------------------------------
elapsed time: 0.0618893s
----------------------------------------
elapsed time: 0.0798711s
----------------------------------------
elapsed time: 0.0673704s
----------------------------------------
elapsed time: 0.0625921s
----------------------------------------
elapsed time: 0.0675752s
----------------------------------------
elapsed time: 0.0786161s
----------------------------------------
elapsed time: 0.0666157s
----------------------------------------
elapsed time: 0.0604257s
----------------------------------------
elapsed time: 0.0758828s
----------------------------------------
elapsed time: 0.0591524s
----------------------------------------
elapsed time: 0.0557367s
----------------------------------------
elapsed time: 0.0612333s
----------------------------------------
elapsed time: 0.0634049s
----------------------------------------
elapsed time: 0.0674264s
----------------------------------------
elapsed time: 0.0706306s
----------------------------------------
elapsed time: 0.0727182s
----------------------------------------
elapsed time: 0.0647424s
----------------------------------------
elapsed time: 0.0720405s
----------------------------------------
elapsed time: 0.0641153s
----------------------------------------
elapsed time: 0.108015s
----------------------------------------
elapsed time: 0.0899219s
----------------------------------------
elapsed time: 0.0679924s
----------------------------------------
elapsed time: 0.0582394s
----------------------------------------
elapsed time: 0.0643831s
----------------------------------------
elapsed time: 0.0672507s
----------------------------------------
elapsed time: 0.0841099s
----------------------------------------
elapsed time: 0.057204s
----------------------------------------
elapsed time: 0.0775182s
----------------------------------------
elapsed time: 0.0907624s
----------------------------------------
elapsed time: 0.0927906s
----------------------------------------
elapsed time: 0.0995602s
----------------------------------------
elapsed time: 0.0882637s
----------------------------------------
elapsed time: 0.0969534s
----------------------------------------
elapsed time: 0.0881131s
----------------------------------------
elapsed time: 0.0883483s
----------------------------------------
elapsed time: 0.091573s
----------------------------------------
elapsed time: 0.0956158s
----------------------------------------
elapsed time: 0.096781s
----------------------------------------
elapsed time: 0.0826432s
----------------------------------------
elapsed time: 0.0867839s
----------------------------------------
elapsed time: 0.080122s
----------------------------------------
elapsed time: 0.10221s
----------------------------------------
elapsed time: 0.077183s
----------------------------------------
elapsed time: 0.0849265s
----------------------------------------
elapsed time: 0.0941208s
----------------------------------------
elapsed time: 0.085366s
----------------------------------------
elapsed time: 0.0646435s
----------------------------------------
elapsed time: 0.074558s
----------------------------------------
elapsed time: 0.0594035s
----------------------------------------
elapsed time: 0.0597935s
----------------------------------------
elapsed time: 0.0704909s
----------------------------------------
elapsed time: 0.0632214s
----------------------------------------
elapsed time: 0.0599493s
----------------------------------------
elapsed time: 0.0623022s
----------------------------------------
elapsed time: 0.0565693s
----------------------------------------
elapsed time: 0.0679392s
----------------------------------------
elapsed time: 0.0633334s
----------------------------------------
elapsed time: 0.0622913s
----------------------------------------
elapsed time: 0.0793239s
----------------------------------------
elapsed time: 0.0727105s
----------------------------------------
elapsed time: 0.0599056s
----------------------------------------
elapsed time: 0.0620378s
----------------------------------------
elapsed time: 0.0645728s
----------------------------------------
elapsed time: 0.0612567s
----------------------------------------
elapsed time: 0.0598888s
----------------------------------------
elapsed time: 0.0651667s
----------------------------------------
elapsed time: 0.0613503s
----------------------------------------
elapsed time: 0.0754134s
----------------------------------------
elapsed time: 0.0595601s
----------------------------------------
elapsed time: 0.060508s
----------------------------------------
elapsed time: 0.0690913s
----------------------------------------
elapsed time: 0.0654111s
----------------------------------------
elapsed time: 0.0701486s
----------------------------------------
elapsed time: 0.073806s
----------------------------------------
elapsed time: 0.0617809s
----------------------------------------
elapsed time: 0.0669782s
----------------------------------------
elapsed time: 0.0621335s
----------------------------------------
elapsed time: 0.0732027s
----------------------------------------
elapsed time: 0.0649805s
----------------------------------------
elapsed time: 0.0674185s
----------------------------------------
elapsed time: 0.061757s
----------------------------------------
elapsed time: 0.08026s
----------------------------------------
elapsed time: 0.0631454s
----------------------------------------
elapsed time: 0.0658874s
----------------------------------------
elapsed time: 0.0821479s
----------------------------------------
elapsed time: 0.0718005s
----------------------------------------
elapsed time: 0.0689144s
----------------------------------------
elapsed time: 0.0726132s
----------------------------------------
elapsed time: 0.0623757s
----------------------------------------
elapsed time: 0.0770785s
----------------------------------------
elapsed time: 0.0609726s
----------------------------------------
elapsed time: 0.0643592s
----------------------------------------
elapsed time: 0.064714s
----------------------------------------
elapsed time: 0.0663975s
----------------------------------------
elapsed time: 0.0651147s
----------------------------------------
elapsed time: 0.0658362s
----------------------------------------
elapsed time: 0.0594991s
----------------------------------------
elapsed time: 0.0692855s
----------------------------------------
elapsed time: 0.0594533s
----------------------------------------
elapsed time: 0.0668786s
----------------------------------------
elapsed time: 0.0743134s
----------------------------------------
elapsed time: 0.0623644s
----------------------------------------
elapsed time: 0.0618412s
----------------------------------------
elapsed time: 0.0764942s
----------------------------------------
elapsed time: 0.0608834s
----------------------------------------
elapsed time: 0.0638907s
----------------------------------------
elapsed time: 0.066543s
----------------------------------------
elapsed time: 0.058644s
----------------------------------------
elapsed time: 0.0682726s
----------------------------------------
elapsed time: 0.0586901s
----------------------------------------
elapsed time: 0.726205s
----------------------------------------
elapsed time: 0.063795s
----------------------------------------
elapsed time: 0.0604607s
----------------------------------------
elapsed time: 0.0601278s
----------------------------------------
elapsed time: 0.0656612s
----------------------------------------
elapsed time: 0.0688378s
----------------------------------------
elapsed time: 0.0695589s
----------------------------------------
elapsed time: 0.0600417s
----------------------------------------
elapsed time: 0.0611394s
----------------------------------------
elapsed time: 0.0622592s
----------------------------------------
elapsed time: 1.49278s
----------------------------------------
elapsed time: 0.0659685s
----------------------------------------
elapsed time: 0.0820822s
----------------------------------------
elapsed time: 0.0797473s
----------------------------------------
elapsed time: 0.0820533s
----------------------------------------
elapsed time: 0.0746625s
----------------------------------------
elapsed time: 0.0676621s
----------------------------------------
elapsed time: 0.0826767s
----------------------------------------
elapsed time: 0.0655127s
----------------------------------------
elapsed time: 0.0867842s
----------------------------------------
elapsed time: 0.0572119s
----------------------------------------
elapsed time: 0.0611171s
----------------------------------------
elapsed time: 0.0650277s
----------------------------------------
elapsed time: 0.0659941s
----------------------------------------
elapsed time: 0.0772821s
----------------------------------------
elapsed time: 0.068492s
----------------------------------------
elapsed time: 0.0609377s
----------------------------------------
elapsed time: 0.0611927s
----------------------------------------
elapsed time: 0.0647555s
----------------------------------------
elapsed time: 0.0657634s
----------------------------------------
elapsed time: 0.0571385s
----------------------------------------
elapsed time: 0.0625828s
----------------------------------------
elapsed time: 0.0705438s
----------------------------------------
elapsed time: 0.0657005s
----------------------------------------
elapsed time: 0.117836s
----------------------------------------
elapsed time: 0.0614835s
----------------------------------------
elapsed time: 0.101477s
----------------------------------------
elapsed time: 0.0948976s
----------------------------------------
elapsed time: 0.0565979s
----------------------------------------
elapsed time: 0.0641602s
----------------------------------------
elapsed time: 0.0589881s
----------------------------------------
elapsed time: 0.064872s
----------------------------------------
elapsed time: 0.0702637s
----------------------------------------
elapsed time: 0.0707155s
----------------------------------------
elapsed time: 0.0664479s
----------------------------------------
elapsed time: 0.06678s
----------------------------------------
elapsed time: 0.0654302s
----------------------------------------
elapsed time: 0.0602024s
----------------------------------------
elapsed time: 0.0592304s
----------------------------------------
elapsed time: 0.063944s
----------------------------------------
elapsed time: 0.0721656s
----------------------------------------
elapsed time: 0.0616076s
----------------------------------------
elapsed time: 0.05655s
----------------------------------------
elapsed time: 0.0601717s
----------------------------------------
elapsed time: 0.0787038s
----------------------------------------
elapsed time: 0.0585955s
----------------------------------------
elapsed time: 0.0576432s
----------------------------------------
elapsed time: 0.0839538s
----------------------------------------
elapsed time: 0.0647704s
----------------------------------------
elapsed time: 0.0741753s
----------------------------------------
elapsed time: 0.0652692s
----------------------------------------
elapsed time: 0.0642882s
----------------------------------------
elapsed time: 0.0758225s
----------------------------------------
elapsed time: 0.0728084s
----------------------------------------
elapsed time: 0.061371s
----------------------------------------
elapsed time: 0.0697627s
----------------------------------------
elapsed time: 0.0622672s
----------------------------------------
elapsed time: 0.0622574s
----------------------------------------
elapsed time: 0.0602072s
----------------------------------------
elapsed time: 0.0571984s
----------------------------------------
elapsed time: 0.0622221s
----------------------------------------
elapsed time: 0.0615179s
----------------------------------------
elapsed time: 0.0634843s
----------------------------------------
elapsed time: 0.0634614s
----------------------------------------
elapsed time: 0.0645112s
----------------------------------------
elapsed time: 0.0617408s
----------------------------------------
elapsed time: 0.0606366s
----------------------------------------
elapsed time: 0.062778s
----------------------------------------
elapsed time: 0.0665132s
----------------------------------------
elapsed time: 0.0594765s
----------------------------------------
elapsed time: 0.0664305s
----------------------------------------
elapsed time: 0.0611924s
----------------------------------------
elapsed time: 0.05759s
----------------------------------------
elapsed time: 0.0642743s
----------------------------------------
elapsed time: 0.0856405s
----------------------------------------
elapsed time: 0.0670962s
----------------------------------------
elapsed time: 0.077341s
----------------------------------------
elapsed time: 0.062348s
----------------------------------------
elapsed time: 0.060634s
----------------------------------------
elapsed time: 0.0657763s
----------------------------------------
elapsed time: 0.0810787s
----------------------------------------
elapsed time: 0.0538585s
----------------------------------------
elapsed time: 0.0684243s
----------------------------------------
elapsed time: 0.0721989s
----------------------------------------
elapsed time: 0.0612949s
----------------------------------------
elapsed time: 0.0680507s
----------------------------------------
elapsed time: 0.0617489s
----------------------------------------
elapsed time: 0.0617284s
----------------------------------------
elapsed time: 0.0662166s
----------------------------------------
elapsed time: 0.0629655s
----------------------------------------
elapsed time: 0.0625639s
----------------------------------------
elapsed time: 0.0619126s
----------------------------------------
elapsed time: 0.0666552s
----------------------------------------
elapsed time: 0.0636479s
----------------------------------------
elapsed time: 0.0587139s
----------------------------------------
elapsed time: 0.0592956s
----------------------------------------
elapsed time: 0.0617777s
----------------------------------------
elapsed time: 0.0689282s
----------------------------------------
elapsed time: 0.0536689s
----------------------------------------
elapsed time: 0.0596331s
----------------------------------------
elapsed time: 0.0646227s
----------------------------------------
elapsed time: 0.061613s
----------------------------------------
elapsed time: 0.0588283s
----------------------------------------
elapsed time: 0.0586337s
----------------------------------------
elapsed time: 0.0674338s
----------------------------------------
elapsed time: 0.0584765s
----------------------------------------
elapsed time: 0.0593188s
----------------------------------------
elapsed time: 0.0576512s
----------------------------------------
elapsed time: 0.0600317s
----------------------------------------
elapsed time: 0.0594498s
----------------------------------------
elapsed time: 0.0804182s
----------------------------------------
elapsed time: 0.05706s
----------------------------------------
elapsed time: 0.057987s
----------------------------------------
elapsed time: 0.063837s
----------------------------------------
elapsed time: 0.0609453s
----------------------------------------
elapsed time: 0.0675353s
----------------------------------------
elapsed time: 0.0598616s
----------------------------------------
elapsed time: 0.059652s
----------------------------------------
elapsed time: 0.0590118s
----------------------------------------
elapsed time: 0.0642221s
----------------------------------------
elapsed time: 0.0608665s
----------------------------------------
elapsed time: 0.0641886s
----------------------------------------
elapsed time: 0.112206s
----------------------------------------
elapsed time: 0.0615404s
----------------------------------------
elapsed time: 0.0601648s
----------------------------------------
elapsed time: 0.0846134s
----------------------------------------
elapsed time: 0.0627936s
----------------------------------------
elapsed time: 0.0604548s
----------------------------------------
elapsed time: 0.0698598s
----------------------------------------
elapsed time: 0.058235s
----------------------------------------
elapsed time: 0.0645693s
----------------------------------------
elapsed time: 0.0623754s
----------------------------------------
elapsed time: 0.0640499s
----------------------------------------
elapsed time: 0.0598263s
----------------------------------------
elapsed time: 0.0608033s
----------------------------------------
elapsed time: 0.067946s
----------------------------------------
elapsed time: 0.0648535s
----------------------------------------
elapsed time: 0.0687194s
----------------------------------------
elapsed time: 0.0588318s
----------------------------------------
elapsed time: 0.0667082s
----------------------------------------
elapsed time: 0.0636353s
----------------------------------------
elapsed time: 0.0605287s
----------------------------------------
elapsed time: 0.0564256s
----------------------------------------
elapsed time: 0.0785219s
----------------------------------------
elapsed time: 0.0607476s
----------------------------------------
elapsed time: 0.0609043s
----------------------------------------
elapsed time: 0.0559809s
----------------------------------------
elapsed time: 0.0576127s
----------------------------------------
elapsed time: 0.0693589s
----------------------------------------
elapsed time: 0.0630683s
----------------------------------------
elapsed time: 0.0608644s
----------------------------------------
elapsed time: 0.0642573s
----------------------------------------
elapsed time: 0.0621381s
----------------------------------------
elapsed time: 0.0675455s
----------------------------------------
elapsed time: 0.403799s
----------------------------------------
elapsed time: 0.0579147s
----------------------------------------
elapsed time: 0.0746655s
----------------------------------------
elapsed time: 0.0697517s
----------------------------------------
elapsed time: 0.0636632s
----------------------------------------
elapsed time: 0.0665257s
----------------------------------------
elapsed time: 0.058114s
----------------------------------------
elapsed time: 0.0663371s
----------------------------------------
elapsed time: 0.0761675s
----------------------------------------
elapsed time: 0.0579709s
----------------------------------------
elapsed time: 0.114487s
----------------------------------------
elapsed time: 0.0675591s
----------------------------------------
elapsed time: 0.0788016s
----------------------------------------
elapsed time: 0.06487s
----------------------------------------
elapsed time: 0.0630921s
----------------------------------------
elapsed time: 0.0572066s
----------------------------------------
elapsed time: 0.0765254s
----------------------------------------
elapsed time: 0.0681804s
----------------------------------------
elapsed time: 0.0779485s
----------------------------------------
elapsed time: 0.0626969s
----------------------------------------
elapsed time: 0.0573389s
----------------------------------------
elapsed time: 0.063892s
----------------------------------------
elapsed time: 0.0658261s
----------------------------------------
elapsed time: 0.0694642s
----------------------------------------
elapsed time: 0.0588684s
----------------------------------------
elapsed time: 0.0635357s
----------------------------------------
elapsed time: 0.0593196s
----------------------------------------
elapsed time: 0.0636331s
----------------------------------------
elapsed time: 0.064683s
----------------------------------------
elapsed time: 0.0959195s
----------------------------------------
elapsed time: 0.0648961s
----------------------------------------
elapsed time: 0.0694227s
