-0.000237965;0.502088
-0.000230083;0.502053
-0.00023023;0.501991
-0.000234385;0.501906
-0.000235277;0.501731
-0.000231607;0.501629
-0.000234444;0.501519
-0.000238669;0.50131
-0.000243231;0.501216
-0.000247181;0.501124
-0.000242811;0.500983
-0.000254181;0.500884
-0.000249655;0.500795
-0.000249951;0.500638
-0.000252148;0.500578
-0.000260516;0.500463
-0.000260337;0.5004
-0.000266584;0.500346
-0.000273664;0.500227
-0.00028303;0.500167
-0.000289388;0.50008
-0.000294139;0.500046
-0.000307649;0.499996
-0.000318021;0.499961
-0.000321984;0.499887
-0.000327923;0.499845
-0.000331688;0.499823
-0.000335473;0.499781
-0.000333364;0.499749
-0.000333119;0.499729
-0.000343407;0.499677
-0.000349418;0.499645
-0.000354397;0.499598
-0.000353126;0.499592
-0.000354328;0.499574
-0.000359484;0.499544
-0.000358704;0.499514
-0.000372647;0.49948
-0.000378774;0.499473
-0.000375688;0.499447
-0.000381863;0.499428
-0.000387631;0.499394
-0.000403587;0.499338
-0.00040976;0.499327
-0.000412726;0.499299
-0.000413273;0.499293
-0.000417792;0.499284
-0.000423365;0.499267
-0.000432301;0.499257
-0.0004344;0.499238
-0.000436893;0.499243
-0.000429437;0.499241
-0.000425043;0.499242
-0.000396479;0.499312
-0.000332299;0.499503
-0.000285716;0.499622
-0.000174229;0.4999
-0.000117461;0.500054
1.97894e-05;0.500331
9.83234e-05;0.500535
0.000301439;0.50099
0.000416209;0.501234
0.000667174;0.50176
0.000795238;0.50202
0.00092497;0.502271
0.00128272;0.502969
0.00148573;0.503359
0.00189227;0.504148
0.00210184;0.504541
0.002331;0.504954
0.002331;0.504954
0.002331;0.504954
0.002331;0.504954
0.002331;0.504954
0.00255638;0.505379
0.00287518;0.505952
0.00320358;0.506513
0.00360152;0.507187
0.00443469;0.508587
0.00487044;0.509304
0.0057449;0.510732
0.00619285;0.511425
0.00710738;0.512818
0.0076453;0.513607
0.00819369;0.514407
0.00923879;0.515906
0.00979044;0.51667
0.0108707;0.518182
0.0114112;0.51892
0.0126785;0.520604
0.0133424;0.521471
0.0140058;0.522334
0.0153037;0.523992
0.0159769;0.524827
0.0172883;0.526421
0.0180466;0.527329
0.0188234;0.528254
0.0204219;0.530109
0.0212329;0.531035
0.0227959;0.532806
0.023557;0.533642
0.025317;0.535553
0.0262668;0.536564
0.0281721;0.538557
0.0290821;0.5395
0.0308467;0.541273
0.031739;0.542166
0.0338446;0.544213
0.0349359;0.545263
0.0370744;0.547277
0.0381456;0.548267
0.0391862;0.549219
0.0413858;0.551206
0.0425519;0.552231
0.0450053;0.554367
0.0462443;0.555425
0.0485218;0.557345
0.0495862;0.558246
0.0506817;0.559131
0.0532925;0.561229
0.0546422;0.562302
0.0573915;0.564432
0.0587664;0.565465
0.0613414;0.567392
0.0626341;0.568341
0.0656059;0.570496
0.0671447;0.571583
0.0701496;0.573671
0.0716389;0.574696
0.0730836;0.575665
0.0756408;0.577372
0.0770896;0.578312
0.0803674;0.580408
0.0820531;0.581463
0.0852734;0.583425
0.0868986;0.584393
0.0901886;0.586342
0.0919279;0.587345
0.0955925;0.589435
0.0974208;0.590472
0.100902;0.592371
0.10262;0.593296
0.104213;0.594152
0.107455;0.59583
0.109189;0.596716
0.112913;0.598569
0.114765;0.599473
0.118249;0.601142
0.119988;0.601962
0.1219;0.602847
0.126048;0.60472
0.128103;0.605623
0.13198;0.607311
0.133914;0.608133
0.135734;0.608895
0.139859;0.610581
0.142101;0.61147
0.146414;0.613153
0.148556;0.613969
0.150705;0.614768
0.154568;0.616221
0.156751;0.617044
0.161419;0.618651
0.16374;0.619444
0.168205;0.620925
0.170378;0.621614
0.171703;0.62203
0.175023;0.623043
0.177005;0.623626
0.181127;0.6248
0.183364;0.625421
0.187917;0.626631
0.190196;0.627214
0.19443;0.628277
0.196541;0.628779
0.198643;0.629268
0.203265;0.630308
0.205628;0.630816
0.21059;0.631805
0.213159;0.632314
0.218502;0.63335
0.220823;0.63381
0.223146;0.634221
0.22771;0.634976
0.230062;0.635335
0.235246;0.636114
0.23784;0.636477
0.240499;0.636845
0.245887;0.637539
0.251106;0.638165
0.253393;0.638412
0.2558;0.638657
0.261105;0.639183
0.263811;0.639424
0.269252;0.63987
0.271853;0.640072
0.274252;0.640237
0.279533;0.640584
0.282298;0.640741
0.287891;0.641008
0.290005;0.641097
0.294682;0.641253
0.297085;0.641324
0.302382;0.641432
0.305098;0.641471
0.307867;0.641498
0.313149;0.641517
0.315588;0.64151
0.320416;0.641472
0.322994;0.641426
0.328458;0.641258
0.331218;0.641169
0.336602;0.640972
0.339243;0.640871
0.344444;0.640627
0.347113;0.640482
0.352447;0.64015
0.355113;0.639975
0.357747;0.639798
0.362917;0.639433
0.365467;0.63924
0.370957;0.638787
0.37373;0.638547
0.37911;0.638067
0.38176;0.637807
0.386853;0.637314
0.389305;0.637059
0.394377;0.636376
0.396886;0.636063
0.399376;0.635775
0.40423;0.635187
0.406607;0.634912
0.411171;0.634373
0.413597;0.634065
0.418465;0.633441
0.420874;0.633119
0.425621;0.632476
0.427903;0.632158
0.432374;0.631528
0.434659;0.6312
0.436976;0.630869
0.441606;0.630288
0.443891;0.629949
0.448208;0.6293
0.450323;0.628971
0.454678;0.628288
0.456876;0.627939
0.458987;0.627603
0.463021;0.626935
0.464995;0.626616
0.46866;0.626005
0.470447;0.625699
0.473587;0.625172
0.47513;0.624924
0.478025;0.624449
0.479452;0.624216
0.482153;0.623768
0.484334;0.623386
0.488827;0.622623
0.491167;0.62222
0.493458;0.62183
0.497876;0.621057
0.49999;0.620685
0.504328;0.619927
0.506485;0.619538
0.510716;0.618788
0.51277;0.618432
0.51667;0.617717
0.518556;0.617371
0.520523;0.617007
0.524486;0.616277
0.526463;0.615905
0.530264;0.615199
0.532112;0.614854
0.535706;0.61417
0.537616;0.613814
0.539532;0.613444
0.54339;0.612695
0.54716;0.611981
0.548972;0.611626
0.550698;0.611282
0.554406;0.610551
0.556277;0.610173
0.55996;0.609445
0.561799;0.609101
0.565342;0.608411
0.567032;0.608077
0.570579;0.607366
0.572428;0.606998
0.576039;0.60628
0.577819;0.605922
0.579521;0.605573
0.582807;0.604898
0.584596;0.604539
0.588269;0.60377
0.590107;0.603379
0.591894;0.603003
0.595229;0.602301
0.596874;0.601945
0.600392;0.601214
0.602187;0.60085
0.605761;0.600117
0.607558;0.599743
0.610949;0.599036
0.612583;0.598698
0.616058;0.597966
0.617832;0.597589
0.619587;0.597209
0.623025;0.596465
0.626377;0.595719
0.627984;0.595372
0.629682;0.595006
0.633178;0.594232
0.634937;0.593838
0.636628;0.593441
0.639873;0.592709
0.641496;0.592347
0.644915;0.591571
0.646686;0.591175
0.650161;0.590348
0.651889;0.589945
0.655182;0.589193
0.656804;0.58882
0.658521;0.588417
0.662024;0.587604
0.663777;0.587186
0.667214;0.586367
0.668897;0.58597
0.672114;0.585195
0.673837;0.584785
0.67732;0.583933
0.679056;0.583504
0.682392;0.582681
0.684035;0.582269
0.687198;0.581482
0.688881;0.58106
0.690571;0.58063
0.693967;0.579773
0.695677;0.579349
0.698943;0.578518
0.700525;0.57812
0.703899;0.57725
0.705635;0.576809
0.709046;0.575925
0.710735;0.575501
0.714038;0.57466
0.715621;0.574257
0.717292;0.57383
0.720732;0.572951
0.722441;0.572515
0.725759;0.57169
0.727361;0.571286
0.730417;0.570513
0.731909;0.570131
0.733326;0.569763
0.736089;0.56908
0.737414;0.568747
0.739929;0.56813
0.74112;0.567846
0.742261;0.567571
0.744435;0.567054
0.745468;0.566811
0.747387;0.566366
0.74828;0.566164
0.749924;0.565784
0.750714;0.565613
0.751465;0.565451
0.752892;0.565144
0.75353;0.565017
0.754628;0.564794
0.755146;0.564699
0.75564;0.564603
0.756572;0.564428
0.757004;0.564357
0.757732;0.564229
0.758082;0.564174
0.758672;0.564077
0.758949;0.564035
0.759439;0.563965
0.759657;0.563937
0.759975;0.563895
0.760087;0.563881
0.760157;0.563871
0.760287;0.563855
0.760342;0.563855
0.760327;0.563855
0.760301;0.563859
0.760159;0.563868
0.760054;0.563875
0.759855;0.563884
0.759753;0.563884
0.759609;0.56389
0.759257;0.563897
0.759041;0.563893
0.75857;0.563883
0.758351;0.563869
0.757862;0.56386
0.757612;0.563849
0.757314;0.563837
0.756658;0.563798
0.75632;0.563775
0.755681;0.563719
0.75535;0.563705
0.754602;0.56365
0.754216;0.563616
0.753398;0.563531
0.752981;0.563472
0.752159;0.563365
0.751756;0.563313
0.75089;0.563181
0.750428;0.563102
0.749941;0.563019
0.748959;0.562846
0.748569;0.562769
0.747854;0.562614
0.747508;0.562537
0.746864;0.562381
0.746538;0.562312
0.745946;0.56216
0.745763;0.562102
0.745466;0.562017
0.745342;0.561979
0.745116;0.561911
0.745004;0.561885
0.744908;0.56185
0.744867;0.561836
0.744902;0.561854
0.745002;0.561885
0.74509;0.561937
0.74527;0.561997
0.745373;0.562035
0.745806;0.562211
0.746041;0.562308
0.746307;0.56242
0.746862;0.562657
0.747145;0.562784
0.747706;0.563036
0.748087;0.563205
0.748968;0.563613
0.749413;0.563818
0.750349;0.564275
0.750823;0.564507
0.751281;0.564735
0.7524;0.565309
0.75302;0.565629
0.754305;0.566308
0.754956;0.566657
0.755606;0.567006
0.756867;0.567704
0.757602;0.568117
0.759127;0.568968
0.759943;0.569434
0.760763;0.569912
0.762398;0.570876
0.763982;0.571822
0.764875;0.572362
0.765816;0.572937
0.767756;0.574138
0.768735;0.574748
0.770607;0.575942
0.771541;0.576536
0.773584;0.57787
0.774663;0.578591
0.775747;0.579303
0.777931;0.580745
0.779001;0.581465
0.781232;0.582969
0.783546;0.584546
0.784729;0.585359
0.785919;0.58619
0.788268;0.587852
0.790592;0.589505
0.791715;0.590307
0.792929;0.591179
0.795454;0.593003
0.796714;0.593926
0.797975;0.594844
0.800468;0.596681
0.801666;0.597582
0.804253;0.599565
0.805623;0.600594
0.808357;0.60266
0.809691;0.603687
0.811004;0.60469
0.813648;0.606705
0.815016;0.607764
0.817882;0.609964
0.819298;0.611075
0.822093;0.613278
0.823457;0.614367
0.826087;0.616438
0.8275;0.617552
0.828946;0.618691
0.831858;0.620995
0.833298;0.622159
0.836132;0.624427
0.837486;0.625507
0.840386;0.627837
0.841862;0.62903
0.844802;0.631401
0.846256;0.632572
0.849075;0.634847
0.850439;0.635937
0.853319;0.638286
0.854792;0.639497
0.856272;0.6407
0.859237;0.643113
0.86067;0.644276
0.863462;0.646567
0.864908;0.647749
0.867862;0.650163
0.869342;0.651368
0.872225;0.653737
0.873635;0.65488
0.875138;0.656108
0.877538;0.65809
0.878637;0.658983
0.880691;0.660651
0.881535;0.66135
0.883129;0.662631
0.883929;0.663269
0.884654;0.663856
0.884538;0.663763
0.883644;0.663051
0.883133;0.662647
0.882608;0.662226
0.881737;0.661538
0.881335;0.661221
0.879292;0.65961
0.878221;0.658777
0.876182;0.657187
0.875221;0.656436
0.873716;0.655267
0.87303;0.654744
0.870614;0.652851
0.869372;0.651899
0.867116;0.650157
0.866064;0.649355
0.865147;0.648663
0.863343;0.647274
0.862275;0.646455
0.85973;0.644584
0.858536;0.643688
0.856501;0.642184
0.855575;0.641501
0.853579;0.640026
0.852349;0.639122
0.84985;0.637299
0.848652;0.63644
0.848293;0.636186
0.848681;0.636473
0.848161;0.636107
0.847239;0.635459
0.845888;0.634503
0.843053;0.632522
0.841644;0.631542
0.840342;0.630644
0.83767;0.62881
0.836087;0.627726
0.832928;0.625597
0.831953;0.624945
0.832587;0.625371
0.832752;0.625501
0.831631;0.624759
0.829249;0.623214
0.828203;0.622545
0.827783;0.62228
0.829805;0.623559
0.830145;0.623773
0.829799;0.623555
0.829446;0.62334
0.828901;0.623013
0.828749;0.622926
0.828771;0.622939
0.828984;0.623063
0.829212;0.623196
0.82946;0.623335
0.82993;0.6236
0.830099;0.623694
0.830311;0.623815
0.830391;0.623847
0.83075;0.624018
0.83097;0.624134
0.831177;0.624239
0.831571;0.624443
0.831741;0.624537
0.832071;0.624694
0.832359;0.624834
0.832689;0.624989
0.833352;0.62529
0.833657;0.625428
0.833915;0.625543
0.834402;0.625747
0.834811;0.625916
0.835758;0.626299
0.836238;0.626485
0.836663;0.626649
0.837496;0.626953
0.837891;0.62709
0.839173;0.627531
0.83989;0.627766
0.840598;0.628
0.841985;0.628432
0.842689;0.628635
0.843383;0.628829
0.845454;0.629392
0.846668;0.629696
0.84915;0.630273
0.850394;0.630574
0.852896;0.631094
0.854208;0.63133
0.856269;0.631678
0.861709;0.632533
0.864595;0.63292
0.86817;0.633353
0.876973;0.634144
0.881499;0.634441
0.890614;0.634869
0.895208;0.634948
0.899895;0.63499
0.909465;0.634942
0.914275;0.634865
0.924165;0.634667
0.929127;0.634577
0.934086;0.634491
0.944044;0.634308
0.949036;0.634205
0.959038;0.634009
0.964043;0.63391
0.97399;0.633686
0.978969;0.633575
0.983962;0.633465
0.99396;0.633227
0.998942;0.633117
1.0089;0.632897
1.01387;0.632766
1.01883;0.632639
1.02875;0.632378
1.0337;0.632245
1.03866;0.632113
1.04856;0.631829
1.05349;0.63168
1.06333;0.631346
1.06825;0.631156
1.07303;0.63096
1.08247;0.630523
1.08693;0.630297
1.09566;0.629806
1.09989;0.629547
1.10391;0.62928
1.11179;0.628722
1.11549;0.628433
1.11897;0.628141
1.12583;0.627532
1.12912;0.627216
1.13525;0.626593
1.13823;0.626253
1.14104;0.625952
1.14636;0.625308
1.14905;0.62497
1.15415;0.624286
1.15664;0.623946
1.159;0.623596
1.16362;0.622889
1.16578;0.622546
1.17008;0.621815
1.17219;0.621435
1.17624;0.620689
1.17819;0.620303
1.18004;0.619935
1.18367;0.619194
1.18547;0.61882
1.18898;0.618028
1.1907;0.617624
1.19236;0.617231
1.19555;0.616451
1.19708;0.616051
1.20015;0.615234
1.20169;0.614798
1.2032;0.61436
1.20615;0.61351
1.20758;0.613082
1.21031;0.612237
1.2117;0.611794
1.21307;0.611342
1.21582;0.610419
1.21718;0.609958
1.2185;0.6095
1.22104;0.608563
1.22233;0.60807
1.22492;0.607077
1.22617;0.606576
1.22743;0.606072
1.22989;0.605064
1.2311;0.604559
1.23351;0.603519
1.23472;0.60298
1.23715;0.601878
1.23818;0.601395
1.23918;0.600912
1.24131;0.599883
1.24241;0.599338
1.24356;0.598755
1.24586;0.597566
1.247;0.596963
1.24929;0.595727
1.25042;0.595107
1.25271;0.593783
1.25386;0.593111
1.25499;0.592438
1.2572;0.591097
1.25829;0.590428
1.26038;0.589104
1.26137;0.588446
1.26328;0.5872
1.26409;0.586653
1.26492;0.586114
1.26652;0.585005
1.2673;0.584448
1.26882;0.583349
1.26954;0.582818
1.27022;0.582319
1.27151;0.58135
1.27216;0.58085
1.27276;0.580379
1.27399;0.579433
1.27461;0.578943
1.2758;0.577983
1.27641;0.577498
1.277;0.577019
1.27817;0.576058
1.27875;0.575614
1.27988;0.574684
1.28043;0.574221
1.28089;0.573836
1.28182;0.573041
1.2823;0.572644
1.28328;0.571818
1.28376;0.571398
1.28424;0.571001
1.28519;0.570189
1.28567;0.569788
1.28657;0.568997
1.28702;0.568614
1.28748;0.568233
1.28831;0.56748
1.28871;0.567112
1.28949;0.566388
1.28987;0.566041
1.29026;0.565678
1.29104;0.564989
1.29143;0.564649
1.29218;0.563999
1.29254;0.563679
1.29287;0.563388
1.29354;0.562813
1.29388;0.562521
1.29454;0.561954
1.29485;0.561692
1.29513;0.561453
1.29565;0.561012
1.29592;0.560782
1.29618;0.560568
1.29675;0.560109
1.297;0.559906
1.29741;0.559563
1.29759;0.559419
1.29777;0.559276
1.29812;0.559001
1.29828;0.55887
1.29858;0.558634
1.29868;0.558554
1.29875;0.558501
1.29912;0.558214
1.29934;0.558052
1.29981;0.557693
1.30006;0.557518
1.30029;0.557329
1.30073;0.557012
1.30106;0.556774
1.30187;0.556212
1.3023;0.555912
1.30273;0.555618
1.30358;0.555083
1.30399;0.554803
1.30506;0.554087
1.30567;0.553678
1.3063;0.55326
1.30755;0.552437
1.30817;0.552043
1.30946;0.551227
1.31015;0.55079
1.3109;0.550319
1.31244;0.549366
1.3132;0.548894
1.31469;0.547988
1.31542;0.547555
1.31708;0.546575
1.31797;0.546049
1.31886;0.545528
1.32062;0.544513
1.32148;0.544018
1.32231;0.543542
1.3242;0.54248
1.3252;0.541921
1.32721;0.540806
1.32821;0.540265
1.33015;0.539213
1.33109;0.538711
1.33213;0.538159
1.3343;0.537016
1.3354;0.536442
1.33649;0.53588
1.33861;0.534791
1.33964;0.534269
1.34191;0.533131
1.34309;0.532539
1.34427;0.531953
1.34664;0.530803
1.34779;0.530243
1.34889;0.529723
1.35122;0.528615
1.35248;0.528014
1.35504;0.526837
1.3563;0.526252
1.35751;0.525691
1.35992;0.524603
1.36122;0.524016
1.36385;0.522875
1.36517;0.52228
1.36649;0.521704
1.36907;0.520595
1.37031;0.520054
1.37165;0.519479
1.37443;0.518311
1.37584;0.517714
1.37864;0.516562
1.37999;0.516001
1.38258;0.514943
1.38399;0.514375
1.38543;0.513801
1.3883;0.512668
1.38974;0.512099
1.39252;0.511016
1.39386;0.510496
1.39531;0.509942
1.39829;0.508836
1.39979;0.50828
1.40277;0.507193
1.4042;0.506668
1.40558;0.506162
1.40855;0.505085
1.41009;0.50453
1.41315;0.503447
1.41467;0.502916
1.41614;0.502408
1.41902;0.501412
1.42055;0.500892
1.42369;0.499841
1.42527;0.499309
1.42837;0.498293
1.42988;0.497806
1.43132;0.497336
1.43446;0.496341
1.43604;0.495842
1.43923;0.494839
1.44081;0.494356
1.44233;0.493886
1.44533;0.492963
1.44693;0.492475
1.4502;0.491506
1.45184;0.49103
1.45346;0.490561
1.4566;0.489698
1.45813;0.489258
1.45959;0.488847
1.46236;0.488075
1.46369;0.487718
1.46619;0.487036
1.46743;0.486709
1.46859;0.48641
1.47079;0.48582
1.47185;0.485539
1.47384;0.485024
1.47479;0.484782
1.47659;0.484322
1.47745;0.484108
1.47825;0.483907
1.47978;0.483527
1.4805;0.483354
1.48185;0.483022
1.4825;0.482867
1.48312;0.48272
1.48429;0.482449
1.48485;0.482319
1.48537;0.482198
1.48636;0.48197
1.48684;0.481865
1.48775;0.481665
1.48818;0.481576
1.48857;0.481483
1.48935;0.481308
1.48972;0.481231
1.49008;0.481154
1.49074;0.481017
1.49105;0.480954
1.49166;0.480832
1.49194;0.480775
1.49221;0.480721
1.49274;0.480612
1.49299;0.480565
1.49322;0.480517
1.49367;0.480427
1.4939;0.480385
1.49431;0.480305
1.49452;0.480266
1.4949;0.480192
1.49509;0.480157
1.49523;0.480128
1.49553;0.480079
1.49569;0.480048
1.49585;0.480018
1.49615;0.479965
1.49628;0.479948
1.49642;0.479916
1.49672;0.479866
1.49684;0.479851
1.49708;0.479806
1.49721;0.47979
1.49731;0.479771
1.49753;0.479734
1.49763;0.47972
1.49781;0.479689
1.4979;0.479673
1.49798;0.479633
1.49815;0.479607
1.4982;0.479601
1.49833;0.479582
1.49839;0.479575
1.49844;0.479579
1.49854;0.479573
1.49858;0.479563
1.49869;0.479548
1.49875;0.479539
1.4988;0.479531
1.49891;0.479514
1.49896;0.479508
1.49901;0.479501
1.49912;0.479484
1.49918;0.479469
1.49929;0.479457
1.49935;0.47945
1.4994;0.479443
1.49951;0.479429
1.49956;0.479429
1.49968;0.47941
1.49974;0.479401
1.49984;0.479395
1.49989;0.479387
1.49994;0.479381
1.50002;0.479373
1.50005;0.479372
1.50012;0.479375
1.50014;0.47937
1.50018;0.479359
1.50024;0.479362
1.50026;0.479364
1.50031;0.479347
1.50033;0.479345
1.50036;0.47934
1.50041;0.479343
1.50044;0.479342
1.50053;0.479326
1.50055;0.479328
1.50058;0.47932
1.50063;0.479317
1.50065;0.479314
1.50068;0.479316
1.50073;0.47931
1.50075;0.479295
1.50081;0.479288
1.50083;0.479289
1.50086;0.479288
1.50092;0.479284
1.50094;0.479279
1.50098;0.479282
1.501;0.479283
1.50103;0.479278
1.50107;0.479283
1.50107;0.479285
1.50107;0.479288
1.50108;0.479295
1.5011;0.479292
1.50111;0.479296
1.5011;0.479284
1.50112;0.479281
1.50112;0.479283
1.50114;0.479283
1.50114;0.479275
1.50115;0.479273
1.50116;0.47927
1.50118;0.479271
1.50121;0.479276
1.50122;0.479278
1.50122;0.479275
1.50124;0.479274
1.50125;0.479266
1.50126;0.479267
1.50129;0.479272
1.50129;0.479267
1.5013;0.479269
1.50131;0.479265
1.50134;0.479266
1.50135;0.479273
1.50137;0.479273
1.50139;0.479261
1.50141;0.479265
1.50143;0.47926
1.50144;0.479259
1.50148;0.47926
1.50149;0.479257
1.50153;0.479246
1.50155;0.47924
1.50157;0.479235
1.5016;0.479232
1.50162;0.479234
1.50162;0.479236
1.50165;0.479241
1.50166;0.479242
1.50167;0.479244
1.50169;0.479242
1.50171;0.479248
1.50172;0.479256
1.50173;0.479261
1.50176;0.479255
1.50177;0.479253
1.5018;0.479256
1.50181;0.479259
1.50182;0.479252
1.50183;0.479245
1.50184;0.479246
1.50192;0.479233
1.50196;0.479229
1.50198;0.479226
1.50204;0.479203
1.50207;0.47924
1.50211;0.47924
1.50213;0.479227
1.50214;0.479222
1.5022;0.479207
1.50223;0.479202
1.50227;0.479196
1.50231;0.479199
1.50233;0.479205
1.50234;0.479208
1.50238;0.479207
1.50241;0.479212
1.50243;0.47922
1.50246;0.479217
1.50247;0.479224
1.50248;0.479228
1.50249;0.479215
1.50249;0.479208
1.50249;0.479205
1.50249;0.479208
1.5025;0.479206
1.50252;0.479212
1.50253;0.479212
1.50256;0.479224
1.50256;0.479221
1.50258;0.479222
1.5026;0.479228
1.5026;0.479229
1.50261;0.47923
1.50261;0.479234
1.50259;0.479242
1.50255;0.479232
1.50256;0.479231
1.50255;0.479228
1.50258;0.479221
1.50259;0.479225
1.50258;0.47923
1.50259;0.479231
1.5026;0.479232
1.50265;0.479214
1.50267;0.479204
1.50271;0.479183
1.50272;0.479173
1.50274;0.479168
1.50272;0.479176
1.50271;0.479175
1.5027;0.479179
