0.157359
0.0748336
0.084324
0.101765
0.121166
0.129763
0.149032
0.0891968
0.0912918
0.0865696
0.114869
0.110918
0.0775891
0.0816624
0.0739292
0.098014
0.0984412
0.0915371
0.0689685
0.0806257
0.0817716
0.0780786
0.0662515
0.063561
0.0584478
0.0717902
0.0747896
0.0781385
0.0747389
0.0757013
0.063953
0.0600041
0.0644002
0.0667474
0.0627688
0.0612373
0.0716052
0.0696431
0.0607278
0.0739525
0.071327
0.0593062
0.0652422
0.0721639
0.0733145
0.0753438
0.0686432
0.0691378
0.0539359
0.0585246
0.0530992
0.0673011
0.107139
0.129238
0.0764904
0.0968573
0.0991509
0.103624
0.0975993
0.0773194
0.0902631
0.0893113
0.0934991
0.0741338
0.0773932
0.0740271
0.0889851
0.070454
0.0670885
0.0659486
0.0679691
0.0686411
0.060532
0.0592285
0.0596902
0.055948
0.0611294
0.046591
0.0595476
0.0619323
0.0665836
0.0769542
0.0690831
0.0561889
0.0341275
0.0567222
0.0548575
0.04842
0.0689451
0.0638733
0.0649722
0.087442
0.0637715
0.0627374
0.0608746
0.0694359
0.0864449
0.064998
0.0742514
0.0657492
0.0674262
0.0701597
0.0713387
0.0657218
0.0719539
0.070893
0.0629928
0.0581911
0.0632016
0.058168
0.0598604
0.0615358
0.0577966
0.0586215
0.0694101
0.0710386
0.0616623
0.0559085
0.0606766
0.0634218
0.0543826
0.0580279
0.0538489
0.0570618
0.0426537
0.0647332
0.0660007
0.058008
0.0997107
0.127402
0.12739
0.119553
0.106917
0.11092
0.09033
0.111967
0.121908
0.0845619
0.109426
0.0835449
0.0819746
0.0765815
0.0689932
0.0573549
0.0538865
0.0727007
0.054801
0.0750068
0.0712792
0.0734099
0.0577529
0.0592747
0.0639675
0.0533405
0.0514257
0.0407707
0.0470481
0.0706217
0.0350347
0.0673027
0.0352714
0.0570447
0.0819069
0.0727472
0.045191
0.0382383
0.0908449
0.0332563
0.0526516
0.061322
0.0808312
0.0380285
0.0738256
0.0694849
0.069102
0.0654919
0.0659585
0.0625839
0.0658659
0.0671003
0.0638811
0.0659144
0.0563912
0.0693164
0.0627963
0.0542822
0.091786
0.0935976
0.0746664
0.0693961
0.0654773
0.0947717
0.0859929
0.0812563
0.0798094
0.0895162
0.050692
0.075589
0.0506409
0.0798707
0.0638587
0.0567429
0.0798523
0.0819767
0.0903845
0.086203
0.079798
0.0957399
0.0983696
0.0851453
0.100319
0.0940993
0.0937341
0.0972468
0.076134
0.0689686
0.0770019
0.064874
0.0613742
0.0699248
0.0621371
0.0661357
0.0812213
0.0704773
0.0729795
0.0953176
0.0641141
0.0611328
0.0665373
0.0795453
0.0652142
0.0879065
0.0885046
0.0669128
0.0731295
0.0844505
0.0830238
0.0694553
0.0677788
0.0771675
0.0654877
0.0734457
0.0817995
0.0690651
0.0656455
0.0870284
0.0847186
0.172882
0.075489
0.0635887
0.0807216
0.0690126
0.0743887
0.0671258
0.0768561
0.0709575
0.0800613
0.0771961
0.0693312
0.0696595
0.0757073
0.0683328
0.0747278
0.0665953
0.091227
0.0790634
0.0760365
0.0834159
0.0741294
0.0779252
0.0745578
0.0768918
0.0743514
0.0823609
0.0761847
0.0688266
0.0864877
0.0761361
0.0814598
0.0689294
0.0702306
0.0707282
0.0825115
0.0734616
0.0775014
0.0874505
0.0858374
0.077958
0.0636092
0.0666127
0.0868938
0.117013
0.0669667
0.0738666
0.0816565
0.0822021
0.0660639
0.0698481
0.0702242
0.0669912
0.0680933
0.0682611
0.0697475
0.0828537
0.0697058
0.0672673
0.0696412
0.0850912
0.0750441
0.0690071
0.0763206
0.0681984
0.0701091
0.0654001
0.0750645
0.0723272
0.0669364
0.0769453
0.0754207
0.0761715
0.0732589
0.0739566
0.0855242
0.070982
0.0715874
0.0759266
0.0772749
0.071653
0.0720625
0.0731688
0.088752
0.0759189
0.0827069
0.0719959
0.0759327
0.0740928
0.0886821
0.07728
0.0699818
0.0782203
0.0692353
0.075821
0.0676727
0.0747059
0.0691368
0.0674854
0.0703291
0.0663225
0.0788886
0.0684183
0.0851904
0.079301
0.0739701
0.0698547
0.0755996
0.0695551
0.0770511
0.0721028
0.0712769
0.070964
0.0685596
0.065491
0.0748625
0.0849511
0.0705511
0.0785704
0.0663811
0.0757402
0.0705725
0.0773086
0.070738
0.0750928
0.0723941
0.0742438
0.0705131
0.0733185
0.0673088
0.0749891
0.0716817
0.0669544
0.078005
0.069778
0.0752671
0.0724149
0.0748684
0.0671274
0.0664323
0.0823966
0.0800837
0.0683248
0.0857953
0.0677127
0.0835808
0.0681655
0.0710406
0.0715039
0.0733388
0.0730713
0.0845397
0.0712002
0.0873771
0.0877358
0.0763241
0.0712502
0.0687404
0.0711528
0.0718344
0.0755386
0.0758987
0.0732678
0.0705681
0.0718374
0.0667521
0.0645787
0.0650587
0.0892509
0.0814994
0.0737698
0.0688325
0.0689241
0.0819012
0.0789611
0.0774685
0.0749437
0.076177
0.0687529
0.0892686
0.0760541
0.0738042
0.0696807
0.066216
0.0828891
0.078539
0.0832899
0.067875
0.0713607
0.0846002
0.0790128
0.0683089
0.0688465
0.0726775
0.0707599
0.0685633
0.0735874
0.0724974
0.0724759
0.0699776
0.0760411
0.0763828
0.0684014
0.0780365
0.0838296
0.0670838
0.0709602
0.0823084
0.0778933
0.07867
0.0707883
0.0829034
0.076434
0.0791343
0.0708163
0.0940568
0.0776091
0.0803121
0.0829939
0.074566
0.0843234
0.0703589
0.0846952
0.0770473
0.0820958
0.073055
0.0881154
0.108591
0.0780991
0.0853866
0.0784278
0.0763077
0.0783563
0.0758761
0.0733345
0.0677772
0.0738738
0.0758068
0.0727619
0.0773402
0.0756596
0.0734058
0.0768042
0.0742125
0.0768983
0.0870922
0.0769797
0.0807821
0.0701404
0.0799171
0.0835055
0.0904271
0.0773576
0.069803
0.0751376
0.0725317
0.0808459
0.090206
0.0723847
0.077437
0.0707212
0.0751792
0.0734205
0.0893444
0.0750412
0.0801604
0.0953569
0.0776155
0.0777442
0.0718673
0.0822904
0.0921255
0.074781
0.0768426
0.0886739
0.067888
0.0759847
0.0894307
0.0727741
0.0790527
0.0766471
0.0928744
0.0824203
0.0847524
0.0810644
0.0752738
0.0940538
0.0928005
0.0762685
0.0754134
0.0746617
0.0815157
0.0945566
0.0964618
0.0737897
0.0765552
0.0732209
0.0756679
0.0742537
0.106747
0.0848009
0.0816961
0.0864432
0.0876571
0.0748953
0.075996
0.0829144
0.0835628
0.0742232
0.0824893
0.0809319
0.0692076
0.0777596
0.0761431
0.0923855
0.074624
0.0789152
0.0808916
0.0741345
0.0847878
0.0778854
0.089157
0.0734614
0.0839135
0.0827116
0.0800335
0.0783052
0.07378
0.0798286
0.0780609
0.0796456
0.0830515
0.0756921
0.101057
0.0721564
0.0866707
0.108658
0.0808904
0.0742761
0.0806909
0.0866706
0.078221
0.0754135
0.0735343
0.0775456
0.0843788
0.0894109
0.0921029
0.0837189
0.0821426
0.0760433
0.076559
0.0778039
0.0816477
0.0832101
0.0745446
0.0820178
0.0794526
0.0742145
0.0881656
0.0815195
0.0979481
0.0902312
0.08226
0.0784437
0.0738899
0.0826219
0.0829609
0.0778246
0.091667
0.0942077
0.165416
0.0952911
0.0792125
0.0773034
0.0755189
0.0952198
0.0778859
0.0786537
0.0801898
0.0810023
0.0807972
0.0741332
0.0786332
0.0746671
0.0771205
0.0795492
0.0912902
0.0824545
0.0744639
0.071051
0.0875591
0.0763378
0.0815458
0.0744963
0.0858561
0.0729554
0.088092
0.070362
0.105694
0.0871973
0.0711367
0.0845942
0.075946
0.0780414
0.074853
0.0908657
0.0828942
0.0815032
0.0788613
0.0854215
0.0861432
0.0937187
0.0718943
0.0718936
0.0757609
0.0785852
0.0805947
0.0720973
0.0897587
0.071655
0.0857003
0.0749251
0.088471
0.0694528
0.0733232
0.0673188
0.081244
0.0737991
0.0774984
0.0820477
0.075184
0.0963796
0.0720398
0.0685586
0.0704275
0.0731943
0.0666076
0.0694209
0.0755323
0.0787244
0.0755995
0.0754237
0.0798233
0.0731295
0.0689994
0.0735985
0.080851
0.080659
0.0935114
0.0858021
0.0728437
0.0792839
0.0853116
0.0921231
0.0762228
0.072312
0.0727555
0.0697796
0.0716643
0.0761795
0.070479
0.0765224
0.0872899
0.0743753
0.086991
0.0684343
0.080873
0.0700904
0.0694077
0.0722262
0.0725788
0.0851213
0.0739275
0.0762316
0.0676395
0.0847784
0.0750979
0.0680794
0.0704013
0.0742103
0.0876837
0.0701075
0.0710761
0.0670111
0.0700822
0.0742381
0.0788345
0.0708503
0.0774766
0.0669922
0.076938
0.0690403
0.0727591
0.0816812
0.0739219
0.0734176
0.0860437
0.0727101
0.0698069
0.0710308
0.0647359
0.0699549
0.0690369
0.0716299
0.0674815
0.070203
0.0687273
0.0675487
0.0917604
0.0681327
0.0699923
0.0678241
0.0702401
0.0694813
0.0665168
0.0717288
0.0684984
0.0650768
0.0755682
0.0688774
0.0694712
0.0711923
0.072417
0.0802414
0.0819796
0.085578
0.0758228
0.0709306
0.0668979
0.0826466
0.0794703
0.0703429
0.071408
0.0712701
