-0.000216339;0.502286
-0.000230853;0.50316
-0.000152983;0.506044
0.000157655;0.51071
0.00045322;0.513429
0.00165895;0.520537
0.00364735;0.527767
0.00635883;0.534948
0.00973847;0.542003
0.0137563;0.548881
0.0183028;0.555577
0.023355;0.562067
0.0289102;0.568387
0.0318643;0.571427
0.0380344;0.577339
0.0445816;0.583039
0.0514665;0.588486
0.0586174;0.593696
0.06603;0.598648
0.0736917;0.603359
0.0815826;0.607832
0.085597;0.609972
0.093782;0.614094
0.102145;0.618045
0.110677;0.621745
0.119309;0.625258
0.128076;0.628571
0.132502;0.630146
0.141434;0.633216
0.150463;0.636131
0.159577;0.638882
0.168762;0.641505
0.178021;0.643997
0.187339;0.646376
0.192011;0.64747
0.201411;0.649626
0.210852;0.651692
0.220335;0.653659
0.229853;0.655526
0.239413;0.657308
0.244201;0.658164
0.253798;0.65981
0.263429;0.66138
0.273077;0.662863
0.277912;0.663585
0.287591;0.664974
0.297307;0.666296
0.30216;0.666934
0.311883;0.668172
0.316764;0.668758
0.32651;0.6699
0.336274;0.670983
0.34116;0.671509
0.350933;0.672495
0.360713;0.673446
0.365614;0.673912
0.375427;0.674781
0.380328;0.675205
0.390138;0.675998
0.399955;0.676745
0.404875;0.677108
0.414712;0.677797
0.419626;0.67812
0.429464;0.678742
0.439315;0.679301
0.444258;0.679565
0.454105;0.680082
0.459022;0.680345
0.468881;0.680783
0.478749;0.681182
0.48368;0.681379
0.493542;0.68177
0.498479;0.681946
0.508365;0.682272
0.518239;0.682564
0.523159;0.682691
0.533022;0.682946
0.542911;0.683159
0.547852;0.683246
0.557725;0.683411
0.562658;0.683487
0.572547;0.683579
0.582417;0.683641
0.587351;0.68365
0.59722;0.683652
0.602155;0.683624
0.612021;0.683561
0.616956;0.683512
0.626825;0.683387
0.636726;0.683225
0.641661;0.683149
0.651543;0.682949
0.661426;0.682693
0.666366;0.682542
0.676241;0.682217
0.681174;0.682043
0.691049;0.681658
0.69599;0.681456
0.705866;0.681005
0.710798;0.680767
0.72066;0.680267
0.7256;0.68
0.735454;0.679438
0.74038;0.679144
0.745311;0.678838
0.755162;0.678203
0.765015;0.677526
0.769937;0.677179
0.774872;0.676814
0.784716;0.676054
0.789632;0.675669
0.799475;0.674847
0.804394;0.674424
0.814221;0.673543
0.824006;0.672625
0.828878;0.672137
0.83355;0.671622
0.842905;0.670473
0.847576;0.669827
0.85653;0.668362
0.861016;0.667522
0.870104;0.665617
0.874649;0.664576
0.883833;0.662311
0.88843;0.661108
0.89776;0.658551
0.902446;0.657236
0.911951;0.654516
0.916694;0.653137
0.921468;0.651752
0.931022;0.648961
0.940538;0.646172
0.945329;0.644769
0.954876;0.641984
0.959654;0.640581
0.969241;0.637786
0.974046;0.636383
0.983681;0.633572
0.9885;0.632165
0.998134;0.629328
1.00777;0.626476
1.01259;0.625041
1.01741;0.623605
1.027;0.620745
1.03178;0.619305
1.0413;0.616422
1.04605;0.614981
1.05557;0.612018
1.06506;0.609102
1.06978;0.607669
1.07926;0.604753
1.08402;0.603279
1.09348;0.600338
1.10293;0.597397
1.11238;0.59442
1.12183;0.591426
1.12654;0.589915
1.13596;0.586875
1.14535;0.583826
1.15473;0.580741
1.15944;0.579194
1.16881;0.576058
1.17817;0.572913
1.18751;0.569718
1.19218;0.568106
1.2015;0.564853
1.2108;0.561549
1.21543;0.559894
1.2247;0.556548
1.23393;0.553154
1.24316;0.549715
1.25237;0.546237
1.25696;0.544485
1.26614;0.540938
1.27529;0.53735
1.27988;0.535537
1.289;0.531888
1.29809;0.528176
1.30717;0.524415
1.31169;0.52253
1.32073;0.518685
1.32974;0.514807
1.33873;0.510857
1.34322;0.508861
1.3522;0.504861
1.36111;0.500778
1.36991;0.496667
1.37427;0.494593
1.38259;0.490575
1.39026;0.486792
1.3974;0.483187
1.40085;0.481418
1.40722;0.478089
1.41313;0.47492
1.41586;0.473436
1.42107;0.470546
1.42569;0.467941
1.4299;0.465491
1.43181;0.464364
1.43507;0.462401
1.43798;0.460624
1.44055;0.459009
1.44177;0.45824
1.44392;0.45683
1.44577;0.455594
1.44742;0.454465
1.4482;0.453926
1.44957;0.452966
1.45081;0.452085
1.45135;0.451687
1.45231;0.45097
1.45317;0.450328
1.45392;0.449744
1.45425;0.449489
1.4548;0.44904
1.45528;0.448658
1.45548;0.448492
1.4558;0.448217
1.45604;0.448015
1.45625;0.447863
1.45633;0.447785
1.45645;0.447678
1.45653;0.447604
1.45659;0.447553
1.4566;0.447539
1.45659;0.447559
1.45653;0.447612
1.45645;0.447684
1.45641;0.447723
1.45629;0.447844
1.45614;0.448006
1.45597;0.448183
1.4558;0.448394
1.45573;0.448495
1.45552;0.448731
1.4553;0.448994
1.45506;0.449265
1.45495;0.449412
1.45468;0.449723
1.45442;0.450059
1.45428;0.450228
1.45401;0.45057
1.45373;0.450932
1.45345;0.451286
1.45316;0.451645
1.45301;0.45183
1.45272;0.452223
1.45244;0.452627
1.45215;0.453036
1.45201;0.453235
1.4517;0.453617
1.4514;0.454049
1.4511;0.454499
1.4508;0.454967
1.45065;0.455201
1.45037;0.455638
1.45011;0.456038
1.44998;0.456242
1.44971;0.456671
1.44958;0.45689
1.44932;0.457356
1.44904;0.457833
1.44876;0.45831
1.44851;0.458761
1.4484;0.458963
1.44815;0.459402
1.4479;0.459859
1.44764;0.46033
1.44751;0.460564
1.44729;0.460973
1.44706;0.461411
1.44682;0.461867
1.4467;0.4621
1.44648;0.462542
1.44626;0.462989
1.44605;0.463428
1.44595;0.463639
1.44576;0.464047
1.44557;0.464467
1.44536;0.464898
1.44525;0.465114
1.44506;0.465525
1.44487;0.465954
1.44467;0.466385
1.44458;0.466592
1.4444;0.467008
1.44423;0.467423
1.44417;0.467557
1.44404;0.467882
1.44389;0.468254
1.44373;0.468642
1.44365;0.468836
1.44348;0.469244
1.44334;0.469633
1.44318;0.470033
1.44303;0.470408
1.44296;0.470584
1.44282;0.47097
1.44269;0.471354
1.44262;0.471533
1.44249;0.471906
1.44236;0.472281
1.4423;0.472457
1.44219;0.472803
1.44207;0.473163
1.44195;0.473527
1.44184;0.473865
1.44179;0.474034
1.44168;0.474384
1.44156;0.474736
1.44151;0.474904
1.4414;0.475244
1.4413;0.475565
1.4412;0.475895
1.44116;0.476064
1.44106;0.47637
1.44097;0.476672
1.44088;0.47699
1.44083;0.477147
1.44076;0.477449
1.44067;0.477765
1.44059;0.478078
1.44052;0.478375
1.44047;0.478529
1.4404;0.478811
1.44032;0.479098
1.44029;0.479248
1.44021;0.479524
1.44015;0.479804
1.44008;0.48008
1.44004;0.48021
1.43999;0.480471
1.43992;0.480748
1.43986;0.480983
1.43981;0.481237
1.43978;0.481354
1.43972;0.481602
1.43967;0.481872
1.43962;0.482113
1.43959;0.482228
1.43954;0.482462
1.43949;0.482709
1.43944;0.482919
1.43941;0.483025
1.43936;0.483249
1.43932;0.483481
1.43927;0.483702
1.43925;0.483807
1.4392;0.48402
1.43916;0.484249
1.43911;0.484477
1.43909;0.484578
1.43905;0.484792
1.43902;0.484991
1.43898;0.485185
1.43896;0.485284
1.43893;0.485492
1.4389;0.485695
1.43888;0.485786
1.43885;0.48599
1.43882;0.486186
1.4388;0.486282
1.43877;0.486466
1.43874;0.48667
1.43872;0.486864
1.43869;0.48705
1.43867;0.487156
1.43864;0.487315
1.43861;0.487514
1.43859;0.487604
1.43856;0.487789
1.43854;0.487945
1.43851;0.488098
1.4385;0.48819
1.43848;0.488343
1.43846;0.488526
1.43844;0.488706
1.43843;0.488792
1.43841;0.488965
1.43838;0.489127
1.43837;0.489198
1.43836;0.48934
1.43835;0.4895
1.43834;0.489571
1.43833;0.489708
1.43832;0.489874
1.43831;0.490024
1.43831;0.490093
1.43829;0.490245
1.43827;0.490373
1.43826;0.490438
1.43826;0.490594
1.43825;0.490726
1.43824;0.490841
1.43823;0.490898
1.43821;0.491006
1.43821;0.491107
1.43818;0.491189
1.43818;0.491243
1.43816;0.491324
1.43815;0.491415
1.43816;0.491429
1.43816;0.491505
1.43815;0.491592
1.43816;0.491639
1.43816;0.491753
1.43814;0.491792
1.43814;0.491834
1.43813;0.491902
1.43813;0.491995
1.43812;0.492078
1.43812;0.492114
1.43811;0.492179
1.4381;0.492277
1.43809;0.492352
1.43808;0.492398
1.43808;0.4925
1.43807;0.49256
1.43807;0.492634
1.43807;0.492673
1.43807;0.49271
1.43806;0.492777
1.43805;0.492849
1.43805;0.492865
1.43804;0.492906
1.43804;0.492977
1.43804;0.493001
1.43803;0.493071
1.43802;0.493148
1.43801;0.493231
1.43801;0.493321
1.43801;0.493372
1.438;0.493477
1.43801;0.493578
1.438;0.493649
1.43799;0.493691
1.43798;0.493764
1.43797;0.49383
1.43797;0.493882
1.43796;0.493909
1.43796;0.493956
1.43795;0.493982
1.43794;0.493993
1.43793;0.494
1.43793;0.494036
1.43793;0.494082
1.43793;0.494114
1.43792;0.494127
1.4379;0.49412
1.43789;0.494128
1.43789;0.494136
1.43788;0.494163
1.43785;0.494185
1.43784;0.494193
1.43781;0.494194
1.4378;0.494229
1.43781;0.494247
1.4378;0.494278
1.43779;0.494323
1.43779;0.494373
1.43778;0.494396
1.43778;0.494413
1.43777;0.494462
1.43776;0.494497
1.43777;0.494506
1.43776;0.494541
1.43776;0.494574
1.43776;0.494624
1.43775;0.494642
1.43774;0.494687
1.43773;0.494713
1.43772;0.494725
1.43771;0.494729
1.43768;0.494746
1.43765;0.494761
1.43766;0.494788
1.43767;0.494809
1.43765;0.494867
1.43765;0.494917
1.43765;0.494956
1.43765;0.494973
1.43765;0.495035
1.43765;0.49508
1.43765;0.49512
1.43764;0.495151
1.43764;0.495222
1.43761;0.49532
1.43762;0.495374
1.43761;0.495406
1.43761;0.495448
1.43761;0.495502
1.43761;0.495535
1.43761;0.495567
1.43762;0.4956
1.43761;0.495664
1.43761;0.495706
1.43759;0.495811
1.43759;0.495892
1.43759;0.495972
1.43759;0.496007
1.43761;0.496026
1.43761;0.496059
1.43763;0.496094
1.43764;0.496126
