-0.000261713;0.501716
-0.000264366;0.501712
-0.000266615;0.501428
-0.000272001;0.501097
-0.000279322;0.500382
-0.000286335;0.500043
-0.000303816;0.499373
-0.000315176;0.499038
-0.000330372;0.498724
-0.00035426;0.498092
-0.000371286;0.497831
-0.000370506;0.497271
-0.000376719;0.497038
-0.000389376;0.496841
-0.000416155;0.496467
-0.000433498;0.496295
-0.000468844;0.495974
-0.000464458;0.495969
-0.000465929;0.495885
-0.000471017;0.495703
-0.000477097;0.495595
-0.000494572;0.495381
-0.000498463;0.495282
-0.000504197;0.495199
-0.000517986;0.495076
-0.000521412;0.495023
-0.000544652;0.494932
-0.00055175;0.494893
-0.000560471;0.494813
-0.000572604;0.494756
-0.000576383;0.49471
-0.000590347;0.494612
-0.00060164;0.494524
-0.000628676;0.494392
-0.00063502;0.494327
-0.000645122;0.494284
-0.000655301;0.494206
-0.0006563;0.494187
-0.000668109;0.49415
-0.000670623;0.494132
-0.000666019;0.494112
-0.000667674;0.494119
-0.000664742;0.494162
-0.000658191;0.494176
-0.000647274;0.494205
-0.000652396;0.494186
-0.000653587;0.494192
-0.000644165;0.494204
-0.000635533;0.494212
-0.000632686;0.494218
-0.000622804;0.494234
-0.000614485;0.494309
-0.00058349;0.494372
-0.000660832;0.494155
-0.000765565;0.493862
-0.00100363;0.493263
-0.0011256;0.492982
-0.00133554;0.492476
-0.00142788;0.492261
-0.00168089;0.491692
-0.00166622;0.491698
-0.00166622;0.491698
-0.00180323;0.491422
-0.00195097;0.491111
-0.00220788;0.490566
-0.0024165;0.490141
-0.00262557;0.489723
-0.00302637;0.488943
-0.00318375;0.488646
-0.00340306;0.488241
-0.00346996;0.488123
-0.00359571;0.487908
-0.00384363;0.487488
-0.00392601;0.48734
-0.00399812;0.487215
-0.00398941;0.487215
-0.00393968;0.487297
-0.00395575;0.487264
-0.0039592;0.48725
-0.00395803;0.487247
-0.00379745;0.487473
-0.00362662;0.487703
-0.00278948;0.488828
-0.00257842;0.489107
-0.00226802;0.4895
-0.00205749;0.489761
-0.00177844;0.490091
-0.00116022;0.490811
-0.000774234;0.491269
-6.62774e-05;0.492073
0.000331248;0.492516
0.00129966;0.493572
0.00181085;0.494119
0.00288785;0.495249
0.00343238;0.495807
0.00397372;0.496347
0.00512306;0.497491
0.00576132;0.498108
0.00778179;0.499996
0.00846678;0.500612
0.0100998;0.502068
0.010862;0.50273
0.0124757;0.504097
0.0133258;0.504799
0.0142219;0.505527
0.0161204;0.507024
0.0171248;0.507801
0.0180808;0.508549
0.0201797;0.510123
0.0212943;0.510906
0.023607;0.512557
0.0248284;0.51341
0.0260823;0.514266
0.0285736;0.515939
0.0298478;0.516771
0.0325334;0.518479
0.0339448;0.519368
0.03684;0.521123
0.0383571;0.522022
0.0398576;0.522895
0.0429116;0.524628
0.044521;0.525517
0.0478566;0.527313
0.0495787;0.528222
0.0530907;0.53002
0.0548548;0.530896
0.0566665;0.53178
0.0604229;0.533554
0.0623461;0.534455
0.0662432;0.536192
0.0682586;0.537052
0.0702327;0.5379
0.0742891;0.539571
0.0763849;0.540408
0.0806096;0.542071
0.0827399;0.542873
0.0869988;0.544435
0.0892134;0.545223
0.0937469;0.546794
0.0960234;0.547533
0.0975773;0.548042
0.0996513;0.548708
0.103999;0.550058
0.106414;0.550803
0.111299;0.552216
0.113781;0.55292
0.116237;0.553592
0.121173;0.554895
0.123678;0.555524
0.128817;0.556784
0.131417;0.557394
0.133989;0.557971
0.139175;0.559054
0.141767;0.559597
0.146887;0.560649
0.149552;0.561171
0.152206;0.561671
0.157563;0.56264
0.160251;0.563104
0.165604;0.563987
0.168223;0.564402
0.173548;0.565197
0.176266;0.565581
0.178954;0.565949
0.184286;0.56663
0.186914;0.566951
0.192089;0.567545
0.194765;0.567846
0.200164;0.568397
0.20283;0.568675
0.205448;0.568916
0.210602;0.569354
0.213156;0.569554
0.218356;0.56993
0.221016;0.570113
0.223664;0.570282
0.22891;0.570576
0.231493;0.570711
0.233995;0.570827
0.239127;0.571035
0.241785;0.571138
0.244485;0.571222
0.246209;0.571278
0.248475;0.57135
0.253175;0.571477
0.253233;0.571457
0.256655;0.571462
0.259063;0.571495
0.261679;0.571532
0.266978;0.571576
0.269658;0.571598
0.272472;0.571579
0.274337;0.57156
0.27681;0.571538
0.282156;0.571494
0.287614;0.571421
0.290351;0.571367
0.29308;0.571312
0.294902;0.571267
0.299929;0.571132
0.302543;0.571058
0.307741;0.570881
0.310302;0.570784
0.31546;0.570575
0.318107;0.570449
0.320685;0.570324
0.32577;0.570058
0.328263;0.569917
0.330661;0.56978
0.335578;0.569483
0.338111;0.569322
0.343138;0.569015
0.345602;0.568842
0.350244;0.568517
0.35254;0.568342
0.354039;0.568216
0.356379;0.56804
0.357423;0.567943
0.359079;0.567798
0.359862;0.567731
0.361277;0.567614
0.361081;0.567623
0.360537;0.567671
0.359359;0.567777
0.358804;0.567806
0.357886;0.567888
0.3575;0.567926
0.356392;0.568048
0.353721;0.568306
0.352421;0.568433
0.350164;0.568661
0.349186;0.568761
0.348404;0.568844
0.345448;0.569156
0.343803;0.56933
0.342296;0.569494
0.339562;0.569789
0.338357;0.569917
0.336364;0.57014
0.334698;0.570317
0.331307;0.570701
0.329666;0.570883
0.328267;0.571051
0.325805;0.57134
0.32474;0.57146
0.321351;0.571862
0.319544;0.57208
0.317922;0.57227
0.315037;0.572628
0.313762;0.572788
0.31167;0.573046
0.309949;0.573259
0.308172;0.573476
0.304826;0.573909
0.303299;0.574107
0.30132;0.57438
0.300789;0.57445
0.300827;0.574468
0.301351;0.574418
0.301626;0.574388
0.301755;0.574378
0.30174;0.574382
0.301709;0.574388
0.301707;0.574394
0.301699;0.574391
0.301712;0.574377
0.301716;0.574374
0.301711;0.574368
0.301702;0.574378
0.301735;0.574383
0.301772;0.57438
0.301812;0.574372
0.30182;0.574371
0.301843;0.574381
0.301846;0.574379
0.301943;0.574359
0.302009;0.574351
0.30207;0.574342
0.302197;0.574326
0.302243;0.574319
0.302309;0.574307
0.302366;0.574302
0.302435;0.574294
0.302585;0.574273
0.302659;0.574265
0.302764;0.574252
0.302818;0.57425
0.302909;0.574236
0.303066;0.574217
0.30316;0.574207
0.303246;0.574195
0.303407;0.574177
0.303483;0.574166
0.303693;0.574147
0.303804;0.574136
0.304015;0.574115
0.304115;0.574105
0.304203;0.574097
0.304373;0.574086
0.304508;0.574073
0.30478;0.574049
0.304915;0.57402
0.305153;0.574
0.305271;0.57399
0.305379;0.573987
0.305679;0.573958
0.305844;0.573947
0.30617;0.573923
0.306327;0.573918
0.306482;0.573911
0.306783;0.573897
0.306985;0.573888
0.307198;0.573879
0.307651;0.573857
0.307876;0.573843
0.308265;0.573826
0.308439;0.57382
0.308676;0.573815
0.309175;0.573811
0.309439;0.573804
0.30996;0.573776
0.310219;0.573774
0.31048;0.573775
0.311125;0.573781
0.311467;0.573793
0.312185;0.57381
0.312546;0.573815
0.312928;0.573825
0.313707;0.573853
0.314185;0.573874
0.31521;0.573928
0.315751;0.573964
0.316303;0.574
0.317461;0.57409
0.318064;0.574133
0.319716;0.574285
0.320586;0.57437
0.321565;0.574473
0.323681;0.574734
0.324832;0.574879
0.327648;0.575275
0.329574;0.575586
0.332624;0.576093
0.340154;0.577533
0.344612;0.578484
0.353493;0.580605
0.357932;0.581768
0.362394;0.58301
0.371377;0.585677
0.375947;0.587116
0.385386;0.590112
0.390108;0.591601
0.394766;0.593061
0.40401;0.595868
0.408593;0.597209
0.417701;0.599736
0.42227;0.600939
0.426841;0.602073
0.436029;0.604242
0.440648;0.605247
0.449933;0.607133
0.454598;0.608032
0.459275;0.608877
0.468664;0.610443
0.473378;0.611181
0.482845;0.612547
0.487603;0.613174
0.497135;0.61433
0.501912;0.614852
0.506683;0.615348
0.516268;0.616241
0.52109;0.616652
0.530757;0.617406
0.535586;0.617731
0.540422;0.618044
0.550117;0.618586
0.554968;0.618817
0.564718;0.619235
0.569605;0.619428
0.574488;0.619586
0.584271;0.61986
0.589176;0.619979
0.594062;0.620068
0.603901;0.620195
0.608832;0.620226
0.618688;0.620301
0.623612;0.620307
0.62855;0.620322
0.638432;0.620291
0.643407;0.620269
0.653319;0.62023
0.658295;0.620204
0.663248;0.62019
0.673163;0.620185
0.678103;0.620184
0.683009;0.620197
0.6928;0.620262
0.697691;0.620324
0.707417;0.620504
0.712266;0.620633
0.721939;0.620952
0.726752;0.621149
0.731543;0.621386
0.741088;0.621944
0.74584;0.622281
0.755335;0.623052
0.76006;0.623493
0.764706;0.623965
0.773753;0.625025
0.781987;0.626201
0.80748;0.631135
0.811142;0.631989
0.811301;0.632019
0.810812;0.631898
0.809495;0.631515
0.808556;0.631238
0.806533;0.630609
0.80547;0.630251
0.804515;0.629919
0.801893;0.628971
0.800013;0.628284
0.792364;0.62532
0.788586;0.623753
0.78677;0.622959
0.783285;0.6214
0.78147;0.620555
0.778006;0.618879
0.776282;0.61803
0.774719;0.617242
0.771798;0.615744
0.76905;0.614301
0.767685;0.613549
0.766325;0.612788
0.764224;0.6116
0.763162;0.611
0.762181;0.610432
0.760303;0.609327
0.759434;0.608808
0.757884;0.607864
0.75722;0.607458
0.756628;0.6071
0.755598;0.606438
0.755122;0.606138
0.754373;0.605652
0.754091;0.605459
0.753682;0.605185
0.753534;0.605088
0.753367;0.604969
0.753299;0.604918
0.75335;0.604957
0.753635;0.605159
0.753829;0.605298
0.754242;0.6056
0.754483;0.605778
0.754743;0.605971
0.755528;0.606554
0.755996;0.606902
0.757002;0.607654
0.757528;0.608045
0.758044;0.608444
0.759061;0.609223
0.760071;0.61
0.760749;0.610529
0.7615;0.61111
0.763033;0.61231
0.76383;0.612901
0.765345;0.6141
0.766255;0.614816
0.768134;0.616339
0.769102;0.617126
0.770045;0.617892
0.771861;0.619351
0.772768;0.620098
0.774906;0.621831
0.776019;0.622756
0.777123;0.623671
0.779309;0.62551
0.780379;0.626409
0.782474;0.628188
0.784852;0.63021
0.786043;0.631225
0.786804;0.631872
0.787848;0.632767
0.790043;0.634638
0.791189;0.635623
0.793826;0.637901
0.795178;0.639069
0.796491;0.640213
0.799148;0.642494
0.800451;0.64364
0.802937;0.645805
0.804364;0.647034
0.80722;0.649518
0.808645;0.650766
0.81008;0.652007
0.812775;0.654367
0.814079;0.655516
0.816966;0.65804
0.818442;0.659325
0.81989;0.660582
0.822688;0.663046
0.824069;0.664259
0.826698;0.666556
0.828172;0.667829
0.829645;0.669116
0.832559;0.671669
0.833999;0.672927
0.835378;0.674107
0.838089;0.676464
0.83958;0.677751
0.842596;0.680337
0.844095;0.681615
0.846928;0.684056
0.848305;0.685226
0.849603;0.686339
0.852365;0.688679
0.853835;0.689922
0.855261;0.691133
0.858126;0.693514
0.859502;0.694659
0.861932;0.69671
0.862383;0.697064
0.862523;0.697181
0.862479;0.697147
0.862412;0.697089
0.86228;0.696983
0.862246;0.696952
0.861563;0.696401
0.860019;0.695158
0.85917;0.69448
0.857546;0.693203
0.85689;0.692686
0.855855;0.691875
0.854741;0.691005
0.853524;0.690062
0.851211;0.688273
0.850154;0.687464
0.848385;0.686123
0.847639;0.685567
0.846344;0.684595
0.843605;0.682545
0.842265;0.681558
0.841121;0.680706
0.839133;0.679176
0.838269;0.678543
0.835344;0.67643
0.83381;0.675356
0.832452;0.674387
0.830009;0.672653
0.828915;0.671902
0.827141;0.67067
0.825653;0.669652
0.824105;0.668593
0.821188;0.666613
0.819852;0.665723
0.81763;0.66424
0.816679;0.663611
0.815143;0.66262
0.811897;0.660498
0.810361;0.659507
0.807719;0.657828
0.806704;0.65719
0.80609;0.656804
0.806169;0.656854
0.806698;0.657181
0.806971;0.657344
0.807076;0.65741
0.807098;0.65742
0.807058;0.657392
0.807037;0.65738
0.806992;0.657359
0.806987;0.657351
0.806977;0.657334
0.806966;0.657329
0.806923;0.657309
0.806954;0.657322
0.806993;0.657347
0.807084;0.657391
0.807121;0.657404
0.807126;0.65741
0.807128;0.657415
0.807189;0.657442
0.807331;0.657513
0.807405;0.657546
0.80745;0.657565
0.807527;0.657594
0.807557;0.657605
0.807765;0.657709
0.807884;0.657768
0.808094;0.657854
0.808177;0.657896
0.808235;0.657943
0.808363;0.657976
0.808522;0.658036
0.808905;0.658182
0.809097;0.658252
0.809402;0.658356
0.809528;0.658397
0.809637;0.658421
0.810105;0.658575
0.810377;0.658664
0.81063;0.658737
0.811121;0.658882
0.811345;0.658946
0.811753;0.659058
0.8121;0.659151
0.812491;0.659248
0.813301;0.659441
0.81369;0.659526
0.814377;0.659678
0.814718;0.659743
0.815258;0.659852
0.816449;0.660075
0.817046;0.660183
0.817602;0.660279
0.818682;0.660443
0.819218;0.660514
0.820873;0.660708
0.821804;0.660806
0.822765;0.660894
0.824691;0.661023
0.825659;0.66108
0.827739;0.661172
0.829206;0.66121
0.832731;0.661274
0.83468;0.661256
0.836936;0.661215
0.842218;0.660972
0.845681;0.660742
0.854671;0.659913
0.859163;0.659359
0.868172;0.657998
0.872688;0.657219
0.877274;0.65635
0.886553;0.654452
0.891241;0.653419
0.896054;0.652344
0.905723;0.650162
0.91056;0.649067
0.920238;0.646892
0.92509;0.645803
0.934792;0.643658
0.939652;0.642581
0.944539;0.641508
0.954293;0.63937
0.959165;0.638296
0.968909;0.636168
0.973788;0.635111
0.9787;0.63404
0.988461;0.631932
0.993335;0.630849
1.00307;0.628705
1.00795;0.627635
1.01771;0.625478
1.02258;0.624388
1.02746;0.623296
1.03721;0.621095
1.04205;0.619981
1.05183;0.617723
1.05668;0.616608
1.06152;0.615494
1.07117;0.613231
1.07599;0.612092
1.08559;0.609793
1.09038;0.608616
1.09517;0.607441
1.10471;0.60507
1.10947;0.603857
1.11896;0.601408
1.1237;0.600155
1.12842;0.598891
1.13785;0.596311
1.14255;0.594993
1.15182;0.592332
1.1564;0.590984
1.16067;0.589706
1.16869;0.587239
1.17618;0.584859
1.17992;0.583646
1.18295;0.58264
1.18881;0.580658
1.19139;0.579766
1.19375;0.578933
1.19806;0.577353
1.20007;0.576601
1.20193;0.575904
1.20551;0.574504
1.20718;0.573838
1.20869;0.573223
1.21135;0.572107
1.2126;0.571572
1.21493;0.57055
1.21603;0.570063
1.21811;0.569123
1.21909;0.568664
1.21992;0.56828
1.22148;0.567512
1.22223;0.567135
1.22518;0.565604
1.22591;0.565211
1.22631;0.564991
1.22715;0.564533
1.22756;0.5643
1.22846;0.563781
1.22894;0.563503
1.22897;0.563502
1.22932;0.563298
1.23002;0.562874
1.23036;0.56266
1.23192;0.561646
1.2323;0.561388
1.23317;0.560803
1.2336;0.560512
1.23466;0.559759
1.23518;0.559377
1.23644;0.558445
1.23643;0.558435
1.23681;0.558159
1.23807;0.557196
1.23881;0.556632
1.24033;0.555441
1.24108;0.554842
1.24182;0.55425
1.24321;0.553109
1.24454;0.552012
1.2452;0.551461
1.24564;0.551084
1.24623;0.550584
1.24746;0.549536
1.24806;0.549011
1.24971;0.547578
1.24971;0.547578
1.25025;0.547093
1.2512;0.54625
1.25177;0.545738
1.25233;0.545235
1.25338;0.544296
1.25398;0.543751
1.2552;0.542654
1.25581;0.542101
1.25641;0.541555
1.25746;0.540593
1.25793;0.54017
1.25909;0.539138
1.25969;0.538604
1.26027;0.538087
1.26139;0.537091
1.2619;0.536626
1.26282;0.53578
1.26335;0.535299
1.26387;0.534831
1.2649;0.533891
1.26543;0.53343
1.26568;0.533183
1.26605;0.532856
1.26655;0.532409
1.26756;0.531515
1.26807;0.531062
1.26902;0.530211
1.26947;0.529811
1.26988;0.529457
1.27074;0.528703
1.27119;0.528313
1.27161;0.527945
1.27245;0.527225
1.27283;0.526904
1.27349;0.526363
1.27387;0.526049
1.27459;0.525452
1.27495;0.525164
1.27527;0.524905
1.27586;0.524438
1.27613;0.524233
1.27662;0.523851
1.27687;0.523672
1.27709;0.523501
1.27752;0.523191
1.27772;0.52304
1.27808;0.522767
1.27852;0.522452
1.27873;0.522297
1.27897;0.522131
1.27919;0.521968
1.27966;0.521644
1.27994;0.521457
1.28066;0.520967
1.28109;0.520692
1.28153;0.520401
1.28244;0.5198
1.28292;0.51949
1.2834;0.519181
1.28446;0.51851
1.28509;0.518108
1.28635;0.51733
1.28906;0.51567
1.28974;0.515262
1.29041;0.514873
1.29176;0.514086
1.29176;0.514086
1.29221;0.51382
1.29363;0.513006
1.29438;0.512582
1.29514;0.512161
1.29677;0.511257
1.2977;0.510741
1.29958;0.509736
1.30054;0.509215
1.30235;0.508248
1.30325;0.507771
1.30423;0.507258
1.30628;0.506204
1.30733;0.505669
1.30938;0.50463
1.30938;0.504621
1.31;0.504314
1.31096;0.503842
1.31307;0.502805
1.31421;0.502255
1.31423;0.502267
1.31609;0.501417
1.31715;0.500907
1.31977;0.499682
1.32116;0.49904
1.32393;0.497771
1.32529;0.497161
1.32797;0.495975
1.32927;0.495404
1.33064;0.494819
1.33372;0.493501
1.33527;0.492855
1.33812;0.491658
1.33815;0.491645
1.33815;0.491648
1.33933;0.49113
1.34207;0.490005
1.3436;0.489394
1.34665;0.488172
1.34815;0.48758
1.3511;0.48645
1.35268;0.485849
1.35582;0.484655
1.35739;0.484068
1.35887;0.483532
1.36184;0.482471
1.36636;0.480887
1.36636;0.480887
1.36786;0.480388
1.37091;0.479368
1.37249;0.478843
1.37403;0.478333
1.38339;0.475403
1.38496;0.474946
1.39105;0.473158
1.39258;0.472732
1.3953;0.471963
1.39792;0.471286
1.39924;0.47095
1.40049;0.470606
1.40345;0.469839
1.40493;0.46946
1.40783;0.468727
1.40925;0.468383
1.88723;0.588986
1.88934;0.59092
1.88628;0.588034
1.88275;0.58489
1.87922;0.58179
1.87207;0.575707
1.86844;0.572733
1.86477;0.569787
1.85734;0.564008
1.85359;0.561179
1.84979;0.558373
1.84596;0.555597
1.83822;0.55016
1.83431;0.547494
1.8264;0.542279
1.8224;0.539717
1.81839;0.537184
1.81027;0.532241
1.80619;0.529807
1.79795;0.525054
1.7938;0.522727
1.78543;0.518157
1.78122;0.515926
1.77699;0.513728
1.76847;0.509436
1.76418;0.507332
1.75988;0.505255
1.75121;0.501207
1.74685;0.499229
1.73809;0.495362
1.73369;0.493481
1.72927;0.491637
1.72039;0.488028
1.71594;0.486278
1.70698;0.482871
1.70248;0.481208
1.69797;0.47957
1.68892;0.476412
1.68438;0.474869
1.67982;0.47336
1.67068;0.470434
1.66608;0.469023
1.65687;0.466291
1.65225;0.464981
1.64298;0.462437
1.63834;0.461219
1.62901;0.458857
1.62445;0.457738
1.61987;0.456637
1.61712;0.455978
1.61433;0.455317
1.61429;0.455308
1.61187;0.454714
1.60524;0.453263
1.60163;0.452556
1.59466;0.451108
1.59131;0.450422
1.58818;0.449785
1.58803;0.449752
1.58625;0.449395
1.58379;0.448903
1.57869;0.447914
1.57605;0.447416
1.57102;0.446483
1.56862;0.446057
1.56637;0.445662
1.56203;0.444921
1.55993;0.444577
1.55616;0.443964
1.55435;0.443677
1.55097;0.443162
1.54934;0.442915
1.54783;0.442696
1.545;0.442286
1.54365;0.442097
1.5423;0.441919
1.54074;0.441705
1.53971;0.441569
1.53757;0.441289
1.5365;0.441157
1.53146;0.440521
1.53045;0.4404
1.52995;0.44034
1.52862;0.44019
1.52795;0.440106
1.5273;0.440034
1.52598;0.439887
1.52532;0.439813
1.52402;0.439673
1.52343;0.43961
1.52227;0.439485
1.52177;0.43944
1.52084;0.439348
1.52039;0.439309
1.51955;0.439222
1.51914;0.439184
1.51878;0.439167
1.51806;0.439095
1.51805;0.439109
1.51758;0.439071
1.51732;0.439056
1.51707;0.439032
1.5165;0.438987
1.5162;0.438972
1.51562;0.438918
1.51532;0.438881
1.51481;0.438855
1.51458;0.438832
1.51416;0.438808
1.51395;0.438797
1.51373;0.438778
1.51352;0.438758
1.51338;0.438781
1.51323;0.438784
1.51292;0.438737
1.51274;0.438722
1.5126;0.438702
1.51226;0.43868
1.51209;0.438666
1.51187;0.438656
1.51172;0.438648
1.51145;0.438633
1.5113;0.438619
1.5112;0.43862
1.51096;0.438608
1.51087;0.438606
1.51054;0.438588
1.51033;0.438576
1.51026;0.438569
1.51018;0.438565
1.51006;0.438527
1.51001;0.438507
1.50993;0.438474
1.5099;0.438467
1.50981;0.438465
1.50986;0.438476
1.50983;0.438479
1.50982;0.438488
1.50977;0.438485
1.50972;0.438473
1.50959;0.438455
1.50953;0.438444
1.50943;0.438443
1.50939;0.438449
1.50933;0.438458
1.50926;0.438451
1.50919;0.438448
1.50907;0.438459
1.50901;0.438456
1.50888;0.438454
1.50882;0.438449
1.50877;0.438445
1.50864;0.438446
1.50857;0.438451
1.50846;0.438437
1.50843;0.438428
1.50839;0.438404
1.50838;0.438399
1.50829;0.438397
1.50823;0.438406
1.5082;0.438408
1.5082;0.438439
1.50816;0.438431
1.50818;0.438429
1.50813;0.438418
1.50804;0.43841
1.50793;0.438412
1.50791;0.438425
1.50782;0.438425
1.5078;0.438414
1.50778;0.438403
1.50773;0.438372
1.50772;0.438364
1.5077;0.438339
1.50771;0.438331
1.50769;0.438325
1.50769;0.43833
1.50769;0.438355
1.50766;0.438353
1.50767;0.438349
1.50775;0.438333
1.50776;0.438325
1.50777;0.438319
1.50781;0.438312
1.50781;0.438315
1.50778;0.438316
1.50774;0.438321
1.5077;0.43833
1.50769;0.438329
1.50768;0.438329
1.50762;0.438314
1.50761;0.438305
1.50753;0.438281
1.50746;0.438271
1.50736;0.438247
1.50732;0.438249
1.50724;0.438258
1.5072;0.438246
1.50717;0.438241
1.5072;0.438241
1.50722;0.438241
1.50718;0.438242
1.50708;0.438233
1.50706;0.438245
1.50707;0.438259
1.50705;0.438262
1.50699;0.438261
1.50696;0.438263
1.50689;0.438268
1.50683;0.438259
1.50669;0.438239
1.50662;0.438231
1.50659;0.43824
1.50654;0.438236
1.50647;0.43824
1.5064;0.438238
1.50637;0.438244
1.50629;0.438272
1.50625;0.438277
1.50622;0.438276
1.50622;0.438271
1.50625;0.438263
1.50629;0.438256
1.50629;0.438265
1.50622;0.438266
1.50615;0.438283
1.50613;0.438276
1.50611;0.438267
1.50609;0.438259
1.50609;0.438257
1.50611;0.438255
1.50609;0.438255
1.50605;0.438256
1.50604;0.438259
1.50606;0.438275
1.50608;0.438284
1.50607;0.438287
1.50607;0.438285
1.50612;0.438275
1.50614;0.438266
1.50617;0.438254
1.50621;0.438256
1.50625;0.438256
1.50626;0.438259
1.50627;0.43826
1.50626;0.438264
1.5063;0.438283
1.50631;0.43829
1.5063;0.438291
1.50629;0.438289
1.50633;0.438286
1.50643;0.438288
1.50644;0.438296
1.50646;0.438298
1.50648;0.438303
1.50652;0.438316
1.50656;0.43834
1.5065;0.438339
1.50643;0.438349
1.50628;0.438357
1.50623;0.438371
1.5062;0.438381
1.50622;0.438383
1.50625;0.438379
1.50625;0.438381
1.50625;0.43838
1.50627;0.438386
1.50633;0.438386
1.50631;0.438389
1.50631;0.438389
1.5063;0.438388
1.50629;0.438383
1.50629;0.43836
1.50629;0.43836
1.50629;0.438356
1.50631;0.438357
1.50629;0.438356
1.50624;0.43835
1.50614;0.438361
1.50613;0.438368
1.50612;0.438368
1.50611;0.438376
1.50607;0.438384
1.50605;0.438386
1.50605;0.438394
1.50604;0.438397
1.50601;0.438392
1.50593;0.438387
1.50589;0.438377
1.5058;0.438374
1.5058;0.438374
1.50575;0.438377
1.50575;0.438376
1.50576;0.438379
1.50574;0.438391
1.50573;0.43839
1.5057;0.43839
1.50566;0.438382
1.50563;0.438389
1.50562;0.43839
1.50559;0.438383
1.50552;0.438357
1.50552;0.438366
1.50552;0.438366
1.5055;0.43835
1.50547;0.438341
1.5054;0.43833
1.5054;0.43833
1.50535;0.438359
1.50534;0.438359
1.50531;0.438361
1.50533;0.438369
1.50533;0.438362
1.50533;0.43836
1.50531;0.438362
1.5053;0.438361
1.50528;0.43836
1.50526;0.43836
1.50526;0.438354
1.50524;0.438353
1.50524;0.438354
1.50526;0.438343
1.50528;0.438333
1.50526;0.438331
1.50526;0.438346
1.50528;0.438343
1.5053;0.438341
1.50537;0.438333
1.50539;0.438335
1.50543;0.438335
1.50549;0.438332
1.50552;0.43833
1.50563;0.438319
1.50567;0.438315
1.50578;0.438296
1.50582;0.438291
1.50586;0.438293
1.50596;0.438305
1.50599;0.438309
1.50605;0.438328
1.50609;0.43833
1.50613;0.438345
1.50618;0.438349
1.5062;0.438342
1.50627;0.43834
1.50632;0.438345
1.50637;0.438337
1.50643;0.438341
1.5065;0.438343
1.50662;0.43835
1.50668;0.438356
1.50672;0.438356
1.50671;0.438349
1.50663;0.438342
1.50658;0.438343
1.5065;0.438359
1.50646;0.43835
1.50637;0.438349
1.50633;0.438356
1.50626;0.438357
1.5062;0.438357
1.50618;0.438351
1.50606;0.438314
1.50605;0.438312
1.50601;0.438316
1.50594;0.438302
1.50584;0.438281
1.50575;0.43827
1.50569;0.438254
1.50559;0.438251
