-0.00030702;0.00345038
-0.000320845;0.00345809
-0.00033769;0.00338757
-0.000340215;0.00329177
-0.000353894;0.00306627
-0.000360825;0.00294131
-0.000358964;0.00281126
-0.000363172;0.00266632
-0.000376979;0.00238931
-0.000378491;0.00227099
-0.00038503;0.00216512
-0.000382126;0.00203641
-0.000395516;0.00179866
-0.000393654;0.00168154
-0.000388305;0.0015874
-0.000390292;0.00139768
-0.00039752;0.00132159
-0.000394317;0.00124295
-0.000392325;0.00114983
-0.000401872;0.000986286
-0.000410058;0.000910279
-0.000416003;0.000849102
-0.000419842;0.000724052
-0.000422311;0.000672423
-0.000423956;0.000624321
-0.000418837;0.000577999
-0.000427826;0.000487901
-0.000429268;0.000438677
-0.000430493;0.000363163
-0.000435034;0.00031304
-0.000447748;0.000260427
-0.000472379;0.000218543
-0.000482348;0.000118153
-0.000485436;8.31665e-05
-0.000486593;5.72321e-05
-0.000485783;6.66956e-06
-0.000488628;-1.75083e-05
-0.000496731;-3.88794e-05
-0.000502338;-8.33216e-05
-0.000502661;-9.86235e-05
-0.000510817;-0.000124086
-0.000509826;-0.000141464
-0.000510926;-0.000189054
-0.000514245;-0.000210811
-0.000519051;-0.000232415
-0.000528962;-0.000271469
-0.000531531;-0.00028985
-0.000535544;-0.000300578
-0.000537719;-0.00031535
-0.00054302;-0.000340233
-0.000547494;-0.000351168
-0.000551573;-0.000358108
-0.000559194;-0.000366535
-0.000508722;-0.000146212
-0.000471608;4.94606e-05
-0.00042651;0.000263566
-0.000276139;0.000904486
-0.00018091;0.00129196
-6.21429e-05;0.00176825
6.77846e-05;0.00227027
0.000345605;0.00334718
0.000533514;0.00402716
0.000748035;0.00478416
0.000969417;0.00556717
0.00143894;0.00715288
0.0017274;0.00809713
0.0020305;0.00911022
0.00266007;0.0111252
0.00299153;0.0121342
0.00337168;0.0132874
0.0037885;0.0145233
0.00455337;0.0167704
0.0049521;0.0179103
0.00542598;0.0192292
0.0064621;0.0220591
0.0070102;0.0234867
0.007568;0.0249342
0.00880541;0.0281051
0.00945148;0.0297187
0.0101075;0.0313044
0.0113878;0.0344026
0.0121121;0.0360871
0.0128729;0.0378433
0.0143147;0.0410801
0.015061;0.0427286
0.0158065;0.0443557
0.0166972;0.0462401
0.0185046;0.0500287
0.0194148;0.0518937
0.0204025;0.0539238
0.0213954;0.0559554
0.0234709;0.0600249
0.0245118;0.0620351
0.0256431;0.0641671
0.0268025;0.0663235
0.0291492;0.0706253
0.0303181;0.0726938
0.0315938;0.0749193
0.0329176;0.0772137
0.0356013;0.0817676
0.0369258;0.0839705
0.0383598;0.0863239
0.0397752;0.0886083
0.0425191;0.0929849
0.0439797;0.0952498
0.0455665;0.0976575
0.0472167;0.100156
0.0504806;0.105013
0.0521185;0.107396
0.0538663;0.109933
0.0556162;0.112415
0.059116;0.117285
0.0607879;0.119576
0.0623358;0.121648
0.0640035;0.123858
0.0674976;0.128373
0.0692694;0.130608
0.0709694;0.132719
0.0728929;0.135072
0.0766603;0.139595
0.0785132;0.141766
0.0810474;0.144675
0.0827772;0.1466
0.0842995;0.148273
0.0880434;0.152237
0.0896429;0.15389
0.0915953;0.155868
0.0937564;0.158027
0.0984815;0.162597
0.100973;0.164977
0.103138;0.166971
0.105325;0.168954
0.109038;0.172197
0.112066;0.174695
0.115464;0.177543
0.122092;0.18289
0.125378;0.185437
0.129134;0.188303
0.132913;0.191135
0.140411;0.196584
0.144107;0.199194
0.148023;0.201883
0.15589;0.207225
0.159846;0.209848
0.163297;0.212049
0.167313;0.21457
0.175418;0.219533
0.17952;0.221965
0.183298;0.224166
0.191615;0.228867
0.195798;0.231199
0.200002;0.233479
0.204047;0.235567
0.204503;0.235792
0.204791;0.235937
0.205554;0.236301
0.206313;0.236664
0.205134;0.236121
0.204005;0.235619
0.202508;0.234956
0.199503;0.233664
0.197671;0.232896
0.196484;0.232413
0.194666;0.231679
0.194424;0.231571
0.194633;0.231651
0.195212;0.231875
0.195551;0.231999
0.195732;0.232065
0.19579;0.232085
0.195833;0.232099
0.195802;0.232089
0.19574;0.232069
0.195674;0.232047
0.195551;0.232012
0.195535;0.232008
0.195551;0.232011
0.19558;0.232035
0.195585;0.232052
0.195607;0.232057
0.195658;0.232074
0.195668;0.232076
0.195687;0.232079
0.195742;0.232094
0.195771;0.232102
0.195792;0.232111
0.195863;0.232107
0.195903;0.232087
0.195951;0.232101
0.195988;0.23211
0.196065;0.232128
0.196104;0.232145
0.19616;0.232163
0.196197;0.232177
0.196288;0.23219
0.196331;0.2322
0.196394;0.232214
0.196437;0.232222
0.19653;0.232239
0.196597;0.23225
0.196717;0.232271
0.196773;0.23228
0.196834;0.232296
0.196905;0.232306
0.197062;0.232329
0.197136;0.232342
0.197205;0.232353
0.197365;0.232375
0.197459;0.232391
0.19757;0.232404
0.197684;0.23242
0.197807;0.232438
0.19793;0.232452
0.198186;0.232476
0.1983;0.23249
0.198425;0.232506
0.198676;0.232537
0.198801;0.23255
0.198933;0.232564
0.199209;0.232593
0.199364;0.232605
0.199518;0.232618
0.199833;0.232642
0.199996;0.232654
0.200165;0.232668
0.200519;0.232689
0.200696;0.232703
0.200886;0.232712
0.20126;0.232785
0.201459;0.232795
0.201672;0.232801
0.201884;0.232809
0.20233;0.232825
0.202559;0.232832
0.202794;0.232835
0.203042;0.232839
0.203536;0.232845
0.203783;0.232846
0.204045;0.232847
0.204326;0.232845
0.204889;0.232845
0.205173;0.23284
0.205804;0.232823
0.206121;0.232814
0.206471;0.232803
0.206851;0.23279
0.207261;0.232769
0.208094;0.232726
0.2085;0.232705
0.208956;0.232675
0.209929;0.232601
0.210461;0.23256
0.211048;0.232507
0.211696;0.232455
0.213085;0.232308
0.213831;0.232221
0.214675;0.232125
0.215618;0.231989
0.21665;0.23184
0.219059;0.231476
0.220478;0.231234
0.222606;0.230845
0.228253;0.229731
0.231871;0.228938
0.236322;0.227892
0.240746;0.226775
0.249572;0.224327
0.253958;0.222989
0.258392;0.221588
0.267477;0.21853
0.272048;0.216942
0.276679;0.215317
0.281366;0.213646
0.290687;0.21036
0.295344;0.208739
0.304552;0.205554
0.309155;0.204006
0.313627;0.202527
0.318065;0.201117
0.326992;0.198473
0.331485;0.197237
0.335955;0.19605
0.340452;0.194917
0.349452;0.192843
0.353966;0.19189
0.358532;0.191003
0.367745;0.189357
0.37234;0.188613
0.376968;0.187929
0.38623;0.18671
0.390884;0.186175
0.395538;0.185695
0.400222;0.185259
0.409677;0.184508
0.414405;0.184193
0.419152;0.183922
0.428545;0.183522
0.433276;0.18339
0.438032;0.183287
0.442806;0.183243
0.452384;0.183255
0.457169;0.183307
0.461977;0.183401
0.471574;0.183666
0.47637;0.183841
0.481178;0.184052
0.490775;0.184569
0.495564;0.184881
0.50038;0.185205
0.509888;0.185994
0.51465;0.186435
0.519442;0.186914
0.529017;0.187977
0.533798;0.188544
0.538582;0.18915
0.548164;0.190435
0.552955;0.191119
0.557753;0.191835
0.56253;0.192577
0.572094;0.19414
0.576874;0.194945
0.581645;0.195797
0.591177;0.197556
0.595937;0.198478
0.600698;0.199418
0.610201;0.201371
0.614945;0.202378
0.619686;0.203404
0.629149;0.205524
0.633878;0.20664
0.638611;0.207773
0.64805;0.210102
0.652756;0.211289
0.657475;0.212496
0.666902;0.214962
0.67159;0.216235
0.676287;0.217535
0.685647;0.22017
0.690337;0.22153
0.695016;0.2229
0.704353;0.22571
0.709025;0.22716
0.713675;0.228601
0.722964;0.231557
0.727616;0.233067
0.732254;0.23458
0.736905;0.236119
0.741528;0.237678
0.750774;0.24083
0.755392;0.242436
0.760013;0.244045
0.764636;0.245683
0.773841;0.249011
0.778422;0.25071
0.782987;0.252426
0.792144;0.255867
0.796715;0.25762
0.801274;0.259382
0.805838;0.261164
0.814955;0.264758
0.819505;0.266583
0.824059;0.26843
0.828595;0.270286
0.837654;0.274042
0.842167;0.275938
0.846688;0.277848
0.851196;0.279771
0.860214;0.283658
0.864718;0.285629
0.869213;0.287604
0.87818;0.291593
0.882661;0.293614
0.88713;0.295636
0.891601;0.29768
0.900503;0.301794
0.904954;0.30388
0.909398;0.305983
0.913828;0.308101
0.922703;0.312351
0.927137;0.314491
0.931565;0.316638
0.940377;0.320977
0.944796;0.323165
0.9492;0.325369
0.953598;0.32758
0.962375;0.332023
0.966761;0.334263
0.971143;0.336509
0.979883;0.341032
0.984236;0.343302
0.988598;0.345571
0.992964;0.347883
1.00166;0.352499
1.00599;0.35482
1.01033;0.357161
1.01899;0.36187
1.02332;0.364234
1.02765;0.366589
1.03628;0.371354
1.0406;0.373761
1.04489;0.376149
1.04919;0.378564
1.05776;0.383413
1.06203;0.385855
1.06604;0.388145
1.07309;0.392167
1.0751;0.393215
1.07512;0.393235
1.07423;0.39272
1.07326;0.392182
1.07255;0.391775
1.07143;0.391162
1.0713;0.39109
1.07161;0.391256
1.07257;0.391786
1.0731;0.392066
1.0735;0.392279
1.07391;0.392493
1.0748;0.392951
1.0752;0.393155
1.07559;0.393349
1.07659;0.393847
1.07711;0.394104
1.07772;0.394384
1.07837;0.394692
1.08014;0.3955
1.08116;0.395958
1.08231;0.396457
1.08477;0.397502
1.08629;0.398128
1.08825;0.398901
1.09065;0.399831
1.0965;0.401983
1.1004;0.403321
1.10475;0.404737
1.10911;0.406074
1.11795;0.408536
1.12241;0.409688
1.13157;0.411894
1.13621;0.412947
1.14104;0.414005
1.1459;0.415072
1.15074;0.416138
1.16035;0.418268
1.1651;0.419343
1.16973;0.420422
1.17891;0.422701
1.18349;0.423907
1.18806;0.425181
1.19716;0.427798
1.20169;0.429159
1.20623;0.430582
1.21076;0.432035
1.21977;0.435076
1.22426;0.436647
1.22875;0.43826
1.23767;0.441583
1.24212;0.443315
1.24654;0.445085
1.25538;0.448684
1.25978;0.450548
1.26855;0.45436
1.27289;0.456331
1.27725;0.458328
1.28158;0.460381
1.2903;0.464556
1.29462;0.46668
1.29893;0.468809
1.30323;0.470986
1.31175;0.475413
1.31599;0.477649
1.32022;0.479937
1.32445;0.482247
1.33287;0.486966
1.33706;0.489375
1.34124;0.491794
1.34543;0.49426
1.35374;0.499232
1.35787;0.501758
1.36199;0.504307
1.37016;0.509473
1.37423;0.512088
1.37829;0.514725
1.38234;0.517387
1.38638;0.52007
1.39441;0.525491
1.39842;0.528236
1.40242;0.531
1.41035;0.536618
1.41432;0.539449
1.41827;0.542289
1.42222;0.545157
1.42616;0.548026
1.43009;0.550918
1.4379;0.556773
1.44179;0.559727
1.44567;0.562693
1.45339;0.568655
1.45726;0.571673
1.46111;0.574708
1.46879;0.580811
1.47264;0.583892
1.47639;0.586897
1.48378;0.592872
1.48742;0.595833
1.49436;0.6015
1.49768;0.604215
1.5008;0.606783
1.50676;0.611654
1.5096;0.613973
1.51225;0.616146
1.51479;0.618221
1.51972;0.622245
1.52199;0.624095
1.52411;0.625822
1.52612;0.627446
1.52994;0.63052
1.53175;0.631966
1.53344;0.633325
1.53676;0.635937
1.53828;0.637127
1.53969;0.63823
1.54101;0.639253
1.54349;0.641152
1.54466;0.642031
1.54584;0.642905
1.54785;0.644424
1.5488;0.645138
1.5497;0.645811
1.55127;0.646949
1.55202;0.647502
1.5527;0.648005
1.55334;0.648467
1.5545;0.64932
1.55504;0.649704
1.55553;0.650049
1.55643;0.650677
1.55686;0.650968
1.55723;0.651223
1.55757;0.651451
1.55817;0.651873
1.55844;0.652052
1.55867;0.652208
1.55887;0.652344
1.55924;0.652589
1.55939;0.652688
1.55952;0.652768
1.55962;0.65283
1.5598;0.652947
1.55986;0.652984
1.55989;0.653009
1.55995;0.653045
1.55995;0.65305
1.55993;0.653036
1.55987;0.652995
1.55982;0.652959
1.55975;0.652917
1.55958;0.652821
1.55949;0.652756
1.55938;0.652684
1.55926;0.652611
1.55899;0.652455
1.55884;0.652375
1.55868;0.652289
1.55836;0.652109
1.55818;0.652014
1.55799;0.651911
1.55779;0.651808
1.55737;0.651586
1.55715;0.651482
1.55693;0.651371
1.55647;0.651137
1.55624;0.651024
1.55599;0.650902
1.55574;0.650779
1.55523;0.650534
1.55497;0.650406
1.5547;0.650281
1.55416;0.650023
1.55388;0.649895
1.55361;0.649764
1.55304;0.649502
1.55275;0.649377
1.55246;0.649247
1.55217;0.649128
1.55156;0.648865
1.55126;0.648732
1.55095;0.648603
1.55034;0.648341
1.55003;0.648208
1.54972;0.648078
1.54909;0.647822
1.54878;0.647693
1.5485;0.647588
1.54824;0.647486
1.54797;0.647377
1.54739;0.647152
1.54709;0.647037
1.54679;0.646919
1.54616;0.646679
1.54584;0.646562
1.54552;0.646442
1.54487;0.646204
1.54455;0.646089
1.54423;0.64597
1.54358;0.64574
1.54326;0.645622
1.54294;0.645518
1.54229;0.645295
1.54198;0.645186
1.54171;0.645098
1.54144;0.645001
1.54085;0.64481
1.54055;0.644708
1.54024;0.644609
1.53993;0.644508
1.5393;0.644309
1.53898;0.644204
1.53835;0.644002
1.53804;0.643911
1.53773;0.643811
1.53742;0.643718
1.5368;0.643527
1.53648;0.643432
1.53625;0.643364
1.53572;0.643205
1.53545;0.643131
1.53517;0.643054
1.53459;0.642888
1.53429;0.642807
1.534;0.642726
1.53341;0.642568
1.53311;0.642487
1.53281;0.642411
1.53223;0.64226
1.53195;0.642188
1.53166;0.642114
1.53109;0.64197
1.5308;0.641901
1.53056;0.641837
1.53004;0.641711
1.52977;0.641646
1.5295;0.641574
1.52923;0.641511
1.52869;0.641392
1.52842;0.641331
1.52816;0.641271
1.52763;0.641157
1.52736;0.641096
1.52711;0.641037
1.5266;0.640926
1.52634;0.640869
1.52609;0.640814
1.52559;0.640705
1.52534;0.640652
1.52509;0.640598
1.5246;0.640503
1.52436;0.640452
1.52413;0.640405
1.52389;0.640357
1.52342;0.640267
1.52318;0.64022
1.52297;0.640181
1.52274;0.640136
1.52228;0.640052
1.52205;0.640009
1.52182;0.639966
1.5216;0.63992
1.52138;0.63988
1.52094;0.639802
1.52073;0.639762
1.52052;0.639726
1.52031;0.63969
1.51989;0.639616
1.51968;0.63958
1.51947;0.639543
1.51905;0.639474
1.51886;0.639442
1.51866;0.63941
1.51826;0.639345
1.51805;0.639311
1.51785;0.639286
1.51746;0.639217
1.51726;0.639187
1.51708;0.639159
1.5169;0.639134
1.51653;0.639078
1.51634;0.639048
1.51616;0.639021
1.51579;0.638966
1.5156;0.638939
1.51544;0.63892
1.51511;0.638886
1.51493;0.638858
1.51475;0.638833
1.51458;0.638808
1.51422;0.63876
1.51405;0.638738
1.51389;0.638716
1.51356;0.638662
1.5134;0.638643
1.51324;0.638621
1.51291;0.638579
1.51275;0.638558
1.51259;0.638537
1.51244;0.638519
1.51214;0.63848
1.51198;0.638461
1.51182;0.638449
1.51153;0.638426
1.51141;0.638413
1.51129;0.638397
1.51103;0.638344
1.51089;0.638326
1.51075;0.638315
1.51061;0.638306
1.51033;0.638274
1.51018;0.638262
1.51006;0.638248
1.50983;0.638226
1.50971;0.638218
1.50961;0.6382
1.50951;0.638189
1.50926;0.638165
1.50912;0.63815
1.50899;0.638137
1.50872;0.638112
1.50859;0.638101
1.50847;0.638087
1.50822;0.638065
1.5081;0.638053
1.50796;0.638031
1.50771;0.638024
1.5076;0.638015
1.50749;0.638008
1.50725;0.637985
1.50713;0.637976
1.507;0.637964
1.50679;0.637956
1.50668;0.637947
1.50657;0.637934
1.50645;0.637929
1.50626;0.637905
1.50615;0.637902
1.50603;0.637899
1.50583;0.637887
1.50572;0.637881
1.50562;0.637874
1.50552;0.637864
1.50533;0.637849
1.50524;0.637842
1.50515;0.637835
1.50497;0.637819
1.50488;0.637819
1.5048;0.637813
1.50461;0.637809
1.50452;0.637803
1.50442;0.637794
1.50433;0.637791
1.50417;0.637789
1.50409;0.637789
1.50401;0.637788
1.50393;0.637779
1.50378;0.637783
1.50371;0.63779
1.50363;0.63778
1.50346;0.637775
1.50337;0.637773
1.50328;0.637779
1.50313;0.637772
1.50304;0.637766
1.50294;0.637771
1.50281;0.637765
1.50273;0.637751
1.50265;0.637745
1.50258;0.637743
1.50241;0.637734
1.50235;0.637729
1.50231;0.637718
1.50219;0.637698
1.50213;0.637695
1.50207;0.637697
1.50204;0.637707
1.50199;0.637733
1.50195;0.637746
1.50193;0.637758
1.50187;0.637755
1.50178;0.637772
1.50173;0.637776
1.50167;0.63777
1.5016;0.637771
1.50148;0.637763
1.50143;0.637762
1.50131;0.637749
1.50124;0.637748
1.50118;0.637748
1.50108;0.637742
