-0.000140516;0.00313367
-0.000158804;0.00314143
-0.000185189;0.00239648
-0.000186164;0.00185399
-0.000190853;0.00079112
-0.000198244;-8.99292e-05
-0.000211782;-0.000687949
-0.000213344;-0.000977505
-0.000227507;-0.00181757
-0.000249654;-0.00274214
-0.000259252;-0.00300719
-0.000268593;-0.00347804
-0.000273305;-0.00389754
-0.000271735;-0.00395749
-0.000285222;-0.0041827
-0.000301572;-0.00444806
-0.00028715;-0.0045611
-0.000299064;-0.00473081
-0.000300159;-0.00479076
-0.000310841;-0.00486297
-0.000296691;-0.00486453
-0.00028717;-0.00488818
-0.000301262;-0.00499464
-0.000305037;-0.00507149
-0.00031145;-0.00520572
-0.000328246;-0.00537355
-0.000331345;-0.00547952
-0.000328302;-0.00541808
-0.000337825;-0.00551055
-0.000332648;-0.00541525
-0.000319101;-0.00531109
-0.000303371;-0.005147
-0.000308176;-0.00508837
-0.000297665;-0.00505497
-0.000302738;-0.00506152
-0.000184031;-0.00427846
-7.53719e-05;-0.00348724
-4.80524e-05;-0.00326504
-4.2358e-05;-0.00327452
-6.50634e-05;-0.00337945
-8.76929e-05;-0.00348847
-8.79054e-05;-0.00349645
-0.000142705;-0.00374655
-0.000167278;-0.00387387
-0.000172072;-0.00393597
-0.00019834;-0.00402333
-0.000239507;-0.00421567
-0.000267957;-0.00433426
-0.000356851;-0.0046895
-0.000412953;-0.00492593
-0.000440311;-0.00506738
-0.000431416;-0.0050552
-0.000461727;-0.0051359
-0.000477672;-0.00519495
-0.00046029;-0.00513627
-0.000466835;-0.00514958
-0.000912863;-0.00660404
-0.000986404;-0.00682451
-0.00113839;-0.00730755
-0.00119171;-0.00747604
-0.00123542;-0.00759409
-0.00112826;-0.00728176
-0.000672276;-0.00602944
-0.000495731;-0.00555073
-0.000167973;-0.00467528
-1.97727e-05;-0.00429921
0.000312985;-0.00346891
0.000493319;-0.00302769
0.000914458;-0.0019839
0.00108963;-0.00157457
0.00150726;-0.000606241
0.00184567;0.000175868
0.00254718;0.00173388
0.00289396;0.00248837
0.00360315;0.00397436
0.00401105;0.00481648
0.00488241;0.00657883
0.0053942;0.00758952
0.00644887;0.00959238
0.00695198;0.0105835
0.00822722;0.012937
0.0088867;0.0141173
0.0101295;0.0163286
0.0114668;0.0186194
0.0122077;0.0198589
0.0129634;0.0210949
0.0146523;0.0237981
0.0163936;0.0265268
0.0173495;0.0279972
0.018331;0.0294563
0.0204408;0.0325586
0.021492;0.0340929
0.0238976;0.0375226
0.0263872;0.0409774
0.0276426;0.0426513
0.0302884;0.0460695
0.0316775;0.0478226
0.0344626;0.0512476
0.0358759;0.0529539
0.0388246;0.0564297
0.0403432;0.0581874
0.0435771;0.0618448
0.0469456;0.065601
0.0486964;0.0675194
0.0522863;0.0713156
0.054116;0.0732008
0.0580398;0.0771469
0.0600511;0.0791113
0.0656438;0.084472
0.0691432;0.087748
0.0752792;0.0934083
0.0825833;0.100142
0.084988;0.102225
0.0872149;0.104155
0.0893693;0.106034
0.0914632;0.107786
0.0951207;0.110776
0.101772;0.116141
0.107471;0.12062
0.11006;0.12262
0.115207;0.126492
0.119053;0.129333
0.122944;0.132162
0.129869;0.13711
0.132783;0.139154
0.138465;0.143043
0.141228;0.144901
0.146684;0.148549
0.149411;0.150331
0.154918;0.153841
0.158986;0.156371
0.166367;0.160895
0.169257;0.162641
0.176249;0.166801
0.180355;0.169189
0.187102;0.173025
0.189783;0.17452
0.195422;0.177626
0.198799;0.179448
0.205202;0.182862
0.208234;0.184466
0.214549;0.187717
0.21764;0.189293
0.223665;0.192305
0.226735;0.193815
0.232727;0.196729
0.235559;0.198085
0.241069;0.200686
0.246147;0.203036
0.248567;0.204149
0.249842;0.204723
0.250991;0.205234
0.251295;0.205368
0.251554;0.205479
0.250052;0.204827
0.248998;0.204378
0.246958;0.203506
0.24599;0.203101
0.242306;0.201575
0.240414;0.200812
0.237101;0.19948
0.235589;0.198888
0.231014;0.197133
0.228739;0.196251
0.224764;0.194764
0.220388;0.193141
0.217812;0.192223
0.214618;0.19107
0.213644;0.190736
0.213558;0.190711
0.215419;0.191336
0.216788;0.191788
0.219374;0.192629
0.220476;0.192979
0.221295;0.193231
0.221387;0.193257
0.221151;0.193186
0.220347;0.192948
0.219942;0.192836
0.219687;0.192762
0.219962;0.192834
0.220196;0.192896
0.22064;0.193011
0.221673;0.193269
0.222199;0.193399
0.222998;0.193587
0.223331;0.193661
0.223791;0.193765
0.224055;0.193819
0.224177;0.193843
0.22433;0.193873
0.224884;0.193985
0.225198;0.194048
0.225977;0.194184
0.226386;0.194253
0.226824;0.194322
0.2277;0.194461
0.228142;0.194529
0.229083;0.194664
0.230053;0.194791
0.230539;0.194851
0.231052;0.194908
0.232286;0.195037
0.232933;0.195104
0.234432;0.195232
0.236126;0.195348
0.238051;0.195461
0.239069;0.195511
0.241717;0.195601
0.243153;0.19564
0.247399;0.19567
0.253148;0.195562
0.256441;0.195437
0.26563;0.194918
0.274824;0.194128
0.279421;0.193662
0.288817;0.192493
0.293566;0.191831
0.303376;0.190434
0.308232;0.189756
0.317895;0.188435
0.322692;0.187811
0.327431;0.187221
0.33682;0.186176
0.341493;0.185735
0.350866;0.184986
0.35556;0.184689
0.364961;0.184221
0.369669;0.184062
0.379092;0.183876
0.383814;0.183853
0.393264;0.183925
0.397989;0.184028
0.40745;0.184386
0.412172;0.184624
0.421636;0.185224
0.42638;0.185581
0.435845;0.18642
0.440575;0.186893
0.450011;0.187988
0.454744;0.188585
0.464172;0.189892
0.468877;0.190598
0.478309;0.19213
0.48301;0.19296
0.492403;0.194727
0.4971;0.195653
0.506453;0.19764
0.511133;0.198682
0.515808;0.199755
0.520464;0.200863
0.529786;0.203179
0.534435;0.204391
0.543711;0.206907
0.548334;0.208162
0.55756;0.210862
0.56217;0.212253
0.571383;0.215148
0.575949;0.216651
0.5851;0.219713
0.589667;0.221288
0.594223;0.222876
0.603306;0.226156
0.607839;0.227836
0.616861;0.231281
0.621368;0.233036
0.630367;0.236626
0.634843;0.238461
0.643796;0.242201
0.648251;0.244105
0.657153;0.247987
0.661579;0.249961
0.670423;0.253976
0.674836;0.25602
0.683625;0.260172
0.688017;0.262275
0.696751;0.266558
0.701108;0.268744
0.705458;0.270934
0.714144;0.275371
0.718467;0.277618
0.727108;0.282173
0.731424;0.284483
0.740001;0.289147
0.744287;0.291495
0.752815;0.296259
0.75707;0.298659
0.765568;0.303532
0.769801;0.305989
0.778242;0.310945
0.78246;0.313437
0.790862;0.318501
0.795051;0.321034
0.80341;0.326161
0.80758;0.328746
0.815886;0.333944
0.820032;0.336574
0.828292;0.341867
0.832421;0.344532
0.836544;0.347214
0.844772;0.352606
0.848871;0.355315
0.857023;0.36077
0.861103;0.363503
0.869247;0.369031
0.873516;0.371947
0.881844;0.377665
0.885918;0.380469
0.893891;0.385991
0.897773;0.388697
0.901775;0.391509
0.909592;0.397033
0.913304;0.399653
0.920795;0.404963
0.924502;0.407585
0.93164;0.412695
0.935106;0.415184
0.941683;0.419893
0.944877;0.422193
0.951128;0.426713
0.954168;0.428901
0.960214;0.433287
0.96332;0.435551
0.966439;0.437795
0.972139;0.441925
0.977915;0.446112
0.980701;0.448137
0.986091;0.452054
0.988732;0.453993
0.991368;0.455916
0.99665;0.459747
0.999215;0.461614
1.00422;0.465266
1.00671;0.467086
1.01174;0.470746
1.01414;0.472488
1.01865;0.475825
1.02101;0.477544
1.02563;0.480916
1.02803;0.482534
1.03267;0.48586
1.03503;0.487583
1.0397;0.49097
1.04186;0.492525
1.04578;0.495376
1.04864;0.497449
1.04973;0.498235
1.05039;0.49871
1.05111;0.499196
1.05142;0.499416
1.05017;0.49849
1.0494;0.49793
1.04781;0.496788
1.04705;0.496247
1.04409;0.494182
1.04253;0.493075
1.0398;0.491145
1.03672;0.488956
1.03491;0.487653
1.03129;0.485073
1.02969;0.483941
1.02647;0.481631
1.02462;0.480311
1.02111;0.477792
1.01948;0.476605
1.01613;0.474211
1.0142;0.472808
1.01226;0.471394
1.00876;0.468847
1.00723;0.467761
1.00522;0.466296
1.0034;0.465022
1.00278;0.46456
1.00275;0.464523
1.00408;0.465551
1.00574;0.466767
1.00658;0.467391
1.00715;0.467804
1.0072;0.467853
1.00699;0.467701
1.00626;0.467155
1.00587;0.46686
1.00545;0.466546
1.00535;0.466462
1.00561;0.466664
1.00609;0.467029
1.00659;0.467416
1.00683;0.467596
1.00699;0.467723
1.00698;0.467716
1.00695;0.467689
1.00688;0.467651
1.00687;0.467639
1.00698;0.467724
1.00705;0.467785
1.00727;0.467963
1.0075;0.468157
1.00762;0.468249
1.00782;0.468409
1.00796;0.468529
1.00802;0.468582
1.00814;0.468687
1.0082;0.468738
1.00838;0.468905
1.00848;0.468993
1.00871;0.46921
1.00884;0.469319
1.0091;0.469544
1.00934;0.469772
1.00946;0.469881
1.0097;0.47009
1.00993;0.470308
1.01005;0.470419
1.01032;0.470665
1.0106;0.470932
1.01074;0.471064
1.01106;0.47137
1.01123;0.471522
1.01158;0.47186
1.01194;0.47222
1.01212;0.472407
1.01253;0.472814
1.01275;0.473028
1.01321;0.473491
1.01368;0.473995
1.01392;0.474243
1.01444;0.474794
1.01497;0.475363
1.01553;0.47596
1.01613;0.476637
1.01714;0.477785
1.01788;0.478654
1.01877;0.479721
1.01925;0.480317
1.02053;0.481921
1.02242;0.484343
1.02477;0.487528
1.02872;0.493147
1.0338;0.500773
1.04095;0.512509
1.04545;0.520496
1.04761;0.524552
1.05215;0.533289
1.05215;0.533289
1.05666;0.541988
1.06118;0.55046
1.06348;0.554658
1.0658;0.558778
1.07048;0.566789
1.07287;0.570738
1.07784;0.578473
1.08039;0.582295
1.083;0.586088
1.08566;0.589851
1.09118;0.597282
1.094;0.600944
1.09982;0.608182
1.10281;0.611751
1.10893;0.618809
1.11206;0.622279
1.11844;0.629135
1.12169;0.632519
1.12832;0.639184
1.13167;0.642472
1.13849;0.648955
1.14196;0.65217
1.14901;0.658478
1.15257;0.661598
1.1598;0.66773
1.16347;0.670759
1.17087;0.676705
1.17462;0.679629
1.1784;0.682517
1.18604;0.688197
1.18988;0.691004
1.19766;0.696525
1.20158;0.69924
1.2095;0.704562
1.21349;0.707172
1.22155;0.712339
1.22969;0.717368
1.23379;0.719834
1.24206;0.724676
1.24623;0.727052
1.25041;0.729415
1.25882;0.734022
1.26306;0.736293
1.27158;0.740732
1.27586;0.742899
1.28449;0.747154
1.28882;0.749245
1.29753;0.7533
1.3019;0.755282
1.31069;0.759185
1.3151;0.761097
1.32396;0.764827
1.33288;0.768427
1.33737;0.770189
1.34185;0.771914
1.35086;0.775271
1.35537;0.776891
1.36443;0.780062
1.37306;0.782976
1.37714;0.784311
1.38108;0.785564
1.38768;0.78761
1.39078;0.788548
1.39674;0.790329
1.39942;0.791065
1.40448;0.792458
1.4068;0.79309
1.41147;0.794343
1.41401;0.795002
1.41654;0.795647
1.4206;0.796666
1.42262;0.797158
1.42467;0.79764
1.42677;0.798122
1.42782;0.798357
1.42919;0.79866
1.43198;0.799255
1.43349;0.799578
1.43649;0.800196
1.43783;0.800473
1.4404;0.800985
1.44185;0.801269
1.4433;0.801541
1.44543;0.801945
1.44722;0.802271
1.44801;0.802413
1.44951;0.802676
1.44988;0.802741
1.45096;0.802918
1.45139;0.802988
1.45242;0.803155
1.45301;0.80325
1.45369;0.803353
1.45373;0.803359
1.45492;0.803539
1.45544;0.803617
1.45657;0.803781
1.45723;0.803874
1.45843;0.804041
1.45897;0.804113
1.46002;0.804256
1.46051;0.804319
1.46099;0.804383
1.46184;0.804489
1.46225;0.804541
1.46225;0.804541
1.46284;0.804612
1.46325;0.80466
1.46367;0.804708
1.46449;0.804802
1.46489;0.804854
1.46598;0.804977
1.46667;0.805051
1.46754;0.805152
1.46789;0.805192
1.46863;0.805282
1.46897;0.805311
1.46987;0.80539
1.47046;0.80545
1.4707;0.80548
1.47094;0.805499
1.47134;0.805539
1.47163;0.80556
1.47236;0.80563
1.47279;0.805668
1.47335;0.805706
1.47335;0.805706
1.473;0.805679
1.47272;0.805657
1.47265;0.805652
1.47282;0.805662
1.47326;0.805706
1.47347;0.805726
1.47383;0.805758
1.47397;0.805768
1.47458;0.805807
1.47485;0.805826
1.47512;0.805845
1.47541;0.805861
1.47561;0.805875
1.4759;0.805897
1.47566;0.805878
1.47563;0.805862
1.47578;0.805871
1.47612;0.805905
1.4765;0.805925
1.47643;0.805914
1.47625;0.805903
1.47604;0.805898
1.47613;0.805907
1.47621;0.8059
1.47651;0.80592
1.4767;0.805937
1.47703;0.805967
1.47721;0.805972
1.47759;0.806023
1.47768;0.806031
1.47785;0.806038
