0.0113134
0.00956751
0.00857662
0.00896491
0.00755704
0.00681547
0.010499
0.00748862
0.00804805
0.0278518
0.0092313
0.010998
0.00921245
0.00753127
0.00934763
0.0113643
0.00212777
0.00879821
0.00871422
0.0066792
0.00769969
0.00714901
0.0249809
0.0273062
0.011666
0.00755776
0.00789084
0.00626776
0.00942955
0.0108015
0.00749451
0.0105554
0.00501133
0.00939185
0.00463371
0.00904979
0.00859042
0.00682324
0.00124464
0.00839104
0.0131752
0.0113171
0.0107846
0.0057077
0.00143792
0.0106877
0.00968213
0.00812022
0.00937034
0.00125491
0.00624843
0.00250948
0.00264225
0.00648304
0.00731844
0.013569
0.0112723
0.0108592
0.00593694
0.00659682
0.00903036
0.00220578
0.00238793
0.00794028
0.0089757
0.00787115
0.00694444
0.0110669
0.00697832
0.00943571
0.00841947
0.00834506
0.00789822
0.00298525
0.0142018
0.00746553
0.0120334
0.0106706
0.0085945
0.00806089
0.00683963
0.00823764
0.0122801
0.00853616
0.00776828
0.00851532
0.00423569
0.0100022
0.00983475
0.00827452
0.00970843
0.0031535
0.00387478
0.0115322
0.00957878
0.0109272
0.0137448
0.0168071
0.0143851
0.0129991
0.00900122
0.0139306
0.011655
0.0128443
0.0104175
0.00388485
0.0101151
0.0106126
0.00415983
0.00264822
0.00286315
0.00424607
0.00326554
0.00312874
0.0188348
0.0040866
0.00249421
0.002927
0.00312949
0.00289916
0.0111507
0.00392401
0.00254187
0.00300958
0.00288615
0.00325545
0.00911794
0.00300695
0.0023851
0.00306842
0.00310046
0.00295525
0.00325659
0.00280398
0.00296756
0.00287786
0.00303173
0.00251756
0.00395315
0.0041186
0.00352521
0.0056298
0.00324416
0.00259462
0.00338737
0.0024498
0.00336499
0.00283991
0.00291997
0.00258345
0.00362837
0.00245415
0.00322757
0.00623038
0.00352001
0.0026882
0.00377307
0.00330536
0.00377333
0.0031544
0.00271259
0.00339607
0.00506336
0.00366778
0.00331516
0.0029258
0.00262677
0.00314804
0.00454325
0.0037206
0.00328495
0.00391199
0.00255784
0.00446587
0.00329449
0.00512456
0.00361397
0.00478794
0.00258531
0.00585333
0.00320646
0.00233008
0.00362064
0.00320585
0.00260637
0.00239883
0.00286128
0.0041583
0.00300688
0.00327699
0.00246089
0.00319871
0.00488418
0.003384
0.00236556
0.00243084
0.00394496
0.00454568
0.00389609
0.0106028
0.00325392
0.00343227
0.00252295
0.00443924
0.00345772
0.0167925
0.0112018
0.00370292
0.00255057
0.00302827
0.00305841
0.00372263
0.00486435
0.00242403
0.00447332
0.00427835
0.00535805
0.00391104
0.0114087
0.00260947
0.00261063
0.00298506
0.00995415
0.0043088
0.00368661
0.00287119
0.00438452
0.0101926
0.0132283
0.00398908
0.00300791
0.00256829
0.00336453
0.00326865
0.00295073
0.00244762
0.0109209
0.0113222
0.0103336
0.00244626
0.00914159
0.0024225
0.0110376
0.00182314
0.0110709
0.0119048
0.00155915
0.00305166
0.00281765
0.00202442
0.0019793
0.00193091
0.00150932
0.0141629
0.00329915
0.00431574
0.00868338
0.00327017
0.00252968
0.01066
0.00300384
0.00375181
0.0109438
0.00703747
0.0015815
0.0107019
0.00362761
0.00381454
0.00167672
0.0014749
0.00290655
0.00309145
0.00326395
0.00358275
0.00201066
0.0132294
0.0107386
0.00918048
0.0101602
0.00379241
0.00208828
0.00170252
0.00201098
0.0121338
0.00843045
0.00350468
0.00872912
0.0014947
0.00166525
0.0102613
0.0117856
0.00177723
0.0070275
0.0111023
0.002061
0.00331697
0.00182779
0.00183524
0.00628613
0.00765953
0.0021096
0.0130449
0.00819286
0.00170201
0.00514216
0.0062124
0.00202349
0.00299222
0.00188119
0.00193245
0.00675632
0.00748819
0.00231003
0.00203558
0.00775831
0.00256877
0.00590242
0.00156973
0.00213327
0.00907696
0.0146728
0.00485863
0.00541893
0.00681019
0.00228174
0.00202673
0.00310926
0.00808238
0.00802898
0.00274438
0.0095821
0.00206719
0.00734363
0.00905199
0.00583634
0.00873186
0.0117474
0.0021132
0.00337974
0.00508655
0.00598136
0.00665407
0.00766557
0.00216437
0.00336286
0.0062081
0.00673675
0.00788628
0.00985649
0.00211495
0.00409679
0.0112616
0.011028
0.00834887
0.00349765
0.0101382
0.00822222
0.00274855
0.00746947
0.00887098
0.014203
0.0155431
0.00884478
0.00715268
0.0138246
0.0122372
0.00552124
0.00211414
0.00216571
0.0033151
0.00799501
0.00442866
0.00356077
0.00213046
0.0117005
0.00945553
0.00967809
0.00907047
0.00219072
0.00225396
0.0087853
0.00959747
0.00321831
0.00338876
0.00332772
0.00875845
0.00828943
0.00957937
0.00338765
0.00322399
0.00246988
0.00952212
0.00871655
0.00336415
0.0031895
0.00216918
0.00221838
0.0113213
0.00944098
0.00299327
0.00327071
0.00207728
0.00205974
0.00896483
0.0143036
0.00314271
0.00337419
0.0021535
0.0130841
0.00925591
0.00725867
0.00390294
0.0027548
0.00374681
0.00166598
0.0016003
0.00480219
0.0105988
0.00665878
0.0101327
0.00261288
0.00163655
0.00337
0.00974609
0.0104796
0.00947255
0.00293352
0.00995324
0.00162093
0.0136984
0.00260563
0.00961243
0.00227656
0.00839919
0.00249829
0.00953397
0.00801968
0.00321699
0.00827477
0.00291969
0.00834445
0.00860049
0.00890158
0.010965
0.00651995
0.0109637
0.00164048
0.0125124
0.0188539
0.00302232
0.00828632
0.0118263
0.00798996
0.0111715
0.01167
0.00781524
0.0040373
0.011543
0.0102976
0.0133131
0.0121744
0.0152205
0.0086112
0.00932127
0.00704031
0.0115724
0.0130404
0.00839831
0.00843799
0.00158844
0.0102007
0.00971406
0.0181946
0.0073984
0.00700493
0.013867
0.0126001
0.0168823
0.00769021
0.00667236
0.00689735
0.00315904
0.0136553
0.00771477
0.00894522
0.00220246
0.0108476
0.00910754
0.0138401
0.0138886
0.00821293
0.00829646
0.0109652
0.0095927
0.0136661
0.00860375
0.012143
0.0104035
0.0115326
0.00931271
0.00321388
0.0108923
0.00722707
0.00885066
0.0113185
0.00319908
0.0109786
0.00882607
0.0185347
0.00695444
0.00316802
0.00938267
0.00917117
0.00818251
0.00880315
0.00160189
0.00980243
0.0109793
0.00902454
0.0120138
0.00805362
0.0129099
0.0132588
0.00980177
0.00336288
0.00754982
0.0289421
0.0104979
0.00318939
0.0089631
0.00874065
0.014705
0.00968126
0.00896408
0.0106001
0.00296293
0.0118826
0.00736674
0.00672414
0.00160539
0.0127914
0.00858612
0.00900235
0.00760779
0.00896043
0.010007
0.00997663
0.0101423
0.00813913
0.0076766
0.00278896
0.0108927
0.0105791
0.0114163
0.00866941
0.0116887
0.00688016
0.0112989
0.00932492
0.0114631
0.00937961
0.00820763
0.00869591
0.00270267
0.00852342
0.00817141
0.00936372
0.0152184
0.00274894
0.0120739
0.0076881
0.0106606
0.00855703
0.00854752
0.0101477
0.00790113
0.00993729
0.00851949
0.012686
0.00932959
0.00859011
0.00749149
0.0070875
0.00757296
0.0146457
0.00892482
0.0183345
0.00774929
0.00769799
0.00845585
0.00922437
0.00793301
0.00647121
0.00691704
0.0058308
0.00649227
0.00725915
0.00849158
0.00617943
0.00881952
0.00944767
0.0136028
0.0100215
0.010676
0.00743631
0.00757003
0.00948421
0.00564135
0.0116422
0.0106937
0.0104592
0.0102294
0.008222
0.00825117
0.00838825
0.00249113
0.00234508
0.00907531
0.0021493
0.0111892
0.00355155
0.00251595
0.00245647
0.00855204
0.00826461
0.00807947
0.00198098
0.00416499
0.0200628
0.00240447
0.00268262
0.00477054
0.00893486
0.0025162
0.0040356
0.00272466
0.013318
0.0156046
0.0162712
0.00350541
0.0031798
0.00257355
0.00239429
0.0029895
0.00539079
0.00261161
0.00269878
0.00237271
0.00274306
0.00297978
0.0029514
0.00421889
0.00300799
0.00352064
0.0042328
0.00373456
0.00377103
0.00256467
0.00257195
0.00233731
0.00243882
0.00293639
0.00470751
0.00546843
0.00332336
0.00466289
0.00370442
0.00294879
0.00432999
0.00310244
0.00263083
0.00507517
0.00303081
0.00812491
0.00322639
0.00351795
0.00398125
0.00747763
0.0046885
0.0047214
0.00495246
0.00755093
0.0042018
0.00850365
0.00448527
0.00790458
0.00749196
0.0112407
0.00784201
0.01086
0.00802259
0.0100563
0.00887481
0.0102264
0.00881374
0.00976655
0.00891186
0.0132779
0.0253253
0.00302799
0.00392765
0.0185238
0.00439648
0.00462539
0.00455267
0.00504572
0.00497594
0.00401841
0.0225424
0.0151408
0.011426
0.00428354
0.0105603
0.00416193
0.00437929
0.0181529
0.0052234
0.00611269
0.00346573
0.00435395
0.00432062
0.00505689
0.00330654
0.00337329
0.0039601
0.00537189
0.00519377
0.00320395
0.00580099
0.00524563
0.00323987
0.0134438
0.00274658
0.00279991
0.0275802
0.00306865
0.0146345
0.00320513
0.0107095
0.00441598
0.00364118
0.00549886
0.00343257
0.00424759
0.00376723
0.0153277
0.0101084
0.00295517
0.00359742
0.00400288
0.00865936
0.00341422
0.00335618
0.00338896
0.00366156
0.00334964
0.00315465
0.00315145
0.00320138
0.0041632
0.00283971
0.00371781
0.00386416
0.00474786
0.00226513
0.00434454
0.00440601
0.00426953
0.00412686
0.00418316
0.00355616
0.00392526
0.00412105
0.00216491
0.0023985
0.0022468
0.00226774
0.00358235
0.00432966
0.00213851
0.00221889
0.00220594
0.00214186
0.0139281
0.0106327
0.0021595
0.0038238
0.00217754
0.00209989
0.00779231
0.00205854
0.00182863
0.00206524
0.00213144
0.00220184
0.00935665
0.0105864
0.00176962
0.00199066
0.00213782
0.00209291
0.00306374
0.0091048
0.00823054
0.00176553
0.0143828
0.00236603
0.00725507
0.00951252
0.00234494
0.00216664
0.00966777
0.0025658
0.0109822
0.00855618
0.00720554
0.0104562
0.00990923
0.011251
0.00782297
0.00856258
0.00213369
0.00199718
0.00238318
0.00924795
0.0101108
0.00676545
0.0102482
0.00777956
0.00993971
0.00886978
0.0104756
0.00857095
0.00837117
0.00853043
0.0101741
0.00775305
0.00787847
0.00375226
0.0106043
0.00875395
0.0117011
0.010146
0.00865173
0.00662558
0.00802738
0.00925161
0.0103828
0.0119816
0.00870053
0.00810126
0.00637955
0.00691281
0.0116961
0.00900389
0.00981512
0.00960214
0.00698277
0.00912562
0.0112701
0.0152163
0.0104939
0.00700237
0.00971117
0.0114337
0.0134477
0.0102716
0.00735906
0.0107333
0.0075202
0.00740252
0.0113237
0.010695
0.0084527
0.00864165
0.00913621
0.00260891
0.00998293
0.0102673
0.00731053
0.00920059
0.00929825
0.0121771
0.00925647
0.00791621
0.00923808
0.00911163
0.0100288
0.00974773
0.00840812
0.0097023
0.00266422
0.0134984
0.00784184
0.0112326
0.010565
0.00974141
0.00736959
0.00769274
0.0109548
0.0034307
0.00882937
0.00729722
0.00790368
0.00918035
0.00360782
0.00909612
0.00759499
0.00918833
0.00603713
0.00780576
0.00713556
0.00775539
0.00788469
0.0109944
0.0081095
0.00768265
0.00885869
0.00905001
0.0084038
0.00905702
0.0100633
0.0129259
0.0251073
0.00858204
0.00789342
0.00907082
0.0109026
0.0338045
0.00924191
0.00740897
0.00875609
0.0105769
0.0245094
0.00730086
0.0106804
0.00762182
0.00621277
0.00442136
0.00615003
0.00656866
0.00589551
0.00528537
0.00533293
0.00635582
0.0061154
0.00699108
0.00901548
0.00822825
0.00817326
0.00768997
0.0101713
0.00858911
0.00612875
0.00590627
0.00681249
0.00828668
0.0125274
0.00711675
0.0119144
0.00526908
0.00529746
0.0056161
0.00512242
0.00623596
0.00445903
0.00762174
0.0045643
0.00701387
0.00548192
0.00534502
0.00634896
0.00505247
0.00444592
0.00701236
0.00572275
0.00533083
0.00712579
0.00560249
0.00788188
0.0066203
0.0070121
0.00646441
0.00844682
0.00762761
0.0110199
0.00719357
0.0123474
0.00552667
0.0104558
0.00682122
0.00736129
0.00730424
0.0073106
0.00536093
0.00519097
0.00516736
0.0046225
0.00533322
0.00525427
0.00557836
0.00533826
0.00588117
0.00526647
0.00610061
0.00581419
0.00660443
0.0100582
0.0060052
0.00772809
0.00776734
0.00783874
0.00735767
0.00904686
0.00967421
0.00681288
0.00514285
0.0104259
0.00510719
0.00699804
0.00722123
0.0051634
0.00525019
0.00558659
0.00660844
0.00712985
0.00794711
0.0195293
0.00788132
0.00512305
0.00909543
0.00786647
0.00983202
0.0101022
0.00419142
0.00450624
0.00457835
0.00479402
0.00591354
0.00586059
0.00522853
0.00607823
0.00462051
0.00496136
0.0045865
0.00479547
0.00472071
0.00441168
0.00740852
0.0072596
0.00570764
0.00574886
0.00631169
0.00611178
0.00541797
0.00672797
0.00549852
0.00707127
0.00715784
0.00681783
0.00747388
0.00614256
0.007184
0.00695057
0.00822055
0.00648802
0.00738232
0.00717262
0.00804698
0.00772717
0.00809361
0.00683605
0.00791432
0.0058381
0.00633471
0.00583111
0.00525651
0.00635727
0.0085484
0.00402813
0.00797615
0.00523522
0.00407545
0.00493222
0.00387568
0.00559489
0.00501719
0.00456205
0.00612435
0.00405161
0.00462044
0.00447556
0.00480375
0.00426557
0.00501631
0.00835098
0.00527828
0.00535248
0.00543753
0.00439752
0.00487078
0.00567588
0.00475857
0.00632876
0.00698469
0.00871489
0.00601156
0.0066298
0.0143759
0.00738565
0.00532255
0.005637
0.00595151
0.0060584
0.00526495
0.00635484
0.00741621
0.00682968
0.00892346
0.00794315
0.00739178
0.00792197
0.00685514
0.00737002
0.0078583
0.00822454
0.0102248
0.00854302
0.00672761
0.00659791
0.00749252
0.0062444
0.0082855
0.00725261
0.00782098
0.00733534
0.00800879
0.00695374
0.00763791
0.00694611
0.00737136
0.00800706
0.0073036
0.00784564
0.00794979
0.00892616
0.0076588
0.00800456
0.00818603
0.00844645
0.00781215
0.00844474
0.0103704
0.00773638
0.00865117
0.00867813
0.00906611
0.00996973
0.00725619
0.00421897
0.00818868
0.00908964
0.00758664
0.00567117
0.00514698
0.00871639
0.00495948
0.00549538
0.00711337
0.00683875
0.0106251
0.0077951
0.0122305
0.00836821
0.00972476
0.00443952
0.00392584
0.00629232
0.0042138
0.00444824
0.00598413
0.00483332
0.00414953
0.00405559
0.00585947
0.00638122
0.00376231
0.00416241
0.00599857
0.00409057
0.00420234
0.00416129
0.0041157
0.00445963
0.00416796
0.00424043
0.00445229
0.00656684
0.0103654
0.00530654
0.00645577
0.00532008
0.0061704
0.00688461
0.00783034
0.00638054
0.00879775
0.00903206
0.00725107
0.00681188
0.00715817
0.00748988
0.00697672
0.00939065
0.00776931
0.00906453
0.00993907
0.00834259
0.00830824
0.00792546
0.00830041
0.00807653
0.00742683
0.00788872
0.00766641
0.00772857
0.0079543
0.0102129
0.00727361
0.00952097
0.00914434
0.00789462
0.00854211
0.00905623
0.00884721
0.0080241
0.00984998
0.00791462
0.0103834
0.0074869
0.00751313
0.00899053
0.00678794
0.00800122
0.00651208
0.0065601
0.00683424
0.00662545
0.00836292
0.0078649
0.00859371
0.00539664
0.00516222
0.00617927
0.00706176
0.00434667
0.00457119
0.00482891
0.00568257
0.00408795
0.00546245
0.00416441
0.00418411
0.00459537
0.00499814
0.00459736
0.00529938
0.0050305
0.00697588
0.00600916
0.00637307
0.00759088
0.00684379
0.00519149
0.00819689
0.00642011
0.0053057
0.00570236
0.00545851
0.00523122
0.00582338
0.00520068
0.00709679
0.00764148
0.00795406
0.00444191
0.00387808
0.00414371
0.00386718
0.0038225
0.00618209
0.00439641
0.00446621
0.00412434
0.00448346
0.00456465
0.00640242
0.0056948
0.00400185
0.00496128
0.00872288
0.00385883
0.00373246
0.00487141
0.00403725
0.00374543
0.00371106
0.00367868
0.00535028
0.00445194
0.00427632
0.00400881
0.00425957
0.00386398
0.00409619
0.00410961
0.00564365
0.0062077
0.00450833
0.00420042
0.00457116
0.00581575
0.00564623
0.00786553
0.0115864
0.00661038
0.0071019
0.00908918
0.00825646
0.00619928
0.0136455
0.00776147
0.00315102
0.00339581
0.00371726
0.00366545
0.0068028
0.00400993
0.00460807
0.00402518
0.00555967
0.00653985
0.00660557
0.00706296
0.00485405
0.00482944
0.00663306
0.0057771
0.00765598
0.00567178
0.00557308
0.00599307
0.00745705
0.0077084
0.00750664
0.0089135
0.00832147
0.00733763
0.00822852
0.00884802
0.00946303
0.00873695
0.00855969
0.00841302
0.00801036
0.00851569
0.00793376
0.00775766
0.00821507
0.00869522
0.00814611
0.0078627
0.00844748
0.00748697
0.00783803
0.00827906
0.00940869
0.00935886
0.00852862
0.0124493
0.00732823
0.00865665
0.00803587
0.00750035
0.0075465
0.00775317
0.00899259
0.00948317
0.00745065
0.00727717
0.00915555
0.0070178
0.00860956
0.00663419
0.00691058
0.00664176
0.00712074
0.00749675
0.00700744
0.00629879
0.00621699
0.00732292
0.00704461
0.00641492
0.00704926
0.0068995
0.00734919
0.00723973
0.0064443
0.0065488
0.00673516
0.00864061
0.00741229
0.00889387
0.00684338
0.00720382
0.010668
0.00763828
0.00911905
0.00795048
0.00760045
0.00823659
0.00745151
0.00794273
0.00662106
0.0066494
0.00901872
0.00596734
0.00769291
0.00916743
0.00642877
0.00611738
0.00596577
0.00663335
0.00678339
0.0062659
0.0065046
0.00711164
0.00660933
0.00838987
0.00822384
0.00833167
0.00819399
0.0061144
0.00538493
0.00626408
0.0056346
0.00665668
0.00607818
0.00627327
0.00710179
0.00647554
0.00695673
0.00608275
0.00637187
0.0067183
0.00743075
0.0073977
0.0073053
0.00759882
0.00761259
0.00751852
0.016284
0.00684027
0.00643096
0.0085204
0.00615442
0.00602951
0.00615517
0.00728275
0.00748301
0.00711374
0.00603756
0.00580376
0.00694643
0.00528457
0.00538947
0.00518894
0.0074973
0.0046387
0.00419522
0.00397644
0.00422287
0.00406141
0.00433723
0.00425522
0.0104494
0.00917242
0.00835616
0.00428244
0.00377691
0.00427399
0.00531749
0.00736904
0.00779969
0.0055754
0.00681637
0.00742919
0.00601162
0.00404968
0.00454786
0.00423357
0.00480591
0.00388734
0.00441891
0.00483057
0.00446158
0.00634447
0.00669498
0.00518786
0.00456507
0.00572447
0.00573631
0.00532587
0.00728855
0.00788278
0.00816405
0.00728476
