76903
48272
30220
16701
50601
26880
23145
39620
30878
16239
21407
111361
34691
16100
15734
20678
20356
29665
46235
82834
77411
24837
70623
23841
64225
369014
118593
109100
14365
36264
24889
24581
23677
24297
35189
28563
17869
27140
49353
22771
25708
47107
34042
28591
27762
39703
26795
31837
27737
128948
29884
26815
72413
37881
31335
37333
31953
149843
168162
40871
33484
28495
29278
56228
50911
29900
39534
90038
64059
99037
74994
32886
67378
179656
157132
26414
40637
28519
30651
29263
123950
34355
114264
48061
20561
25343
33039
23143
21231
48922
34388
38134
28144
30425
67416
23010
26956
50909
240443
246233
148782
20753
22754
26866
24708
37090
138289
58036
92005
29197
27107
14690
14101
17985
15725
23450
124311
28321
119379
19077
33076
46277
26943
22944
53259
48520
139129
217552
33020
13841
41163
50427
37323
73245
21368
22643
68182
21408
33554
70634
127109
61095
24182
39043
42617
27687
36544
18142
44511
24669
19687
45705
21929
29080
33580
24985
23171
23310
28641
30926
23452
20868
20109
38629
24545
20599
53950
37222
69709
27329
72776
22632
28549
59082
35296
30613
28065
26604
17769
27992
52247
196961
28709
26575
20126
18904
14061
26763
13946
14907
14204
32796
14867
78039
25598
36886
14356
52454
25534
13871
14816
13983
14388
33498
14778
16057
32787
36104
13832
12824
64635
35176
15057
13421
44640
159530
16156
24697
14068
13884
14286
26291
34571
14535
13902
28171
15417
14242
13523
39699
13987
43403
21832
37859
14546
64691
24353
12926
13889
76017
30706
51966
17473
62459
72131
16414
13796
73010
14938
13861
12559
35414
16261
41947
12575
40228
16765
13590
14649
61953
17003
18981
30740
15811
17649
39761
12715
115346
44027
64800
16259
66451
123655
12478
28918
15315
13663
40428
12688
17909
17186
160213
47832
15858
13812
84323
20046
16243
15119
150701
46694
17707
14651
40048
14289
15522
29710
13209
23277
38135
15228
48164
20263
15562
30243
30648
18508
43821
13721
38962
15163
15272
29293
12628
39774
16226
14837
26397
14269
19260
29466
16073
18242
103549
48038
94334
37808
48650
17984
14764
20037
100470
16979
17710
12678
96053
73258
14170
64654
15931
13914
47177
15095
37508
17088
14368
54024
36323
13831
26651
16765
17318
16754
14017
53347
145088
14517
14043
24690
49762
13901
19225
15530
16080
17724
14711
20779
97663
33100
14946
15655
16418
16699
13956
19734
15309
19680
43332
16294
109231
17364
14675
18211
19850
32009
41066
18890
44651
19135
14610
17788
23121
23003
78345
32136
15228
47688
58728
60908
25752
34344
13625
33126
15170
80167
26902
12769
86781
70132
13946
51547
102388
23931
30921
33801
23360
85634
17161
59033
79990
19102
203817
29400
126941
84949
33300
27989
48280
42569
19393
39067
13904
25198
15576
16999
47811
15625
15195
25903
68425
16359
26904
13942
32281
20126
16839
45780
39028
23599
13816
21294
18979
14105
14188
26197
28509
28782
50651
51402
27405
24042
33221
32195
20321
43947
22483
23981
45007
23880
41918
29110
19966
28834
25385
26192
45790
15256
114638
16266
20369
65056
51150
18303
32344
15543
134411
21203
22802
19879
145273
71254
21898
35714
221526
18503
16703
13548
46934
124467
18301
15902
20168
15035
45176
56561
14973
16505
16708
35129
70570
55986
33036
80396
86400
50693
59209
42479
99313
25776
26589
17451
36274
23249
39391
23106
28466
17089
63969
28761
38030
29061
78101
80794
61837
91265
159780
55849
22534
37166
36328
34293
19340
49056
36832
18064
16713
19070
20965
18829
26401
34477
28953
62248
155137
191685
22462
20058
140861
33838
19988
25191
17685
17704
19672
28225
22616
22553
22244
22366
25454
22184
27716
22471
21342
22274
21271
19858
36630
43259
135615
27705
97748
30431
49527
26078
47457
88306
17157
30809
16979
27434
30871
26180
36370
24498
22569
26196
22528
23345
22163
45524
23851
216318
19999
21022
23843
32958
35864
23725
41181
22646
23435
33999
21639
34052
24668
26560
21696
33555
27362
27946
20565
24745
29406
21987
23874
26108
29728
28720
25331
14767
14673
105663
14640
14542
70354
40142
49626
80623
160663
33887
14771
45257
39382
19500
15699
14462
13865
18711
13500
242648
13013
13778
81586
65913
55024
14263
74130
233838
165200
12207
83798
13650
44628
52485
14326
50027
187131
30434
161586
30194
81149
29133
30660
20115
16008
60321
35483
25748
29588
30217
105172
16340
107206
55113
113417
55417
88186
97227
76480
63321
67172
98269
128850
206952
49892
48800
125872
92153
62064
150629
147737
183608
11677
16698
153635
91206
107761
55753
332974
56680
51868
88880
229723
201063
78840
49476
21296
138897
133897
59134
25216
116012
126794
12406
17261
103654
89383
171381
96541
46134
61011
23845
113466
111165
179810
12275
19195
21908
43997
86671
86372
37807
97891
66328
76886
11972
16679
42022
111391
163219
12014
16605
49544
232760
71399
12144
16703
32538
107735
155129
164128
32162
208228
72936
21780
18941
92667
24259
19457
50807
20152
28552
22435
20529
20743
21792
20570
21576
21125
20350
26277
21244
21620
20000
25250
389859
16011
12174
15125
19513
18488
18598
18791
19474
19403
22768
20740
23571
20692
20311
23648
20147
19193
21307
19311
25573
18823
20290
18677
22769
15818
18775
13781
12345
15698
12686
12702
11932
12135
16649
12758
12013
16017
11906
12402
12486
12208
12633
12581
12945
12679
12711
17533
12656
12247
12329
12102
15832
12050
13493
17497
12093
12122
12193
12206
12609
11985
12341
12591
18319
12941
18170
12599
24915
12262
24832
13212
12749
14300
12221
12338
12191
