0.0886631
0.0649619
0.0704792
0.0726336
0.0738334
0.075277
0.0661706
0.0719809
0.0796584
0.0823912
0.0777055
0.0805158
0.0753278
0.0854209
0.0636026
0.0748386
0.0740567
0.0800883
0.0741379
0.0606267
0.0743188
0.0747497
0.0776312
0.0658674
0.0902943
0.0734388
0.0770674
0.0692001
0.071695
0.103075
0.0663971
0.0693905
0.0675276
0.081375
0.0770775
0.0653098
0.0739339
0.0775981
0.0706776
0.0772691
0.0772012
0.069721
0.0822992
0.0699961
0.0692774
0.0875538
0.0699601
0.0868903
0.0807201
0.0794932
0.0650928
0.0724295
0.091686
0.0959107
0.0792973
0.0666581
0.0799432
0.0705584
0.073529
0.062426
0.0633771
0.0610904
0.0717366
0.0629513
0.0766682
0.0673838
0.0613073
0.0710915
0.0759505
0.0761011
0.0797774
0.0756286
0.0807426
0.0846256
0.0787499
0.0861333
0.0958933
0.0998941
0.0816417
0.0824944
0.0900633
0.0900243
0.0738676
0.0719511
0.0912958
0.073396
0.076971
0.0852701
0.0717036
0.0807396
0.0705592
0.0683596
0.0864987
0.0868184
0.0891053
0.0826288
0.0752957
0.0657343
0.0800281
0.0688019
0.0806396
0.0759154
0.0968487
0.0942716
0.0680014
0.0894254
0.0868714
0.068506
0.0763678
0.066479
0.0649185
0.0838472
0.0688066
0.0618699
0.0839673
0.072122
0.0808794
0.0688521
0.0778153
0.519658
0.0675531
0.0757759
0.102263
0.0802866
0.0765531
0.0808522
0.0782112
0.0748849
0.0751546
0.0826017
0.0690423
0.0805082
0.0818681
0.0692825
0.0811701
0.078658
0.0718915
0.0682189
0.0713076
0.0696859
0.0673443
0.0670399
0.0595091
0.0881185
0.0869002
0.0674826
0.0849174
0.096745
0.088418
0.0872964
0.0797285
0.0915517
0.0732437
0.0821218
0.080706
0.0902233
0.0962631
0.0959388
0.0927457
0.104416
0.0876577
0.0851297
0.111234
0.103559
0.124535
0.130312
0.114138
0.109027
0.0918045
0.0980522
0.101033
0.0925892
0.0871364
0.0913063
0.0904961
0.0943402
0.109426
0.0967273
0.1091
0.0904845
0.0962846
0.105792
0.103963
0.112574
0.112471
0.0928417
0.104805
0.0973381
0.100678
0.0970603
0.089271
0.0850206
0.0809881
0.0885101
0.0870266
0.091202
0.073797
0.0839399
0.0801775
0.0933709
0.0842846
0.0851992
0.0879855
0.0941808
0.0919819
0.10106
0.104945
0.117187
0.112949
0.122848
0.113762
0.0822278
0.0836262
0.106273
0.106485
0.112068
0.119925
0.0997687
0.0945561
0.0708752
0.0682296
0.0665507
0.0705636
0.0695582
0.0724759
0.0739997
0.101175
0.0733019
0.0775365
0.0724346
0.064229
0.0631826
0.062581
0.0659017
0.0607124
0.071914
0.0606607
0.0726257
0.0704038
0.0758795
0.0698388
0.0588285
0.0588202
0.0735977
0.058096
0.0689555
0.0707845
0.0783206
0.0613324
0.0779997
0.0732075
0.0621066
0.0822109
0.0849161
0.0802786
0.0870952
0.0694669
0.071221
0.0682773
0.0694728
0.0686793
0.0725562
0.0707423
0.0735541
0.0730258
0.0746215
0.0788386
0.0701933
0.0778535
0.0680726
0.0775849
0.0736677
0.074887
0.0876504
0.0772571
0.0741228
0.0740812
0.0798662
0.0752523
0.0687606
0.0704268
0.0827052
0.0801045
0.0831852
0.0777949
0.0691713
0.0798423
0.0752529
0.0999595
0.0750928
0.0720891
0.0850953
0.0781889
0.0796029
0.103389
0.106786
0.0915467
0.0903995
0.0883779
0.0765
0.112457
0.0650546
0.0867947
0.0586409
0.0666301
0.0577794
0.0649528
0.0708497
0.0593244
0.0851569
0.0767483
0.0589746
0.0632342
0.0684167
0.0621273
0.070612
0.0602165
0.0577758
0.0653261
0.0636094
0.0601567
0.0637144
0.0598203
0.0676074
0.0628184
0.0705104
0.0589692
0.0601142
0.0654078
0.0698099
0.0580502
0.066213
0.068474
0.0806653
0.0622951
0.0738286
0.0686359
0.0722109
0.0668194
0.0727023
0.0671541
0.0661638
0.085169
0.0961514
0.0856224
0.092944
0.0809644
0.100715
0.0937083
0.100533
0.0855191
0.100597
0.0883956
0.0923904
0.0853728
0.110951
0.0996218
0.0966325
0.0907793
0.082411
0.0855847
0.0888258
0.0966237
0.100081
0.0865675
0.0829538
0.100012
0.114906
0.0796307
0.0872796
0.0842027
0.0726688
0.0866137
0.0998692
0.0949892
0.0859203
0.113903
0.0819015
0.0756979
0.0858177
0.082471
0.0931425
0.087087
0.0923883
0.120842
0.100745
0.063003
0.100752
0.0834526
0.10791
0.110138
0.102601
0.116322
0.106889
0.0943494
0.0976919
0.097648
0.104461
0.0983636
0.116845
0.114643
0.0972641
0.0908952
0.0930199
0.104025
0.0968018
0.0979014
0.0982499
0.104956
0.126729
0.109817
0.103658
0.108159
0.100642
0.105445
0.101553
0.109442
0.0919409
0.0979738
0.095622
0.0999216
0.0900685
0.105503
0.102596
0.1032
0.0875868
0.107867
0.143107
0.124092
0.131758
0.121246
0.135545
0.135296
0.121171
0.10838
0.121402
0.116258
0.146846
0.120806
0.116324
0.149323
0.140334
0.122955
0.092705
0.0908391
0.0861532
0.0987582
0.0939425
0.0997144
0.092984
0.0784284
0.0939753
0.0843577
0.0808192
0.0923489
0.0824656
0.0983416
0.0890606
0.0759331
0.0676885
0.0663058
0.0701333
0.0754931
0.0770248
0.071559
0.0761023
0.0955891
0.0867044
0.0743439
0.0701494
0.0818845
0.0779095
0.0764913
0.0838097
0.0812174
0.0711301
0.0814063
0.0771882
0.0846204
0.0630849
0.0768817
0.083031
0.0691742
0.0953653
0.092167
0.0791315
0.0788736
0.0800862
0.0850884
0.0803527
0.0814079
0.0585105
0.0749952
0.0850775
0.0883943
0.090666
0.0903007
0.0835288
0.1002
0.0658858
0.0652358
0.0790849
0.0758507
0.121214
0.067787
0.0690142
0.176805
0.0708923
0.0776453
0.0674503
0.078948
0.0790642
0.0604602
0.0763268
0.0765894
0.0796473
0.0661075
0.0754598
0.0843082
0.0623962
0.0720269
0.0819905
0.0803646
0.0795893
0.0740083
0.0826187
0.0705882
0.079788
0.0852447
0.073749
0.0699141
0.0778954
0.0710153
0.083874
0.0798079
0.0665488
0.0873669
0.0649277
0.0733107
0.0720058
0.0714957
0.0908666
0.066934
0.0822576
0.0690265
0.0659965
0.0742373
0.0719516
0.0679403
0.0761019
0.063736
0.0619852
0.0648021
0.0720186
0.0786986
0.0637642
0.0696288
0.0842001
0.0699661
0.0716468
0.0772147
0.0656294
0.0811708
0.0707077
0.0689271
0.068947
0.0698165
0.0695542
0.0684863
0.0790457
0.0742988
0.0744989
0.0843391
0.0742991
0.0665393
0.0884062
0.0642671
0.0789533
0.0671422
0.0637219
0.0781356
0.0797383
0.0701789
0.0821822
0.0738557
0.0785178
0.0686922
0.0735703
0.073164
0.0746298
0.0716553
0.0793568
0.0680853
0.0638564
0.0739831
0.0748671
0.0696352
0.0623911
0.0648302
0.0869472
0.075782
0.0720393
0.071663
0.078453
0.0722911
0.0847065
0.0672338
0.0780683
0.0661479
0.0788382
0.0726423
0.0672606
0.0850728
0.0690045
0.0696114
0.0722837
0.0693269
0.0712693
0.0737049
0.0811052
0.078875
0.0751258
0.0709795
0.0950147
0.0778872
0.0740809
0.0669277
0.0708499
0.080425
0.0859733
0.067767
0.0724897
0.070541
0.0812232
0.0746338
0.0864435
0.0645837
0.0686888
0.0818051
0.0651659
0.0659823
