0.0337658
0.0932957
0.0171331
0.0178149
0.0189182
0.0664783
0.0165232
0.0161568
0.0224117
0.0175016
0.0267131
0.136116
0.264366
0.0243262
0.0205069
0.0204571
0.0219134
0.0231676
0.046983
0.0580144
0.0359703
0.130151
0.0238143
0.0319937
0.0299281
0.0232116
0.0311425
0.088189
0.0229069
0.0511942
0.0247366
0.0273711
0.0572311
0.0278182
0.0589076
0.0266329
0.0224781
0.0258966
0.0272303
0.100004
0.0204166
0.0208649
0.610218
0.018116
0.0830148
0.0278075
0.0239638
0.024665
0.0254992
0.027983
0.024495
0.0762135
0.0198343
0.064747
0.094309
0.0601353
0.228723
0.0295705
0.0310448
0.0258903
0.0316738
0.0260517
0.0514805
0.0380277
0.0324987
0.0311896
0.12299
0.0264434
0.0988783
0.0212376
0.0238561
0.0700641
0.0362685
0.0902292
0.0374175
0.0985543
0.0330287
0.0542112
0.0331721
0.0273634
0.0299743
0.028076
0.0719767
0.165909
0.0315167
0.283226
0.0516895
0.0486658
0.0373751
0.140362
0.261423
0.108454
0.0364852
0.117037
0.0284299
0.0582814
0.0237868
0.0270549
0.0409473
0.0929
0.0312933
0.0300874
0.0270632
0.0636347
0.0544434
0.0317125
0.0218961
0.0595634
0.022172
0.0311636
0.0268212
0.0371403
0.0284239
0.047295
0.206934
0.0224506
0.0279274
0.0333051
0.0159075
0.0415531
0.019832
0.145144
0.0210209
0.0290544
0.0204752
0.0208343
0.0197122
0.140681
0.0199296
0.0211524
0.0525863
0.10861
0.0559767
0.0178161
0.0514027
0.0406263
0.0212687
0.0200693
0.0874944
0.05918
0.0745349
0.030318
0.0220044
0.0561987
0.11129
0.0897534
0.0267566
0.0241485
0.100366
0.0272354
0.063437
0.081965
0.112116
0.0260946
0.0578021
0.223306
0.0196752
0.0351773
0.0212993
0.0225964
0.020114
0.0215573
0.0469593
0.0211501
0.0646036
0.0292544
0.0233981
0.0278304
0.0239428
0.0279813
0.0221473
0.0487457
0.0248709
0.024623
0.0332217
0.02126
0.0225701
0.0430655
0.0315825
0.020438
0.0214844
0.02649
0.111482
0.0221918
0.0215444
0.023357
0.0833076
0.0353819
0.0477925
0.0252563
0.0224943
0.0240773
0.022634
0.0230567
0.0202408
0.0238345
0.02082
0.0210954
0.0241031
0.0190783
0.0209796
0.0190064
0.0210145
0.0238793
0.0161094
0.0160117
0.014094
0.0220729
0.0492981
0.0201744
0.0144302
0.0206696
0.026531
0.0208769
0.0148436
0.0135594
0.0192437
0.190065
0.0349184
0.0149917
0.0155686
0.0589478
0.054639
0.0172263
0.0835899
0.0188236
0.0331165
0.0289864
0.0219349
0.030061
0.0415552
0.0151436
0.0946724
0.0159316
0.0607575
0.0316162
0.0182595
0.0210833
0.0341636
0.0143095
0.0339987
0.0189819
0.0322586
0.0398989
0.0273462
0.0293246
0.0719534
0.0228852
0.105974
0.810327
0.0469021
0.203582
0.0314028
0.0232355
0.0220936
0.0469902
0.0241971
0.0279196
0.0394807
0.0381753
0.0292987
0.0342156
0.0361046
0.0342968
0.0309486
0.021985
0.0694279
0.0213364
0.0357469
0.0238924
0.0260952
0.0218546
0.0556599
0.0224231
0.0806943
0.025616
0.0196765
0.022437
0.0291911
0.0599561
0.133464
0.0275342
0.0279683
0.0217135
0.0219271
0.0235892
0.0944688
0.082574
0.0250566
0.021143
0.0507092
0.0231187
0.221941
0.0189192
0.0492736
0.0952491
0.032956
0.0578069
0.0918957
0.0180754
0.0200299
0.069875
0.032425
0.0263315
0.0173445
0.0520889
0.0434381
0.109085
0.027525
0.0372948
0.034785
0.0295171
0.0220262
0.0405057
0.0214928
0.0714159
0.0148553
0.0242028
0.0229209
0.0420971
0.0350306
0.110989
0.0157569
0.0259843
0.0324217
0.0330899
0.110736
0.147309
0.0253795
0.116646
0.0381806
0.0318974
0.0501046
0.0272191
0.0330592
0.0248784
0.0186955
0.0808916
0.120632
0.0263566
0.121404
0.0262054
0.0419389
0.0304466
0.0380677
0.0343957
0.0450822
0.0412478
0.0919216
0.037923
0.0413959
0.0296825
0.0286227
0.0289831
0.0419628
0.0386019
0.0255478
0.0164261
0.0158586
0.0337972
0.0283348
0.0272113
0.0316007
0.0219222
0.020801
0.0199986
0.0196195
0.018547
0.02536
0.0226983
0.0219499
0.0409394
0.144093
0.0233852
0.0271782
0.0911932
0.0154684
0.106414
0.0175945
0.0250047
0.0224642
0.0178304
0.0203757
0.0169922
0.0177231
0.0177119
0.0172238
0.0150242
0.137326
0.0268816
0.0212476
0.0214904
0.0921412
0.014578
0.0260869
0.0318025
0.0180904
0.016398
0.0444464
0.0256584
0.0327065
0.0241663
0.140447
0.203153
0.0116794
0.0487675
0.0187201
0.023302
0.0141716
0.0592821
0.0204274
0.0324797
0.0188881
0.0581335
0.0427096
0.0150358
0.0494344
0.0882367
0.201791
0.0161189
0.125004
0.0344572
0.0181615
0.0927467
0.206687
0.0192326
0.0248606
0.0586626
0.177001
0.0204142
0.0200734
0.0601254
0.0390974
0.0232972
0.0481835
0.0238435
0.0230283
0.0280774
0.022709
0.0232299
0.143529
0.0370694
0.0374424
0.0203939
0.0214715
0.0213047
0.0213481
0.0239012
0.0178094
0.0219501
0.0233463
0.048749
0.0728407
0.0330991
0.0526611
0.0233833
0.0279502
0.0491086
0.0358571
0.0200242
0.0349138
0.0216598
0.0279763
0.0965347
0.0989106
0.0338357
0.0323368
0.0645791
0.0486253
0.0462074
0.0627097
0.0721994
0.0208618
0.0435923
0.0194005
0.0378996
0.0208375
0.0973029
0.102493
0.0395353
0.0360284
0.0187241
0.0194647
0.0146884
0.068885
0.0619376
0.0874005
0.0395234
0.0497998
0.0873513
0.0504042
0.0434032
0.0221123
0.0404267
0.0354794
0.0626941
0.127233
0.0338441
0.0159126
0.145381
0.015143
0.020411
0.0842757
0.0196323
0.0958755
0.0368702
0.021989
0.0340296
0.0425696
0.0243756
0.0268139
0.0228777
0.0658413
0.0209295
0.0199945
0.0177154
0.0160826
0.14255
0.195643
0.0570888
0.0760419
0.0198165
0.0208439
0.0299693
0.0456698
0.0194708
0.0617246
0.0206821
0.0220566
0.0208015
0.0206352
0.0161269
0.0186533
0.0616504
0.0895704
0.0193217
0.0374201
0.0315902
0.0228697
0.0453035
0.0226157
0.0146301
0.0192018
0.0181303
0.0277592
0.0272629
0.0226948
0.0538381
0.0238659
0.0205063
0.0218273
0.0776596
0.0208183
0.0229303
0.0459773
0.0234416
0.0221273
0.0198093
0.039426
0.0284681
0.0811406
0.0219385
0.023317
0.0640355
0.0357568
0.0222706
0.0231937
0.0247684
0.0371796
0.0282671
0.026526
0.0183382
0.018531
0.0226844
0.0255972
0.0975004
0.0289939
0.0730487
0.0353736
0.0208912
0.0424099
0.0908451
0.0383601
0.0513529
0.0314035
0.0209504
0.037637
0.0308157
0.0265411
0.0384216
0.033721
0.0465937
0.0385574
0.154625
0.019555
0.108625
0.066513
0.0705227
0.111146
0.0260228
0.0289194
0.0277196
0.0260498
0.0842616
0.705676
0.0313653
0.0539851
0.0801499
0.0605023
0.0928261
0.0515388
0.0523815
0.0265731
0.0463395
0.0638765
0.0243561
0.0228464
0.0235074
0.0176631
0.0181387
0.0191017
0.0388854
0.0223463
0.0367001
0.0230665
0.0250323
0.0183802
0.0236111
0.0209371
0.0318828
0.0182683
0.250395
0.0277423
0.0229642
0.0258738
0.030002
0.0262549
0.189971
0.0315655
0.0164574
0.0307668
0.0315814
0.0232728
0.0416176
0.0440499
0.0223826
0.0460106
0.0920595
0.017663
0.0251889
0.0433971
0.0144303
0.0401404
0.0673104
0.0794422
0.0719766
0.0386346
0.014753
0.0173073
0.0138161
0.170295
0.0630645
0.105971
0.0131571
0.0130712
0.0132136
0.0378163
0.0373277
0.0297159
0.0130396
0.0133541
0.0132433
0.040548
0.0265775
0.0236831
0.0120597
0.0158715
0.0142192
0.0267576
0.0280041
0.0895176
0.0117428
0.0129603
0.0192515
0.0151256
0.0451564
0.0274453
0.0124909
0.0138058
0.0130934
0.0258156
0.0946529
0.0267163
0.0123531
0.0151801
0.0139044
0.0632369
0.0499682
0.0403963
0.0170113
0.0145143
0.013347
0.0716907
0.019102
0.0360035
0.0136667
0.0121066
0.0150965
0.0359788
0.0210344
0.0328714
0.0288957
0.0280257
0.0382061
0.0340795
0.0279
0.0933006
0.0280708
0.0255468
0.0213792
0.0270939
0.0223967
0.0217471
0.0237062
0.0310876
0.0278039
0.0601086
0.0134566
0.0139107
0.0166968
0.0228576
0.0181693
0.0598005
0.0293932
0.0147486
0.0201423
0.0241933
0.0425592
0.039732
0.048667
0.0608956
0.0344679
0.0246683
0.0900745
0.0238877
0.0561948
0.0925916
0.0222819
0.0756424
0.0157934
0.0211622
0.0939303
0.0229294
0.0198697
0.0535673
0.0204054
0.0221041
0.0486933
0.0595662
0.0213788
0.104362
0.0311236
0.0811278
0.044716
0.0397065
0.0348562
0.0302264
0.104663
0.0663959
0.0264906
0.0877809
0.0463061
0.0464833
0.0442369
0.074458
0.016078
0.0304708
0.043421
0.0165715
0.110592
0.245475
0.0421062
0.0452763
0.0206309
0.0202101
0.0199105
0.0210508
0.0185109
0.0232556
0.108689
0.0270953
0.144045
0.126162
0.136906
0.0583815
0.0504052
0.0484464
0.021808
0.0221977
0.0732833
0.0305078
0.0395565
0.276619
0.0214198
0.0530342
0.0196536
0.0205463
0.0278556
0.0240214
0.263797
0.0331101
0.0209614
0.0324804
0.0295825
0.0291507
0.023113
0.0217266
0.0245057
0.0245441
0.0318457
0.0698647
0.0238103
0.0224606
0.023318
0.0332022
0.0430956
0.0867765
0.170027
0.0958423
0.0447766
0.0585393
0.0204575
0.020213
0.019577
0.0750375
0.059673
0.0223113
0.0339353
0.0215716
0.0322901
0.0210819
0.0211564
0.0224566
0.373309
0.0673383
0.0587521
0.025436
0.0803869
0.015933
0.0859957
0.156208
0.0403526
0.046866
0.0370886
0.0398136
0.018574
0.0376159
0.0559914
0.149063
0.0258057
0.0262706
0.0322279
0.0204128
0.208227
0.0465047
0.0244337
0.0185107
0.134321
0.0372903
0.113375
0.017909
0.0456539
0.0287702
0.0204583
0.149648
0.228563
0.0279417
0.0170848
0.0305509
0.0211639
0.0240691
0.0346847
0.0199839
0.0820242
0.0557708
0.0341545
0.0511161
0.0266001
0.0302347
0.0402969
0.0309653
0.0562988
0.052092
0.0261032
0.0775204
0.0287877
0.0193088
0.0209745
0.024836
0.021113
0.0308536
0.0208499
0.0228532
0.0880517
0.0320411
0.0287335
0.024123
0.0268036
0.0390865
0.039147
0.068147
0.0157798
0.0394783
0.0365337
0.0233212
0.0250813
0.0237369
0.0239725
0.0272051
0.0205686
0.0194687
0.021153
0.0219894
0.0242517
0.0336203
0.0197194
0.0204658
0.024746
0.0429767
0.0356045
0.0228858
0.0223289
0.0232642
0.02596
0.0249497
0.0257597
0.0295534
0.0418439
0.0210978
0.0191708
0.0891603
0.0273343
0.0424938
0.0261313
0.0286863
0.278302
0.039605
0.0230896
0.0121587
0.115584
0.0169376
0.063469
0.163568
0.0250585
0.0130394
0.0408202
0.043654
0.022277
0.0135508
0.0260186
0.126921
0.0290574
0.121797
0.0416029
0.0194162
0.0259196
0.0194233
0.0205005
0.0196598
0.0249818
0.040882
0.0193466
0.0566131
0.0229262
0.0224684
0.0249839
0.022676
0.0903218
0.021064
0.0348815
0.0253803
0.0208596
0.0213092
0.021967
0.0221113
0.0217033
0.0194576
0.0191916
0.019381
0.100716
0.0222659
0.0217214
0.0209343
0.0247209
0.0211806
0.0196637
0.0229771
0.0899309
0.0354054
0.104369
0.0870344
0.0209746
0.0143373
0.0161458
0.0181155
0.0163183
0.0688836
0.148004
0.0159245
0.0194355
0.017329
0.0170658
0.0165123
0.019919
0.0186408
0.0187204
0.0153968
0.0458287
0.0900572
0.0221259
0.0215916
0.0206007
0.0379734
0.0203616
0.055576
0.0137301
0.0161049
0.0152943
0.169285
0.0230765
0.0417768
0.0163681
0.0305275
0.0366849
0.0212023
0.0348536
0.124218
0.0204784
0.0163916
0.0216893
0.0164927
0.0206052
0.0160561
0.0298214
0.0229948
0.0212539
0.0152828
0.0210161
0.0161408
0.0290845
0.0155143
0.0221981
0.0220448
0.017659
0.0165727
0.0965053
0.0641207
0.0973382
0.210071
0.247404
0.120389
0.0162663
0.319124
0.1011
0.0142448
0.016043
0.0162393
0.0153446
0.0148069
0.0141825
0.0146785
0.0311136
0.0170729
0.0259016
0.0166709
0.0205381
0.0144009
0.0211298
0.0229519
0.0162874
0.0398473
0.016091
0.0333395
0.0141573
0.0186595
0.0158381
0.0170668
0.0206182
0.015204
0.0146276
0.0158599
0.0149508
0.0146457
0.0156424
0.0142939
0.0386249
0.0154798
0.0292963
0.021363
0.0182535
0.030304
0.024994
0.0247595
0.0152321
0.0295412
0.0149163
0.0214053
0.0145654
0.020005
0.031853
0.0212734
0.0386494
0.0241993
0.0219144
0.0155712
0.0291805
0.0156773
0.0414787
0.0161033
0.0283952
0.0158216
0.0566006
0.0321886
0.0153353
0.0205285
0.0146828
0.0277051
