0.0729156
0.0758989
0.0683592
0.0733526
0.0682687
0.0632764
0.0721845
0.0722767
0.065586
0.0727087
0.074461
0.0650474
0.0770348
0.0700079
0.0753897
0.0686172
0.0699238
0.0738192
0.0413072
0.0767865
0.0838305
0.0744976
0.0699769
0.0699142
0.0713681
0.0674136
0.0771564
0.0820742
0.0786309
0.0713883
0.0724513
0.0660232
0.073583
0.0648826
0.0708019
0.0745816
0.0810078
0.0884874
0.0702656
0.0688768
0.0831676
0.0764124
0.0679702
0.0827414
0.0728188
0.0756421
0.0707646
0.0871065
0.0697463
0.0993601
0.0838868
0.0746923
0.0842278
0.0728895
0.0806229
0.0675439
0.0770235
0.0896889
0.0854511
0.0720071
0.0621066
0.0719057
0.0728316
0.0686225
0.0695794
0.0604451
0.0657321
0.0775543
0.072435
0.0725005
0.072048
0.0684641
0.0835726
0.0719304
0.0748537
0.0681137
0.0851943
0.0957276
0.0875154
0.0753459
0.0712831
0.0849542
0.0857821
0.0760296
0.0762144
0.0887712
0.0669699
0.0778048
0.0738525
0.0830826
0.0705735
0.0915124
0.0723882
0.0723325
0.08316
0.0923808
0.0608772
0.0728957
0.0747078
0.0862362
0.0897281
0.0776882
0.0961454
0.0820803
0.0775145
0.260673
0.0933403
0.0752032
0.128095
0.0717939
0.0808429
0.0885872
0.0793261
0.0701828
0.0704111
0.0923491
0.0759588
0.0865568
0.0596736
0.0733921
0.0836433
0.0621418
0.0853019
0.0966446
0.0716685
0.0831226
0.0881011
0.0738993
0.0757069
0.0740316
0.0655338
0.0801415
0.0821138
0.0651633
0.0767867
0.0681047
0.0778712
0.069355
0.0616051
0.0776056
0.0604453
0.0602349
0.0659178
0.0633823
0.0832061
0.0706355
0.0717688
0.0675289
0.0662973
0.059668
0.076339
0.0893421
0.088434
0.0609735
0.0664689
0.0676483
0.067497
0.0664287
0.108675
0.0674587
0.0582728
0.0791586
0.0794711
0.059127
0.0761557
0.0673289
0.0849432
0.0643145
0.060569
0.078303
0.084361
0.0643901
0.0786329
0.062975
0.079202
0.0835261
0.0646964
0.0668364
0.0705055
0.0638628
0.0736007
0.0642952
0.093701
0.087448
0.0925469
0.0711317
0.0662163
0.0647533
0.0776902
0.078369
0.094318
0.0669264
0.0646844
0.0673078
0.0646033
0.0714704
0.0653106
0.058675
0.0627709
0.0591796
0.0639762
0.0599653
0.0692342
0.0605887
0.0664627
0.0671193
0.0618476
0.0613957
0.0689556
0.0598175
0.0770363
0.0664031
0.0659794
0.0582223
0.0635053
0.0659912
0.0682652
0.0660312
0.0661448
0.06316
0.0606464
0.0709505
0.0669013
0.0598807
0.0679017
0.0676657
0.0720379
0.065757
0.0606954
0.0718538
0.0644885
0.0768376
0.0629733
0.0617045
0.0816209
0.0727831
0.0646425
0.0746557
0.0687902
0.0598748
0.0605603
0.0666525
0.0679165
0.074977
0.0643491
0.0612759
0.0669332
0.0592098
0.0593996
0.0667147
0.0597229
0.0613643
0.0640085
0.0646258
0.0711793
0.0651581
0.0646721
0.0621661
0.0597122
0.0759182
0.0624027
0.0603337
0.0697442
0.0770432
0.0615125
0.0657568
0.0728801
0.0662909
0.0627351
0.0656273
0.0601559
0.0650496
0.0627691
0.0661536
0.0688361
0.0708967
0.0671429
0.0594515
0.0696886
0.0644973
0.060684
0.0589605
0.0682812
0.0602144
0.0602221
0.0670528
0.062409
0.065762
0.0618911
0.0611088
0.060612
0.0652787
0.0583375
0.0608065
0.0658425
0.0671716
0.0603128
0.0649104
0.0668398
0.0647372
0.0598115
0.0628635
0.0720229
0.0648361
0.0610916
0.0683937
0.0654935
0.0621753
0.066786
0.0601149
0.076419
0.0699881
0.0677275
0.0602611
0.0596494
0.0631308
0.0653106
0.0651158
0.066625
0.0607566
0.0653906
0.0670358
0.058326
0.0599549
0.0728366
0.0698311
0.0745268
0.0651641
0.0605864
0.0630962
0.0652216
0.069502
0.0727409
0.0647643
0.0630132
0.0644206
0.0598018
0.0734306
0.0790621
0.060815
0.0667242
0.0617676
0.0593025
0.0630879
0.0617159
0.0674049
0.0712589
0.064144
0.0588031
0.0613147
0.0711001
0.0718814
0.0659676
0.0731283
0.0651668
0.0959259
0.0717166
0.063184
0.0638719
0.063113
0.0787003
0.0584355
0.0608226
0.0693214
0.0732891
0.0688095
0.0605098
0.0710878
0.0614553
0.0681811
0.071593
0.0674893
0.0746476
0.0592289
0.0635831
0.0721723
0.0610615
0.084006
0.0621536
0.060105
0.0721316
0.0696509
0.0614125
0.0654013
0.0632785
0.0656107
0.0652022
0.0616051
0.0598801
0.0607459
0.0656118
0.0719147
0.0647588
0.0757913
0.0607387
0.0649843
0.0671955
0.0600485
0.0630483
0.0650295
0.0621214
0.0660072
0.0653892
0.0625917
0.063884
0.0662224
0.0607773
0.0632188
0.0635101
0.0612382
0.0637483
0.0651561
0.0589238
0.0634578
0.0583575
0.0716334
0.0629896
0.0576426
0.0566062
0.0568433
0.0579193
0.0648845
0.0593028
0.0593536
0.0629861
0.0738466
0.0646938
0.0681976
0.0618642
0.0584778
0.0767202
0.0566319
0.0778578
0.0805209
0.0596046
0.0671525
0.0572795
0.07081
0.0598975
0.0655997
0.0645517
0.0672391
0.0597179
0.06569
0.0645977
0.0691947
0.0648876
0.0597458
0.0674568
0.0620094
0.0643959
0.0750053
0.066326
0.0742156
0.0762771
0.0671838
0.0635921
0.069223
0.0722806
0.06724
0.0732041
0.070611
0.0793754
0.0627695
0.0752263
0.0642742
0.0710223
0.0626734
0.0654123
0.0675186
0.0774102
0.0746031
0.0722951
0.0737551
0.0694539
0.0508098
0.0722401
0.0708395
0.0782918
0.075677
0.0661292
0.0641053
0.0662337
0.07208
0.0715507
0.0645452
0.0728909
0.0660832
0.0623205
0.0636897
0.0671109
0.0664656
0.0660905
0.0634792
0.0684248
0.0786856
0.0909223
0.0755924
0.0662339
0.0706024
0.0719972
0.0693973
0.0707114
0.0740829
0.0681937
0.0719524
0.0730799
0.0715284
0.0727439
0.0670932
0.0683534
0.0841536
0.0693627
0.0692385
0.0682791
0.0746771
0.0682379
0.0735843
0.0841419
0.0706172
0.069475
0.0688503
0.0779482
0.0673259
0.0665215
0.0658355
0.071442
0.0698255
0.0640378
0.0686738
0.0730358
0.072194
0.0658545
0.0738023
0.0672188
0.0660571
0.050059
0.0687122
0.0612796
0.080264
0.0788358
0.080278
0.0644228
0.0683955
0.0757386
0.0631515
0.0658961
0.0719023
0.0670443
0.0624563
0.063162
0.0680875
0.064049
0.065232
0.0648756
0.0701799
0.0774435
0.0737928
0.0723573
0.0505359
0.0684253
0.0673382
0.0694055
0.0684798
0.0761744
0.0678061
0.0697251
0.0716858
0.0699815
0.0778966
0.0680188
0.073339
0.0718849
0.0636244
0.0637832
0.081007
0.0619957
0.0668548
0.0650317
0.0680895
0.0725321
0.0652246
0.06199
0.0649523
0.068143
0.074641
0.0633234
0.0619398
0.0613193
0.0702146
0.0625201
0.0672009
0.0652226
0.0663209
0.0624526
0.0700682
0.0661946
0.0669535
0.0817747
0.0672703
0.0719804
0.0698206
0.0671995
0.0716003
0.0690092
0.0635738
0.066388
0.0636432
0.0869498
0.0635596
0.0684148
0.0669908
0.0753379
0.0684645
0.0690352
0.0658283
0.0603342
0.0631695
0.0673447
0.0629138
0.0617639
0.0623546
0.0672199
0.0775423
0.0538592
0.0667354
0.077542
0.0616804
0.063506
0.0753954
0.0677228
0.0723328
0.0731459
0.0760846
0.0580895
0.073431
0.0677144
0.0651443
0.0753824
0.0732274
0.0643005
0.0611404
0.0872689
0.0673868
0.0659987
0.0619414
0.0763502
0.068667
0.0622966
0.0686261
0.0758483
0.0705725
0.0705671
0.062294
0.0791674
0.0693901
0.060411
0.0803072
0.072094
0.0725006
0.0710324
0.0667335
0.0697129
0.0644358
0.0735927
0.0661136
0.0788729
0.0661929
0.0703093
0.0662286
0.0653134
0.0876235
0.0698075
0.0697657
0.0621326
0.0645008
0.0675161
0.0692527
0.0726241
0.0662483
0.0707745
0.0624861
0.0550301
0.0652143
0.0642567
0.0731985
0.0637077
0.0660516
0.0673604
0.0728967
0.0751936
0.0712623
0.0621242
0.0739505
0.0608016
0.0641048
0.0690678
0.062042
0.0764764
0.0658662
0.0700311
0.0631548
0.0644647
0.0744832
0.0644941
0.0712837
0.0696558
0.0650729
0.0826675
0.0713659
0.0728443
0.0685523
0.071445
0.0644258
0.0650131
0.0655296
0.0652319
0.076797
0.0648328
0.0771276
0.0629542
0.0690915
0.0652732
0.071041
0.0669629
0.0644143
0.0696201
0.0738794
0.0734499
0.0654844
0.0626725
0.0699112
0.0589033
0.0722851
0.0661637
0.0736968
0.0724572
0.0812214
0.066148
0.0629718
0.0639844
0.0782292
0.0655767
0.0702363
0.0758849
0.0604457
0.0650805
0.0718707
0.0681184
0.0616102
0.06677
0.0678165
0.0650774
0.0591418
0.0631784
0.0703021
0.0623589
0.0613357
0.0615457
0.0584041
0.0725095
0.0714361
0.0617569
0.0797814
0.0653481
0.0629212
0.0624862
0.0746582
0.0610735
0.0600651
0.0770557
0.0657342
0.0645995
0.0643988
0.0652594
0.062225
0.0650147
0.0768716
0.0630955
0.0723252
0.0710468
0.0593828
0.0711847
0.0648392
0.0639755
0.0610071
0.0657437
0.0696957
0.0648096
0.0691929
0.0606133
0.061986
0.0705715
0.0689085
0.0658505
0.0629146
0.0679865
0.0636192
0.0613959
0.0709985
0.0697094
0.0633749
0.0918797
0.063945
0.0632884
0.0658668
0.0650621
0.064834
0.0638021
0.0673719
0.0734416
0.0707223
0.0679328
0.0615384
0.0722927
0.0796962
0.0642636
0.0700875
0.0683287
0.0813322
0.0636271
0.0667829
0.0640587
0.0920207
0.0658983
0.0765589
0.066714
0.071218
0.0690616
0.0649557
0.063422
0.0754623
0.0652215
0.0910868
0.0735107
0.0622764
0.0734875
0.0689287
0.0668136
0.0747841
0.0721118
0.0688461
0.0634219
0.0709263
0.0614002
0.0692138
0.0699301
0.0701775
0.0658371
0.0632763
0.0673523
0.0725729
0.0639568
0.0702519
0.0685891
0.065387
0.0717259
0.0632597
0.0681922
0.0698078
0.0723368
0.0674611
0.0674853
0.072361
0.0649397
0.0728228
0.0816744
0.0610608
0.0611043
0.0631234
0.0633104
0.0613094
0.0688455
0.0670725
0.0651036
0.069989
0.0666404
0.0705324
0.063034
0.0653801
0.0642119
0.0642435
0.060135
0.0686341
0.0684043
0.0589861
0.065822
0.0675168
0.0579567
0.0690983
0.061264
0.0606862
0.0660679
0.0618195
0.0626764
0.0664273
0.0660156
0.079447
0.0621054
0.0705708
0.057896
0.0609826
0.0609785
0.0649918
0.0678924
0.060975
0.0648584
0.0623008
0.0656512
0.070364
0.0645361
0.0801091
0.0706266
0.068057
0.0647868
0.0648904
0.0653479
0.0678385
0.0671441
0.071118
0.0776948
0.0669386
0.0682756
0.0566021
0.0779099
0.0650942
0.064551
0.0650371
0.0709608
0.0732873
0.0831672
0.0645607
0.0596655
0.0713939
0.0624022
0.0606343
0.0630337
0.0681499
0.0647885
0.0714037
0.0623328
0.0646866
0.0652059
0.0598596
0.0628927
0.0701633
0.0555609
0.0639756
0.0631714
0.0676434
0.0826364
