-0.000608035;0.00368409
-0.000612014;0.00368442
-0.00061244;0.00368439
-0.000600677;0.00334446
-0.000594054;0.00295614
-0.000611247;0.00249021
-0.000578952;0.00157931
-0.000568025;0.00112667
-0.000559701;0.000710096
-0.000555266;-8.49599e-05
-0.000552251;-0.000453895
-0.000543883;-0.000791387
-0.000543762;-0.00141489
-0.000545862;-0.00170973
-0.000544976;-0.0019537
-0.000543035;-0.00246145
-0.000545533;-0.00268714
-0.000557151;-0.00308601
-0.000556156;-0.00327012
-0.000559082;-0.00347018
-0.000563543;-0.00381426
-0.000555888;-0.00395862
-0.000564456;-0.00410606
-0.000570408;-0.00434642
-0.000576336;-0.00448233
-0.000591003;-0.00470588
-0.000595196;-0.0048028
-0.000600672;-0.00489516
-0.000611609;-0.00504993
-0.0006092;-0.00508787
-0.000605765;-0.00509828
-0.000606627;-0.00514673
-0.000611775;-0.00522615
-0.00061263;-0.00525169
-0.000629814;-0.00545089
-0.000637149;-0.00553823
-0.000648485;-0.00563927
-0.000654762;-0.00568657
-0.000664547;-0.00579678
-0.00066968;-0.00580705
-0.00066968;-0.00580705
-0.000679855;-0.00581959
-0.000689025;-0.00586904
-0.000684628;-0.00586861
-0.000676506;-0.00584944
-0.000672076;-0.00584341
-0.000671561;-0.00583322
-0.000667463;-0.00579898
-0.000664798;-0.0057906
-0.000667341;-0.00577711
-0.000667387;-0.00577818
-0.000665064;-0.00578556
-0.00065286;-0.00573612
-0.000655179;-0.00573809
-0.000666129;-0.0057904
-0.000684878;-0.00587536
-0.000741874;-0.00612803
-0.000741874;-0.00612803
-0.000797588;-0.00632785
-0.000826416;-0.00643262
-0.000844732;-0.00649285
-0.000841195;-0.00653957
-0.000835351;-0.00653356
-0.000822625;-0.00649304
-0.000769871;-0.00631838
-0.000741745;-0.0062158
-0.000712546;-0.00611119
-0.000574804;-0.00568045
-0.000469843;-0.00536636
-0.000365303;-0.00503228
-0.000213787;-0.00462172
0.000107454;-0.00373276
0.000317347;-0.00318291
0.000524396;-0.00263023
0.0010097;-0.0013891
0.00128674;-0.000688483
0.00161322;9.94819e-05
0.00227503;0.00165378
0.00262433;0.00246593
0.00303493;0.00339181
0.00389928;0.00529334
0.00433265;0.00623589
0.00480012;0.00722002
0.00584044;0.00934819
0.00642738;0.0105105
0.00701731;0.0116441
0.00824698;0.0139968
0.00893666;0.0152508
0.00966848;0.0165713
0.0111543;0.0191845
0.0119429;0.0205417
0.0128146;0.0219831
0.0147152;0.0249965
0.0165858;0.0279478
0.019573;0.0324943
0.0206178;0.034006
0.0230629;0.0374819
0.0258504;0.0413418
0.0258504;0.0413418
0.0287609;0.0451674
0.0302897;0.0471106
0.0323949;0.04975
0.036772;0.0551031
0.0388142;0.0575466
0.0406707;0.0597378
0.0458984;0.0657022
0.0485892;0.068717
0.0527761;0.0732672
0.0547786;0.0753939
0.0575033;0.0781863
0.0630052;0.0840153
0.0655373;0.0865942
0.0677792;0.08878
0.0738336;0.0946433
0.0769534;0.0975637
0.0818899;0.102072
0.0841772;0.104105
0.0871746;0.106755
0.0901713;0.109359
0.095638;0.113989
0.098218;0.116109
0.101603;0.118866
0.108293;0.124263
0.111321;0.126639
0.114032;0.128727
0.117546;0.131384
0.124448;0.136508
0.12758;0.138767
0.130479;0.140834
0.137686;0.14588
0.141194;0.148291
0.147833;0.152778
0.150986;0.154851
0.157229;0.15887
0.160367;0.160843
0.163465;0.162776
0.169677;0.166551
0.173124;0.168602
0.17657;0.170632
0.176724;0.170691
0.178798;0.171959
0.182402;0.174028
0.189965;0.178308
0.193736;0.18039
0.197321;0.182354
0.20533;0.186637
0.209212;0.188677
0.21688;0.192635
0.220575;0.19451
0.223167;0.195797
0.227334;0.197834
0.229182;0.198729
0.232385;0.200263
0.232925;0.200513
0.233004;0.200547
0.233041;0.200561
0.233017;0.200542
0.232098;0.20011
0.229735;0.199062
0.22859;0.198575
0.226664;0.197757
0.224924;0.197029
0.223082;0.19627
0.219646;0.194883
0.218122;0.194273
0.215736;0.193332
0.215007;0.193055
0.215036;0.193065
0.215738;0.193323
0.216154;0.193473
0.216758;0.193734
0.216982;0.193816
0.217105;0.193859
0.217323;0.193931
0.217412;0.193963
0.217516;0.193995
0.217784;0.194079
0.217943;0.194126
0.218115;0.194174
0.218488;0.194285
0.218672;0.194339
0.218868;0.194393
0.21906;0.194447
0.219457;0.194556
0.219657;0.194614
0.219874;0.19467
0.220089;0.194725
0.220544;0.194839
0.220775;0.19489
0.221006;0.194944
0.221517;0.195057
0.221788;0.195118
0.222077;0.19517
0.222354;0.195227
0.222937;0.195353
0.223255;0.195414
0.223572;0.195476
0.22424;0.195593
0.224595;0.195655
0.22498;0.195718
0.225382;0.195785
0.226217;0.195908
0.226668;0.195969
0.227149;0.196037
0.228175;0.196171
0.228736;0.196241
0.229915;0.196375
0.230544;0.196443
0.231231;0.196512
0.232016;0.196585
0.23365;0.196712
0.234569;0.196775
0.2356;0.196842
0.237996;0.196956
0.239338;0.197009
0.24265;0.197106
0.24468;0.197122
0.248628;0.197103
0.257766;0.196839
0.262325;0.196603
0.266881;0.196282
0.271447;0.195889
0.280623;0.194882
0.285255;0.194284
0.290091;0.193615
0.299999;0.192238
0.304925;0.19155
0.309785;0.19087
0.319356;0.189545
0.324134;0.18895
0.328838;0.188402
0.338217;0.187458
0.34289;0.18705
0.347571;0.186682
0.356949;0.186101
0.361651;0.185874
0.366355;0.1857
0.375776;0.185504
0.380495;0.185472
0.38521;0.185482
0.394659;0.185636
0.399394;0.185782
0.404121;0.185965
0.413588;0.186463
0.418318;0.186781
0.42777;0.187547
0.432486;0.187984
0.437222;0.188467
0.446678;0.189545
0.451396;0.190134
0.460846;0.19144
0.465543;0.192169
0.47027;0.192924
0.474983;0.193722
0.484395;0.195416
0.489095;0.196315
0.498483;0.198212
0.503168;0.19922
0.507846;0.200238
0.517199;0.20242
0.521855;0.203552
0.531174;0.205922
0.535832;0.207139
0.540481;0.208394
0.545128;0.209693
0.554387;0.212353
0.55901;0.213727
0.568236;0.216557
0.57283;0.218009
0.577423;0.219498
0.58659;0.222561
0.591159;0.224135
0.595721;0.225722
0.604825;0.228992
0.609361;0.230659
0.613902;0.232357
0.622957;0.23582
0.627466;0.237585
0.631982;0.239389
0.640984;0.243052
0.645474;0.244917
0.649968;0.246793
0.6589;0.250623
0.663358;0.252564
0.672248;0.256519
0.67669;0.258521
0.681131;0.260544
0.689964;0.264642
0.694368;0.266709
0.698783;0.268817
0.707581;0.273077
0.711964;0.275225
0.716349;0.277397
0.725063;0.281788
0.729434;0.283991
0.73379;0.286227
0.738153;0.288476
0.746812;0.293027
0.751132;0.295322
0.755465;0.297625
0.764075;0.30229
0.768375;0.304649
0.776945;0.30942
0.78123;0.31182
0.785524;0.314237
0.794052;0.319101
0.798308;0.321564
0.802539;0.32405
0.811026;0.329015
0.815276;0.331526
0.819504;0.334027
0.827953;0.339072
0.83218;0.341617
0.836388;0.344167
0.844811;0.349304
0.849016;0.351888
0.853209;0.354478
0.861584;0.359701
0.865766;0.362314
0.874111;0.367588
0.878282;0.37025
0.882445;0.372904
0.890727;0.378246
0.89488;0.380935
0.899014;0.383624
0.903169;0.386316
0.911436;0.391737
0.915571;0.394456
0.919692;0.397185
0.927914;0.402668
0.932013;0.405426
0.936126;0.408177
0.944319;0.413708
0.948436;0.416487
0.952538;0.419278
0.95663;0.422066
0.964819;0.427662
0.968913;0.430452
0.973009;0.433266
0.981162;0.438891
0.985235;0.441701
0.993402;0.447342
0.997481;0.450163
1.00157;0.452993
1.00974;0.458686
1.01374;0.461463
1.01731;0.463959
1.02384;0.468488
1.0268;0.470581
1.02861;0.471853
1.02988;0.472751
1.03218;0.474381
1.03311;0.475026
1.03309;0.47501
1.03279;0.474794
1.03243;0.474545
1.03177;0.474076
1.03074;0.473321
1.02957;0.472488
1.02844;0.471689
1.02642;0.470239
1.02482;0.469031
1.02139;0.466564
1.01979;0.465423
1.01846;0.464488
1.01657;0.46315
1.01262;0.460321
1.01079;0.459003
1.00832;0.457229
1.00736;0.456539
1.00714;0.456378
1.00739;0.456566
1.00765;0.456747
1.00785;0.456893
1.00821;0.457158
1.00831;0.457231
1.00834;0.457252
1.00832;0.457241
1.00832;0.457245
1.00837;0.457271
1.00841;0.457302
1.00844;0.457327
1.00852;0.457396
1.00858;0.457441
1.00863;0.457486
1.00874;0.457571
1.0088;0.457605
1.00884;0.457639
1.00893;0.457707
1.00898;0.457742
1.00902;0.457777
1.00912;0.457857
1.00918;0.457909
1.00923;0.457952
1.00933;0.458028
1.00939;0.458072
1.00944;0.458119
1.00956;0.458211
1.00961;0.458259
1.00967;0.458306
1.0098;0.458411
1.00986;0.458461
1.00992;0.458508
1.01005;0.458617
1.01012;0.458674
1.01019;0.458725
1.01025;0.45878
1.0104;0.458905
1.01046;0.458968
1.0106;0.45909
1.01067;0.45915
1.01075;0.459218
1.0109;0.459355
1.01099;0.459429
1.01107;0.459502
1.01126;0.459666
1.01136;0.459756
1.01145;0.459836
1.01163;0.459998
1.01172;0.460082
1.01182;0.460171
1.01192;0.460264
1.01212;0.460446
1.01223;0.460544
1.01234;0.460647
1.01245;0.460754
1.01268;0.46096
1.0128;0.461073
1.01292;0.461187
1.01318;0.461421
1.01331;0.461554
1.01345;0.461695
1.01359;0.461836
1.01389;0.462118
1.01401;0.462242
1.01415;0.462382
1.01443;0.462677
1.01458;0.462834
1.01475;0.463018
1.01495;0.463216
1.01534;0.463632
1.01553;0.463842
1.01573;0.464054
1.01616;0.464515
1.01638;0.464765
1.01663;0.465036
1.01716;0.465629
1.01745;0.465953
1.01777;0.466321
1.0181;0.466691
1.01876;0.467485
1.01911;0.467918
1.01952;0.4684
1.02038;0.469453
1.02084;0.470031
1.02137;0.4707
1.02195;0.471467
1.02334;0.473333
1.02419;0.474525
1.02685;0.478384
1.02923;0.481981
1.03166;0.485823
1.03632;0.493602
1.03857;0.497542
1.04075;0.501573
1.04514;0.509944
1.04729;0.514198
1.0495;0.51861
1.05394;0.527521
1.05616;0.531978
1.05837;0.536404
1.06058;0.540791
1.06498;0.549415
1.0672;0.553681
1.06943;0.557859
1.07166;0.561972
1.07623;0.57003
1.07858;0.573979
1.08099;0.577895
1.08598;0.585622
1.08856;0.589434
1.09119;0.593222
1.09664;0.600704
1.09943;0.604403
1.10229;0.60807
1.10814;0.615296
1.11113;0.618857
1.11419;0.622386
1.12041;0.62936
1.12358;0.632782
1.12679;0.636197
1.13332;0.642943
1.13665;0.646251
1.14002;0.649521
1.14688;0.655984
1.15035;0.659185
1.15388;0.662328
1.16102;0.668524
1.16465;0.671556
1.17199;0.677537
1.1757;0.680486
1.17946;0.683402
1.18323;0.686285
1.19087;0.691947
1.19474;0.694727
1.19861;0.697491
1.20644;0.702916
1.2104;0.705571
1.21437;0.7082
1.22237;0.71336
1.22642;0.715903
1.23049;0.718406
1.23868;0.723314
1.24281;0.72572
1.24697;0.728078
1.25114;0.730413
1.25953;0.73499
1.26375;0.737227
1.268;0.739427
1.27655;0.743743
1.28084;0.745862
1.28515;0.747932
1.29382;0.751994
1.29819;0.753981
1.30257;0.755939
1.31138;0.759751
1.3158;0.761616
1.32025;0.763449
1.32914;0.766991
1.3336;0.76872
1.3381;0.770421
1.3426;0.772085
1.35142;0.775268
1.35576;0.776771
1.35986;0.778158
1.3677;0.780761
1.37149;0.78198
1.37506;0.783113
1.38172;0.785151
1.38498;0.786118
1.38808;0.787002
1.39397;0.788669
1.39679;0.789441
1.39946;0.790165
1.40201;0.790848
1.407;0.792161
1.40938;0.792788
1.4116;0.793392
1.41373;0.793942
1.41779;0.794952
1.41975;0.795412
1.42158;0.795834
1.42859;0.797392
1.43036;0.797786
1.43135;0.797989
1.43359;0.798468
1.4349;0.798728
1.43617;0.798992
1.43738;0.799232
1.4397;0.799692
1.44083;0.799907
1.44191;0.80011
1.44299;0.80031
1.44371;0.800404
1.44458;0.800562
1.44547;0.800722
1.44637;0.80088
1.44816;0.801202
1.44904;0.801353
1.45117;0.801715
1.45205;0.801856
1.45278;0.801975
1.45409;0.802186
1.45471;0.802283
1.45532;0.802375
1.45593;0.802467
1.45631;0.802526
1.45719;0.802655
1.45719;0.802644
1.45751;0.802693
1.45797;0.802761
1.45896;0.802906
1.45897;0.802924
1.45928;0.802964
1.4597;0.80302
1.46015;0.803083
1.46114;0.803219
1.46158;0.803277
1.46243;0.803391
1.46284;0.803447
1.46309;0.803488
1.46349;0.803538
1.46424;0.803635
1.46458;0.803679
1.46489;0.803716
1.4652;0.803752
1.46582;0.803828
1.46704;0.80397
1.46735;0.804004
1.46788;0.804062
1.46813;0.804088
1.46835;0.804112
1.46856;0.804137
1.46903;0.804186
1.46928;0.804211
1.46952;0.804236
1.46999;0.804287
1.47022;0.804309
1.47044;0.80433
1.47064;0.804351
1.47103;0.804386
1.47122;0.8044
1.47142;0.804432
1.4718;0.804472
1.47198;0.80449
1.47217;0.804505
1.47234;0.804524
1.47264;0.804558
1.47299;0.804587
1.47299;0.804587
1.47316;0.8046
1.47343;0.804624
1.47359;0.804637
1.47375;0.804656
1.47374;0.804655
1.47401;0.804677
1.47415;0.804694
1.47415;0.804693
1.47429;0.804699
1.47441;0.804712
1.47452;0.804707
1.47467;0.804714
1.4748;0.80473
1.47492;0.804738
1.47506;0.804749
1.47505;0.804749
1.47505;0.804749
1.47514;0.804759
1.47527;0.804767
1.47539;0.804777
1.47551;0.804782
1.47584;0.804804
1.47595;0.804813
1.47607;0.80482
1.47629;0.804839
1.47639;0.80485
1.47655;0.804862
1.47676;0.804879
1.47689;0.804885
1.47702;0.804895
1.47731;0.804907
1.47742;0.804904
1.47751;0.80491
1.47772;0.804911
1.47781;0.804914
1.47787;0.804922
1.47795;0.804942
1.478;0.804945
1.47798;0.804949
1.47809;0.804951
1.4782;0.804957
1.47832;0.804953
1.4785;0.804966
1.47856;0.804972
1.4786;0.804975
1.47874;0.804986
1.47885;0.804989
1.4789;0.804987
1.47895;0.804994
1.47897;0.804993
1.47903;0.804994
1.47914;0.804997
