0.0186069
0.0143397
0.00321317
0.00321189
0.00359935
0.00399511
0.00403836
0.00401553
0.00470066
0.00403413
0.00396479
0.00406091
0.00431386
0.00402265
0.00397232
0.00397105
0.00396544
0.00428902
0.00401158
0.0040698
0.00396822
0.00399423
0.00419333
0.00401239
0.00402828
0.004019
0.00398908
0.00565204
0.00398441
0.0041881
0.00393514
0.00410379
0.00400185
0.00385561
0.00408454
0.00388505
0.00390868
0.00417394
0.00406561
0.00400468
0.00397754
0.00397118
0.00327348
0.00413609
0.00329035
0.00267699
0.00251461
0.00254608
0.00277574
0.00252753
0.00259208
0.00347387
0.00261458
0.00260585
0.00282348
0.00258104
0.00261034
0.00263234
0.00247243
0.0026121
0.00258208
0.00257234
0.00262782
0.00260473
0.00251563
0.00261026
0.00253961
0.00254995
0.00392706
0.00264338
0.00258415
0.00274601
0.00256003
0.00256802
0.00259036
0.00258192
0.00263213
0.00267316
0.00279147
0.0025559
0.00258728
0.00256541
0.00255124
0.00261872
0.00251604
0.00253187
0.00263841
0.00254943
0.00354152
0.00258899
0.00260089
0.00249617
0.00254433
0.00252931
0.00266996
0.00268354
0.00410932
0.00251239
0.00255433
0.00253719
0.00267468
0.00251447
0.00251586
0.00253097
0.00256087
0.00331208
0.0025778
0.0025455
0.00273893
0.00255288
0.00257282
0.00362438
0.0026759
0.00257356
0.00272717
0.0156506
0.00328026
0.0024889
0.00332735
0.0383137
0.0629815
0.0167117
0.00949768
0.00796986
0.0153185
0.00661164
0.0109256
0.00674422
0.00734756
0.00666271
0.00680898
0.00747936
0.00677442
0.00746392
0.00672024
0.00684671
0.00752933
0.00686423
0.00760271
0.00690658
0.00765288
0.0499172
0.0142308
0.0187699
0.0705056
0.0189802
0.0167698
0.0238092
0.018805
0.00265244
0.00180879
0.00343342
0.00334541
0.003396
0.00339644
0.00325275
0.00341868
0.00398751
0.00606912
0.00614153
0.0040433
0.00402945
0.0039223
0.00403265
0.00397155
0.00394763
0.00395807
0.00394006
0.0039591
0.00340255
0.00331538
0.00339447
0.00844839
0.0171968
0.0189366
0.0155883
0.0135384
0.0149645
0.0139571
0.0311004
0.00586244
0.00732326
0.0052435
0.0116002
0.00801444
0.01384
0.0560296
0.0242639
0.0213581
0.0177727
0.0308184
0.0210946
0.0146543
0.00419502
0.00396951
0.00403133
0.00327701
0.00321686
0.00341726
0.00324983
0.0032386
0.00326722
0.00359784
0.00371479
0.00343466
0.00328688
0.00347632
0.00331579
0.00323891
0.0199308
0.00697949
0.00726633
0.0059206
0.00604818
0.00594764
0.00322912
0.00671073
0.00332992
0.00647551
0.0034059
0.00327211
0.00327543
0.00326262
0.00325123
0.00320355
0.0612346
0.00395246
0.016339
0.0776712
0.0418368
0.00384262
0.00308371
0.0433509
0.0101908
0.0606691
0.0062818
0.0194761
0.0183748
0.0307638
0.00609795
0.00623443
0.0348034
0.0319571
0.0439656
0.0316252
0.0265296
0.0226079
0.0323483
0.0261817
0.0263786
0.029934
0.0323515
0.0322328
0.0308197
0.0400748
0.0294651
0.0432636
0.0362528
0.0287849
0.0302534
0.0353293
0.0300801
0.0439446
0.0394103
0.0253526
0.0426103
0.0366066
0.0290291
0.0301971
0.0275877
0.0297693
0.0236682
0.0239845
0.0293925
0.0304472
0.0255738
0.026195
0.023827
0.0208067
0.019947
0.0190239
0.0191683
0.0218495
0.0207392
0.017959
0.0174367
0.0208672
0.0193909
0.0174226
0.0178113
0.0251317
0.0153847
0.0163765
0.0155213
0.0148513
0.0166177
0.0187723
0.0133103
0.0322432
0.0142333
0.014983
0.0210472
0.0144346
0.0146554
0.0160632
0.0173935
0.0161383
0.0142823
0.0149876
0.0161217
0.0401215
0.0135392
0.00645262
0.00716435
0.010527
0.0463472
0.0138094
0.0147826
0.0129747
0.00474732
0.00915445
0.00604965
0.0114093
0.0126389
0.0129784
0.00401133
0.00734488
0.0074548
0.0116283
0.00940067
0.0147765
0.0142238
0.0171127
0.018975
0.0175191
0.0153428
0.00834773
0.00885883
0.00790739
0.00382969
0.00559969
0.00927269
0.0116123
0.00724669
0.00762786
0.0116778
0.0120619
0.0151242
0.00911684
0.00934631
0.00994108
0.00899614
0.00961829
0.0109676
0.0136475
0.00911253
0.0153265
0.00910483
0.00918387
0.0186149
0.0150842
0.0113938
0.0107359
0.0115246
0.0367692
0.0197915
0.0119295
0.0221921
0.0126889
0.0462301
0.0417915
0.0357749
0.0208605
0.01624
0.0440723
0.0145533
0.0579659
0.0371478
0.0217486
0.0365245
0.0102319
0.0180612
0.0936829
0.00924891
0.0184544
0.0168994
0.0293629
0.0995023
0.0504643
0.0600318
0.0292744
0.0327647
0.0375462
0.0319488
0.0278028
0.00977975
0.0089415
0.0341963
0.0419481
0.0373431
0.012911
0.0297159
0.0393302
0.0302639
0.0345728
0.00822085
0.00969176
0.00907442
0.00756886
0.00925586
0.00979156
0.00891663
0.0098745
0.0128829
0.00836988
0.00966181
0.0144507
0.0352582
0.0776266
0.0321024
0.0705387
0.0145644
0.0102239
0.0107284
0.00857271
0.00640661
0.026906
0.00524585
0.0281044
0.00592253
0.00627251
0.0356239
0.0104169
0.00765221
0.031514
0.0234932
0.0355163
0.0324879
0.0241686
0.031725
0.0234591
0.0244533
0.0293619
0.0240334
0.0231055
0.0217976
0.0232231
0.0238065
0.0347455
0.0252616
0.0337167
0.0233556
0.025225
0.0233755
0.0313624
0.021933
0.0230132
0.0231846
0.0257098
0.0306563
0.0233489
0.0232871
0.0299104
0.0306168
0.0249077
0.0323008
0.026438
0.0226031
0.0287073
0.0400201
0.0253414
0.0313617
0.0237166
0.0231468
0.0242674
0.0305009
0.0239015
0.0244319
0.0226657
0.0354369
0.0322764
0.025526
0.0246294
0.0264011
0.0236778
0.032247
0.0313606
0.0253632
0.028475
0.0316127
0.0312487
0.025236
0.0239771
0.0263187
0.0322099
0.0272015
0.0235017
0.0256235
0.0253034
0.0211546
0.0187265
0.0211733
0.0221267
0.0275353
0.0261624
0.0275677
0.0216707
0.0262918
0.0257302
0.0236596
0.0239011
0.020003
0.00408235
0.00410453
0.0273925
0.019973
0.0279243
0.0218527
0.022549
0.0284539
0.0171694
0.0225777
0.018419
0.0166294
0.0186718
0.016995
0.0271253
0.0290805
0.0238017
0.0215414
0.0223355
0.021674
0.0255026
0.0291828
0.0223216
0.0306429
0.0182194
0.0245926
0.0257266
0.0191194
0.0207553
0.0289269
0.0182982
0.0323757
0.025206
0.0217369
0.0158068
0.0279538
0.0172728
0.0171048
0.0208646
0.0188907
0.0315402
0.0255449
0.0255463
0.0236615
0.0218469
0.0278621
0.0239734
0.0259923
0.0257363
0.0219757
0.0244346
0.0307862
0.0242455
0.0245065
0.0277005
0.0228164
0.0203391
0.0191959
0.0184641
0.0187009
0.0204468
0.023291
0.0208422
0.0187579
0.0249411
0.0318798
0.0266345
0.0241204
0.0233697
0.0348361
0.02586
0.0226722
0.0227696
0.0246967
0.0238493
0.0249235
0.0206717
0.0261781
0.0215972
0.0218739
0.0260018
0.0259229
0.0257079
0.0319672
0.0283152
0.0249272
0.0239222
0.0239653
0.0231705
0.0406941
0.0259851
0.0238652
0.0237686
0.038671
0.0273065
0.0250149
0.0259668
0.0340018
0.0258782
0.0271457
0.0346276
0.0250799
0.0288188
0.0221026
0.0229523
0.030609
0.0234459
0.0261559
0.0235543
0.0220262
0.025493
0.021748
0.0276047
0.0251428
0.0251415
0.0215542
0.0275898
0.0273673
0.0305386
0.0256904
0.025646
0.0337902
0.0208359
0.0268088
0.022235
0.0276264
0.0269609
0.0253576
0.0275664
0.0285757
0.0306571
0.00399251
0.0181167
0.00471753
0.00526229
0.00446426
0.0212498
0.0203346
0.0169475
0.0292544
0.0278087
0.0188985
0.0226123
0.0368418
0.00403215
0.0185751
0.0222702
0.0217034
0.00222177
0.0124898
0.0129987
0.0153967
0.00243205
0.0194873
0.0123636
0.0147161
0.0220596
0.00223664
0.013782
0.0162477
0.0145717
0.0237484
0.0192103
0.0169669
0.0221598
0.02049
0.0213809
0.0218606
0.0241779
0.0331768
0.0236124
0.0284178
0.0257476
0.0213312
0.0236943
0.024791
0.0200042
0.0245365
0.0259418
0.0216182
0.033631
0.0261708
0.0254901
0.0265623
0.0229457
0.0291512
