0.136606
0.0896131
0.103906
0.119889
0.110603
0.076138
0.130002
0.0894915
0.086915
0.0843486
0.073567
0.0837009
0.0652757
0.0708135
0.0774152
0.085021
0.0910702
0.0760781
0.0885485
0.0842421
0.0603068
0.0622002
0.0768827
0.0603975
0.0702132
0.0636683
0.0636875
0.0598233
0.0716673
0.0585616
0.0754922
0.0561473
0.0696659
0.0645645
0.0687636
0.0685965
0.0640123
0.0561735
0.0557086
0.0578239
0.0586958
0.0619022
0.0614075
0.0580266
0.0524179
0.0536131
0.0665221
0.0657032
0.0606436
0.0599096
0.0604248
0.0679182
0.0666045
0.0600883
0.0610378
0.0703922
0.0602627
0.0588957
0.0591987
0.0540327
0.0614464
0.0639157
0.0593092
0.0576705
0.0582634
0.0660721
0.0626576
0.0595145
0.0608906
0.0601124
0.059852
0.0729311
0.0587469
0.0579898
0.0708301
0.0577089
0.0640829
0.0529035
0.0574464
0.0550232
0.0521524
0.052445
0.0573746
0.0595126
0.0615123
0.0762129
0.0607172
0.0612283
0.0609753
0.0571435
0.068865
0.0614081
0.0607907
0.0557617
0.05972
0.0653264
0.0643037
0.0621153
0.0600603
0.0626597
0.0627879
0.0525307
0.0638538
0.0613651
0.0605975
0.0579154
0.0641842
0.0692505
0.059778
0.0579631
0.0621492
0.0667942
0.0676077
0.0640706
0.0831191
0.0657541
0.068566
0.0792486
0.0729712
0.0707618
0.0597846
0.0657181
0.065846
0.0816634
0.0833142
0.0730767
0.0640665
0.0725082
0.0691408
0.0757163
0.0399861
0.0678023
0.076975
0.0709494
0.0647314
0.0684347
0.0642493
0.0659605
0.0693622
0.0802121
0.039512
0.0714432
0.06608
0.0757613
0.0584605
0.0725451
0.063987
0.0688159
0.0871147
0.0577042
0.0747508
0.0703558
0.0656783
0.0766404
0.0650426
0.0817241
0.0763811
0.0693917
0.0758791
0.0788776
0.0747047
0.0732371
0.0805382
0.0749056
0.0772299
0.052485
0.0730982
0.0881806
0.0690197
0.0600498
0.0593916
0.058626
0.0640519
0.0658793
0.0636805
0.0628193
0.0818206
0.0628092
0.0645692
0.0635041
0.0647842
0.0655594
0.0716809
0.0686623
0.0697386
0.0827585
0.0646351
0.0636276
0.0668675
0.0626691
0.0864637
0.0821628
0.0713396
0.0751663
0.0661117
0.0670857
0.0646474
0.0822343
0.0669463
0.0648106
0.0687965
0.0714357
0.0648042
0.0656714
0.0644497
0.0634127
0.0762865
0.0690737
0.0653693
0.0662505
0.0681868
0.0693833
0.0664798
0.0783404
0.083629
0.0650452
0.0698503
0.0654166
0.064954
0.0696495
0.0669328
0.0672652
0.0635927
0.0885989
0.0696646
0.0662991
0.0879108
0.0713555
0.0708756
0.0700612
0.0685119
0.0638205
0.0646291
0.0690039
0.0624392
0.0706988
0.0669224
0.0833797
0.0613586
0.0744785
0.0610683
0.0645419
0.0723454
0.0629113
0.086878
0.065612
0.0632739
0.0692336
0.0709491
0.0670048
0.0673988
0.0610891
0.0658291
0.0746228
0.0681534
0.076628
0.0677099
0.0786992
0.0620994
0.0788505
0.0665182
0.0739957
0.0638805
0.0702122
0.0716468
0.0734263
0.0742961
0.0761552
0.0715255
0.0685324
0.0713573
0.0778095
0.0671017
0.0660314
0.0655022
0.0692288
0.0740012
0.0688004
0.0720512
0.0823271
0.0652457
0.0700872
0.0646103
0.0811468
0.0636892
0.0684636
0.0842508
0.0631195
0.0638928
0.0794207
0.10802
0.0691425
0.0659521
0.0616382
0.0793504
0.0740026
0.0729638
0.0734151
0.0650802
0.0590042
