35492
41896
25478
22975
67504
53106
37744
30322
27720
28917
30362
26863
24345
27354
29215
34294
29979
37682
26405
34443
26693
33700
26682
32691
22828
29549
22918
50760
23248
30284
22019
25178
15133
20585
8005
34688
23794
31972
22024
20524
7842
27454
22614
34738
18737
17877
9179
36496
20202
3063
17252
27307
27016
20166
28820
25221
31592
34353
5892
22947
32005
5981
7039
28190
37881
26110
31207
32207
26028
28506
30053
27907
26866
24556
31582
31224
29219
7196
27432
29844
30293
29419
29476
26146
31136
36138
12091
31087
27520
30905
32416
30900
28531
36005
31873
30987
7370
26613
54973
53247
32372
30079
26992
28330
42443
7865
42419
41391
10678
44443
7310
13933
7510
8559
6783
8580
8736
14628
7739
15136
7453
6738
8825
7794
7838
7435
9796
6912
12934
14210
14280
9872
9607
11064
9882
12171
7506
9911
11241
9995
9827
13986
6772
9791
11813
6743
9196
7317
7650
6795
10536
6739
16078
9183
9916
7314
6808
19639
10282
9059
10359
20196
9913
10001
9666
8999
7313
9846
6929
8361
8381
9746
7136
6679
8493
8638
7685
6721
7114
10496
8374
14192
10184
6490
7339
14430
8352
9610
9557
6578
7146
8922
11315
10822
11300
6612
13243
18066
13259
6519
9580
10165
7218
10186
9701
14402
9409
16807
12637
10549
61112
8755
62973
7426
8445
8345
11209
10563
11394
7338
10807
29335
15563
17339
43297
11265
12773
8775
9031
44479
41679
7059
7588
7913
8804
15771
7530
48778
7711
9394
5207
9565
40968
32495
9732
39427
47842
48183
8838
23276
23930
31319
4006
9615
10100
29528
58664
7069
43272
10125
45725
31650
38187
4105
9450
39731
29422
26898
6016
27623
11626
13309
35563
35169
25966
3985
5408
43965
37723
37316
23302
5296
40209
23972
37597
33738
22839
34637
42885
5137
30706
19551
27667
23755
42210
5212
25526
26920
31755
6642
5882
26553
40186
4794
19660
24285
6339
5866
45630
5160
32621
30205
42714
10612
5254
33324
19039
28093
6394
5790
9738
4682
28431
30928
7024
10892
10745
21178
17930
34642
32094
8072
30890
18723
6483
22540
27599
10088
39215
23914
28654
20719
33396
53455
36417
19793
28564
36289
25734
5859
28891
29630
36021
30999
10089
27054
27575
26257
23246
45302
30403
31655
6005
24787
35291
30718
11980
5908
5834
10127
14658
10647
9934
5916
35121
10019
9935
10523
28610
34656
32490
37469
10339
9418
5827
6423
26094
17461
9471
9558
7084
26714
24937
9697
9747
9507
36799
30510
30810
10019
9363
5807
8063
25903
25399
10146
11981
6015
39625
35954
26928
31528
4077
11484
4148
9275
37151
39541
28295
43139
9167
4248
8937
48804
25687
23093
9267
19030
4224
57814
35926
8144
26234
6753
27626
41503
25881
9403
29415
7618
29272
30728
20799
21314
6795
7356
49286
27039
29345
33655
9651
10317
4281
23832
27665
57675
7418
42525
37768
42635
33868
43933
30461
28633
41781
23744
26844
26299
21195
4170
29160
42861
6204
39415
36917
29913
38205
38795
35376
34071
36888
36627
44166
33569
22968
19191
35438
24924
9147
53869
29082
6102
35043
40665
37208
31112
26659
38666
36421
33204
9926
33435
28460
31686
91566
40292
36037
40869
29348
31025
33720
42263
36999
52862
5724
8086
8081
8162
72775
65925
92170
99840
99712
99579
3603
95171
99880
100283
99686
99875
99710
97308
99779
98190
99404
99847
99961
98059
99296
99596
99961
100091
99852
100061
100167
99792
100062
100415
85597
98518
99931
100099
93688
100006
28529
99564
100084
99930
32383
81183
88335
32456
31604
4409
29576
56797
4705
42510
45903
31080
30576
31975
27286
27950
42584
32513
28030
32348
33659
26502
29623
38144
28843
28467
26058
29167
30552
25461
27413
35903
28052
24021
24203
38320
24924
24142
26766
21595
21839
21127
21948
22654
23223
17994
17172
17799
21770
31758
54877
19544
54595
46701
12806
12753
13292
14361
13454
13715
11888
13342
8371
7298
17660
9765
2696
4288
6646
7927
6513
8174
5886
12168
8054
10147
8017
46506
37178
48029
37338
6964
35074
4856
8290
13298
44985
40166
33711
38726
9092
39160
26954
38063
39762
21381
36212
5830
5886
13761
30926
6926
7947
23850
31156
21704
32582
21126
35330
48003
36914
5379
27482
26694
26414
38221
33222
35049
39817
37904
26602
25491
27602
9226
6717
8700
29321
34626
24277
8923
6015
24213
20815
26386
26272
30038
27248
27585
31189
31158
25204
38280
27160
30152
32891
27609
31542
7958
30957
27230
24051
88811
39848
9135
29587
35324
12631
39954
8113
38672
45956
36078
7956
37647
6265
36780
40247
23046
32145
6060
36403
34275
28678
24096
20756
7334
25390
29815
39709
19293
5415
29397
6884
11003
40285
21599
9084
4139
24495
25914
26662
20765
63883
6234
6218
7280
31234
25372
32884
31512
36908
48684
38908
10214
6092
32353
25577
21654
26080
26553
6623
28483
34986
27951
23512
18528
4870
28314
19793
29688
20729
28223
19595
30680
38799
8697
16188
26573
36425
6632
31900
9125
16594
25422
44744
32969
31602
30251
31294
25148
37349
31529
31071
29375
21649
4177
23226
28958
36618
29288
31694
23507
36253
26043
25349
32972
24643
25521
24672
32557
30612
44198
6281
34593
30678
32281
30707
26847
23901
26035
27020
30768
40596
25589
6111
23183
29585
38747
32418
41226
21523
33607
25541
30053
31155
22099
18488
18791
18364
35025
36216
22570
22392
46007
25354
27869
33062
22099
27874
22137
27048
28877
32617
25621
9276
24614
28144
39624
28592
20644
14853
15959
21393
24860
33799
25688
30546
32116
17297
35441
30526
26283
27950
30870
31902
28711
36844
37161
38228
26046
25446
34308
34001
8102
10151
35248
23247
24191
29344
28161
31328
24877
23526
26098
32519
12429
27690
23944
20756
26571
51620
13502
27147
25529
23156
21828
25127
22599
33947
32890
24770
45469
29045
24561
25025
24143
32578
40028
44098
70186
30245
18169
21168
24419
21826
25161
25890
26036
35724
46676
30624
20469
21037
21871
21825
22938
22178
31954
25266
33201
30552
21721
23953
23546
20162
19325
21209
21877
27384
23090
23956
25721
44584
5528
26693
25094
15147
34043
19050
15859
26687
24210
18156
24356
11168
11461
23672
13548
14248
13342
27316
14265
23722
14856
13480
16565
16929
18513
25769
17860
19134
19889
19967
27197
30306
18929
20738
23526
23313
23415
23318
21748
28562
23434
24707
29918
33099
24362
24862
27448
22521
24126
25973
24274
29752
23715
25204
26026
26251
26016
23630
26215
23496
26238
27406
13280
23934
22228
21625
20249
22155
32836
24292
14757
24850
13957
21378
25121
21707
14072
28053
22162
15866
23798
16990
15222
13948
15992
15741
17670
30844
34349
19586
21706
12287
16671
12284
12919
14207
12901
12975
12350
12758
12540
12590
22542
12838
13709
12818
16660
17195
13536
21223
12119
21109
13032
15234
13789
14549
12182
15348
12810
14632
13941
15348
15356
14040
14646
13554
15282
15284
17178
21433
16394
14230
15839
13965
15890
16568
14645
15130
15857
15717
20135
17381
17780
16972
18991
18755
21111
19753
21381
19931
19976
20553
27204
20327
22643
22408
26647
29215
25648
25532
29348
24326
24271
24914
25086
31448
26106
26181
23535
26991
24586
26167
32884
26423
23491
26983
23853
20591
14106
33126
30886
31720
25292
11827
34192
24459
22975
15777
17245
19402
14679
15967
15660
14089
14098
19656
20076
24900
31545
10081
17637
17531
25526
22433
21823
