35820
29466
40054
27707
68523
33305
22741
27466
25161
35634
29793
26833
24644
19616
33502
28834
37106
27519
41874
29993
18081
23869
23775
30598
29099
36545
25228
38940
28293
24633
25242
17037
25807
25760
26858
25739
25180
3355
17638
35264
24990
29316
25771
4616
13851
20669
25924
27072
31093
3177
15233
4911
6406
32868
30826
30735
39821
38694
26626
30344
33120
25943
28909
29065
37580
27911
24963
28629
31302
33680
28666
27669
30537
34110
34930
32315
7908
27481
22148
25789
25704
25273
28353
37495
22514
26556
26382
27280
34111
27128
28198
32452
9132
36658
33256
27182
7083
8883
10537
58137
31788
50316
8189
15059
29383
12113
9595
7392
7868
29149
49543
7438
8707
15529
10534
12440
12959
12035
7907
7745
7382
7360
9377
7972
10274
7364
24072
6673
42755
7340
8032
7070
13909
6775
8576
11707
7456
7557
8275
8506
6776
7175
7646
14388
10622
12391
15381
9942
9758
7384
11119
11955
9806
13071
7441
12303
9752
9882
6670
6646
8231
12771
9672
6841
15150
9138
7168
10953
6565
8213
9380
6458
7164
6542
16054
6569
8435
6544
7076
15047
9410
6675
12427
6489
7100
6484
12098
11980
14072
14353
7115
11776
11785
7338
10684
6507
14945
14861
13991
11235
20410
9417
17885
12212
10617
56290
8499
12664
7167
7284
8937
15376
13701
7648
7853
13910
40944
14631
33924
7281
7894
8822
7636
37218
14899
7030
7056
7669
11111
42352
40845
7051
7641
9699
5207
8667
7562
39633
36085
44144
36048
31313
9411
31060
47328
5842
35802
9319
38449
25942
25329
6420
4135
36515
9384
23097
32915
6680
3962
9483
9388
34784
23083
4013
9272
8819
9338
32734
6580
31574
10455
12309
38973
22415
35633
4123
5255
36207
47789
22940
21324
29920
5344
5284
40212
32087
4237
34340
38664
43444
25798
22384
25190
18761
5737
6249
36577
30077
4906
24801
36168
5206
37608
4980
29034
30039
6322
6087
5477
4678
29582
36429
6456
31970
39573
25297
30692
3987
5813
9337
10427
4746
19578
27801
39381
11204
10585
16518
17631
30424
35277
6070
9883
21560
19496
32807
37444
6356
31089
17778
27863
23012
24864
5827
11813
30707
23739
27695
40068
5821
27826
11784
34866
37749
10876
49222
33210
28985
22424
27085
48296
62883
13469
22342
40751
37801
11646
5709
5841
9346
39570
10890
10971
5719
35242
10171
38396
37933
5790
6353
32574
33881
10981
31934
6519
29050
26787
37880
9529
39052
26692
25432
34328
36209
9331
5949
5935
30923
32630
10024
9458
5825
41427
28722
26308
10203
12187
6121
6656
34763
34479
15926
11744
4063
8589
23577
39171
33218
33917
29454
30840
34205
29037
30316
47070
34709
7343
33478
4229
42535
31028
8198
10251
6163
18325
38765
41371
27126
6068
22896
32277
31857
25436
9395
34949
20133
4321
27258
30033
29757
19744
26463
32892
36405
29701
37430
35062
4403
28488
33377
24040
29063
27006
29114
32364
32670
24033
6384
27112
38642
10079
25571
22404
34824
4221
40220
32082
35116
28771
28833
24526
36968
39950
34762
23673
6693
25262
34818
30816
48071
30204
6642
26992
35367
28790
33815
26063
30653
29083
33052
37094
37579
38761
78704
37227
31330
27636
40183
8829
40053
34006
46484
34092
9464
5563
6143
10058
9992
10032
72337
71849
98666
100092
98514
8674
99876
100331
100293
100052
100014
100110
99789
99854
99848
100155
99641
100042
100186
99876
99693
100009
99927
97595
99900
99554
100586
100140
99737
32722
96357
99525
90791
100299
81778
99659
98702
100095
99898
99478
77391
53106
31734
35257
4293
28101
31701
4274
43491
38933
29509
29856
29420
36899
27655
24346
26792
25453
46509
35171
31652
29066
28634
25366
26077
28404
31966
25877
30363
26348
27151
26998
23881
24386
26716
25024
26286
25880
26687
23299
23726
21642
24939
24431
19433
18932
18257
17878
21858
19977
24253
62638
26541
72839
14445
12501
15448
18677
13306
13202
14388
8190
6665
21508
23422
7229
4224
4282
4287
9021
6580
7476
6270
9411
7778
9795
9225
53491
9522
37582
5593
26962
6971
8101
49553
39240
23912
9436
35094
9871
8722
30490
32244
27322
37742
33127
38959
6394
20853
37288
39287
8194
39716
30716
26908
23958
6509
25206
24876
26212
33902
23304
24645
24027
32470
23931
36957
4088
6033
26380
35200
26511
8502
10314
7242
24434
32859
31282
31451
11003
6828
31251
21918
24717
8591
36005
22777
3603
28581
30569
28374
25876
6192
17712
4746
6055
8292
24347
35269
25491
5981
4796
28987
48705
39243
49932
8508
6199
10650
30173
30133
29694
39628
29087
27094
47520
20890
26959
27584
27028
16620
21337
22722
9790
5390
26342
41135
29207
32564
19471
25330
38591
47008
27736
19391
65608
28584
26547
16146
25081
33945
30997
8863
6619
9293
13527
9899
79615
32589
24218
45973
25236
17080
28843
24596
24036
22023
29858
33880
6633
34303
25559
33747
25400
14118
24868
21644
27547
25997
19019
25388
4169
26290
7852
8837
20685
27018
34661
29750
30696
27262
35478
22289
25151
25055
28580
29152
38110
4124
20951
25744
24398
28500
30664
37063
37438
27162
34260
27512
21463
36174
33447
25695
25692
29370
32719
23901
27406
25799
33807
24689
26072
19606
30385
29948
31545
22362
84420
31838
31117
39086
31680
36579
19188
29346
33321
29427
28220
22033
27500
23301
27337
35949
29247
19651
28268
20902
17050
34421
27585
17968
27488
21250
20381
28384
31341
18717
25482
25255
25339
26148
41567
16620
30146
19850
20800
30902
33358
21555
22930
24439
33257
25893
31990
25216
27330
31635
38411
22143
40390
25861
33044
19093
27334
27548
27627
33026
26041
31852
28093
25906
25749
26937
32222
29386
22709
27351
26162
36519
11223
42032
21795
24180
27502
12415
31015
24405
25495
22977
44736
30688
25228
30992
29362
23459
22875
23017
23572
22906
8124
24668
24780
27061
27843
32317
35192
38837
32408
35744
18641
18764
20555
22500
18151
20572
19562
24030
23047
24152
26867
25591
23389
25893
29103
40847
6149
18931
23617
21317
14144
32721
20879
18374
17073
15684
18302
18765
17180
18397
19941
18217
19567
20494
21634
32142
24136
24342
23629
21115
25538
27639
30164
63127
18730
15014
24218
25128
26459
16512
19268
15154
20741
11064
22233
11151
19766
11714
13663
11568
14027
13981
13476
22903
17087
16417
18087
18203
25645
23766
18183
19418
18223
20385
22257
20975
20451
22545
22474
22804
30548
31654
24003
31726
31133
28915
23522
26690
27711
25684
22342
23987
22495
22960
22345
28221
23626
28247
26101
23524
36146
22965
23593
25262
28738
31353
26013
24016
24662
33901
22971
23586
24613
24714
24974
35774
80003
17599
22301
24319
26293
15767
24045
14018
25220
15737
22754
12942
24711
12207
14055
12207
11880
18124
18506
17707
27038
25888
18897
25989
18679
12844
13370
19292
21163
12396
12836
12807
15714
13424
12618
14039
15381
20548
19524
14593
14034
15269
14040
21009
17581
22863
26539
20358
26712
20675
24651
20516
18863
26548
19297
20081
21964
22704
23117
24803
22915
23152
29951
23044
26952
24379
21687
27497
22316
27809
20165
16570
16202
16703
14084
13082
18136
12876
11646
12919
12198
12718
13737
11689
14002
13456
14783
22244
13621
14103
16160
14593
13038
13982
13059
13969
14713
12993
14536
12975
12219
13826
12209
11815
20006
13075
12803
12862
23055
15931
15786
15988
15729
16504
16988
18136
22285
18880
21226
19823
24569
22854
25901
22133
23358
27994
33689
22974
24130
22768
30602
24446
30538
30932
22900
23679
24246
25037
23494
30272
23436
25225
23610
24314
24162
25679
24274
23001
24726
23103
24985
23355
26534
22481
22584
21934
23183
27710
26116
21907
19289
22121
23592
21846
32628
15126
16542
15000
16462
16508
15800
21935
16030
18618
15684
12154
13915
20807
16896
14034
14016
15416
17052
17580
21548
20547
16290
15723
17096
21246
14795
14771
11910
13942
12630
12969
11362
13001
12931
18269
14775
13541
26677
27640
22741
30541
31902
23367
28253
27650
31127
21323
21524
16147
15147
15948
31139
27977
23638
23362
24936
22827
32658
22495
28339
10266
9406
10448
11708
10343
9555
12321
26589
20732
24120
10377
11021
18951
12752
12427
12804
12893
12233
14267
11840
11699
13498
14628
14007
16140
22256
14048
15784
22288
15784
14631
22890
16184
17020
18327
21016
18141
19929
26413
26064
32300
20983
21027
22476
26985
20612
26055
20368
20905
20394
21214
21078
22429
26347
30281
23911
28314
22429
23517
22230
22466
27524
22445
21903
29361
23615
24314
23393
23368
23809
29545
23720
22356
24938
24787
24091
24547
25684
24119
23764
30086
24798
23485
22976
23030
22641
29884
20458
27115
21015
22591
26047
23640
18750
27161
22793
31178
23650
25507
27685
26895
30572
23867
23857
28041
31855
27562
23542
23464
23981
25367
25196
25533
31739
25682
20425
18041
18212
19984
15133
13377
13994
21699
12707
12977
15841
12927
14685
14792
25309
23247
17110
24147
14729
24310
29384
14130
31638
