0.00693595
0.00692627
0.00804596
0.00646066
0.0069889
0.00919852
0.00887676
0.00792074
0.00661383
0.00760326
0.00701291
0.00911452
0.00882087
0.00639923
0.00860994
0.0158577
0.00965849
0.00801994
0.008604
0.00716157
0.00651668
0.015564
0.00776149
0.00810132
0.00602939
0.00804672
0.00159663
0.0128629
0.00847441
0.00893672
0.00607178
0.00765712
0.00487225
0.00641236
0.00258915
0.0165945
0.00756704
0.00784381
0.0054803
0.00340157
0.0102728
0.00785058
0.00833889
0.00588458
0.00929573
0.00554096
0.00938865
0.0109104
0.005964
0.00899654
0.00473174
0.00792195
0.0063468
0.00169374
0.00563127
0.00555561
0.00894608
0.00590527
0.0023845
0.00876532
0.00920301
0.0115751
0.00230872
0.00631198
0.00254088
0.00841697
0.00330976
0.01067
0.0121513
0.00218983
0.00868527
0.00985591
0.0107334
0.00240724
0.00877865
0.0106484
0.00824766
0.00769062
0.00264255
0.00895997
0.00246022
0.00223422
0.00158128
0.00832567
0.0168736
0.00324684
0.00214358
0.00955515
0.0079007
0.00495033
0.0024033
0.00966521
0.00261016
0.00546142
0.00299392
0.0137163
0.00292572
0.00364677
0.00362085
0.00287624
0.00327634
0.0034346
0.0184082
0.00303094
0.00304419
0.01766
0.00385967
0.00298815
0.00497247
0.0024621
0.0029125
0.00295287
0.00302396
0.00546688
0.00518638
0.00557697
0.00267065
0.00475854
0.00254049
0.00357103
0.00272268
0.00441277
0.00365147
0.00266914
0.00515783
0.00367118
0.00455182
0.0055005
0.00416895
0.00440368
0.00630193
0.00329355
0.00423254
0.00453894
0.0170974
0.00417181
0.00416214
0.00739938
0.00380707
0.00257944
0.0040084
0.00287784
0.00404004
0.00399958
0.0162082
0.00374104
0.00477287
0.00400875
0.0050079
0.0030718
0.00459528
0.00396355
0.00404499
0.00479792
0.00298319
0.00392412
0.00345718
0.00305774
0.00534578
0.0191353
0.00379394
0.0149541
0.00549344
0.00592581
0.00308764
0.00450116
0.0051123
0.00412243
0.00247343
0.00350441
0.00454814
0.00259767
0.00308285
0.00968445
0.0118185
0.00295089
0.0113048
0.0139335
0.00322859
0.00271034
0.00339738
0.00290483
0.00462779
0.00317106
0.00340876
0.00365422
0.0100257
0.0122481
0.0122169
0.0136438
0.00350201
0.00275171
0.0135226
0.0130331
0.0119516
0.0122106
0.00367404
0.00404646
0.00531731
0.0149633
0.00582339
0.0172039
0.00476212
0.0123315
0.00631948
0.00314502
0.00426557
0.0118196
0.00355831
0.00315245
0.0123539
0.00418846
0.0037504
0.00469691
0.0113492
0.00935538
0.0124537
0.0206483
0.00488682
0.00840348
0.00298217
0.00505247
0.0168683
0.0116346
0.00631558
0.00701162
0.00959253
0.00772292
0.015289
0.00775681
0.0124782
0.00831775
0.0103404
0.00371447
0.00412661
0.00789115
0.00852218
0.0120297
0.00624195
0.016701
0.00187061
0.012147
0.0175672
0.00899795
0.00192959
0.0110134
0.0086652
0.00944223
0.0136299
0.0101365
0.0131153
0.00818689
0.0118143
0.0084273
0.00245931
0.00729652
0.00792774
0.010997
0.00818543
0.0153349
0.00758028
0.00894475
0.0092318
0.00998813
0.00686712
0.0115354
0.00933828
0.00926551
0.0084942
0.00813348
0.00275222
0.00735706
0.00786189
0.00852247
0.010247
0.00973027
0.00998125
0.00890119
0.0107061
0.011309
0.00744286
0.0115964
0.00848326
0.00702672
0.0058929
0.0083001
0.00850585
0.00983148
0.00676492
0.007937
0.00911282
0.00743506
0.00681528
0.00908813
0.00890589
0.00677481
0.00911419
0.0080311
0.0117725
0.00696731
0.00769136
0.0083183
0.00888224
0.010512
0.00760162
0.00919794
0.00980974
0.00989944
0.00656416
0.00862027
0.00878805
0.0132893
0.0076393
0.00835584
0.00806342
0.00997218
0.00791837
0.00679144
0.00892616
0.00671787
0.00666174
0.0139134
0.0113636
0.00636971
0.00991137
0.00892362
0.00882575
0.00888957
0.00602915
0.00867942
0.00869729
0.00658934
0.0118838
0.00728934
0.00868694
0.0060072
0.00635311
0.00834097
0.00886167
0.00750779
0.00490985
0.0114452
0.00869646
0.00732076
0.0058066
0.00848895
0.00919745
0.00729821
0.00601235
0.00641986
0.00816514
0.00592672
0.00519489
0.00717583
0.00919132
0.00843004
0.0103125
0.0075219
0.00883458
0.00687136
0.00521098
0.00845196
0.0112003
0.0084642
0.00887326
0.00868108
0.00836752
0.00624534
0.00450054
0.0100135
0.009617
0.0120945
0.00666416
0.00860806
0.0116095
0.00681691
0.00638034
0.00929641
0.00817863
0.00888783
0.0073346
0.00736318
0.00863501
0.00565508
0.00488896
0.00697307
0.0150535
0.00599317
0.00671019
0.0128154
0.0134441
0.0125626
0.00721013
0.0123514
0.0102278
0.0060306
0.00886661
0.00791288
0.00839116
0.00682631
0.00567674
0.00931203
0.00897683
0.00649307
0.00642502
0.00796187
0.00897791
0.00670513
0.00821825
0.00808039
0.0088141
0.00743277
0.00565376
0.0111959
0.00863205
0.00696762
0.00667385
0.010987
0.00836513
0.00660906
0.00529327
0.00770709
0.00930143
0.00598524
0.00755127
0.00852612
0.0107253
0.00707876
0.00554082
0.00794455
0.00895244
0.00587969
0.00839356
0.00892942
0.00889354
0.0143769
0.00791312
0.0108122
0.0083237
0.0104215
0.00645684
0.00900825
0.00858752
0.00766405
0.0018143
0.0110063
0.00867552
0.00847927
0.0079366
0.00888488
0.011534
0.016029
0.0100328
0.0084108
0.00866843
0.016669
0.0101493
0.0169513
0.0157917
0.0118801
0.00955499
0.0100422
0.00846162
0.0165009
0.0107752
0.0065785
0.0127259
0.00872721
0.0102196
0.0120112
0.0114304
0.00971552
0.00842086
0.0107859
0.00899381
0.00829329
0.00992366
0.0093942
0.00937294
0.00843742
0.00860854
0.00787628
0.00955509
0.0100878
0.00942858
0.00814138
0.00808843
0.00798034
0.0275933
0.0127545
0.00875218
0.00770999
0.0084868
0.00713797
0.0114009
0.00870548
0.00983542
0.00783696
0.00726653
0.00569842
0.00883878
0.00737901
0.00711104
0.00647275
0.00778366
0.00560992
0.00905329
0.0192079
0.00845772
0.008058
0.00838381
0.00796454
0.00811002
0.010087
0.00481838
0.0102025
0.00816563
0.00845359
0.00861493
0.00831715
0.00802177
0.0101748
0.0119369
0.00960899
0.00910374
0.00876889
0.00890015
0.00803757
0.00850056
0.00825675
0.0110215
0.0113496
0.00736726
0.0103851
0.00767352
0.0105561
0.00356435
0.00632184
0.0105068
0.00218658
0.00922295
0.00834443
0.00697727
0.0071044
0.00771104
0.00776454
0.01099
0.00907459
0.00758942
0.00768141
0.00735533
0.0069378
0.00814269
0.00981918
0.00747838
0.0062661
0.00721898
0.00190535
0.00638319
0.00759158
0.0132572
0.0057122
0.00710455
0.00600487
0.00740379
0.00664623
0.00543275
0.00538352
0.00683956
0.0066254
0.00922335
0.00521366
0.00598512
0.00655623
0.00554616
0.00594438
0.00705299
0.00821787
0.00196165
0.00786477
0.00736794
0.00715838
0.0122233
0.00322928
0.00592418
0.00677754
0.00584765
0.00841491
0.00790183
0.00175455
0.00791993
0.00643387
0.00848013
0.0119199
0.0133696
0.00851036
0.01526
0.00575713
0.0060029
0.00607132
0.010301
0.0040468
0.00560719
0.00574628
0.00620556
0.008145
0.00577454
0.00453164
0.00635105
0.00196643
0.00715898
0.00533827
0.0113476
0.00925828
0.010128
0.00727281
0.00712212
0.00390321
0.00444085
0.0041765
0.00192864
0.00736374
0.00790639
0.00405564
0.00413623
0.00449586
0.00693955
0.0058824
0.00703684
0.0100569
0.00428475
0.0046999
0.00743307
0.00720024
0.00496691
0.00409575
0.004688
0.0060784
0.00781251
0.0054045
0.00687397
0.00692521
0.00893628
0.00401131
0.00644047
0.005352
0.00468189
0.0119877
0.00720575
0.00729992
0.00519001
0.0040746
0.00518141
0.00463489
0.00587128
0.00582001
0.00533439
0.00190281
0.00807154
0.00499676
0.00864819
0.00797455
0.00708915
0.00880316
0.0102987
0.00414885
0.004538
0.00684822
0.00473914
0.0055738
0.00448025
0.00390797
0.00455909
0.00414174
0.00400117
0.00480987
0.00417218
0.00458451
0.00503772
0.00457013
0.0044432
0.0048222
0.00524287
0.00556195
0.00652934
0.00575753
0.00625592
0.00696048
0.00623111
0.00762718
0.00683586
0.00711036
0.00683953
0.00825053
0.00354931
0.00613
0.00838166
0.00916583
0.0105657
0.00818823
0.00387639
0.0056149
0.00673339
0.0074398
0.00420462
0.00412401
0.00614892
0.00404671
0.00401353
0.00431407
0.00510179
0.0053594
0.00438164
0.00430917
0.00446934
0.00410612
0.00433988
0.00579762
0.00424818
0.00525519
0.00572299
0.00689454
0.00656485
0.00460877
0.00591235
0.00423606
0.00493209
0.00977184
0.00878822
0.00371037
0.00434508
0.00422649
0.00554789
0.00763812
0.0117461
0.00414833
0.00486888
0.00551687
0.0120983
0.00663678
0.0039749
0.00436938
0.00692059
0.00426198
0.00600557
0.00414628
0.00643315
0.00658742
0.00432575
0.0071136
0.00407189
0.00428142
0.00420138
0.00435924
0.00409209
0.00420944
0.00577302
0.00500461
0.00521159
0.00732167
0.00589597
0.00795642
0.00697362
0.0055534
0.0050376
0.0073169
0.00555739
0.00605731
0.00722289
0.00471172
0.00605138
0.00563172
0.00771022
0.00599473
0.00684644
0.00664059
0.00657166
0.00710578
0.00973412
0.00869948
0.00996126
0.00847805
0.00814088
0.00786507
0.0102483
0.00743364
0.00700853
0.00774912
0.00857691
0.00828514
0.00823891
0.00814056
0.008488
0.00663135
0.00783466
0.00841813
0.00645081
0.0179051
0.00716785
0.00677947
0.0081655
0.00687103
0.00755888
0.00792135
0.00757471
0.00630093
0.00772023
0.00813284
0.00929329
0.011412
0.00742225
0.0104422
0.00797066
0.00840708
0.00792989
0.00757886
0.00786931
0.00882018
0.00753732
0.008195
0.00851536
0.0100499
0.00935292
0.00914305
0.00682245
0.00734806
0.00620412
0.00696777
0.00689695
0.00652101
0.00682791
0.0069629
0.00637401
0.00811321
0.00795989
0.0064285
0.00589584
0.00607336
0.00633032
0.00516837
0.0049129
0.00481055
0.00513303
0.00540154
0.00488256
0.00561148
0.00618883
0.00592777
0.00588826
0.00779943
0.00536411
0.0056722
0.00488051
0.0058513
0.00496121
0.00489219
0.0104312
0.00626608
0.00606102
0.00597521
0.00536439
0.00701797
0.00729336
0.00721125
0.00642118
0.00697313
0.00661572
0.00926322
0.00583174
0.00555418
0.00490774
0.00538484
0.00507918
0.00561398
0.00811501
0.00560065
0.00881665
0.00533993
0.00537869
0.00650057
0.00560494
0.00803864
0.00659967
0.00665392
0.00776162
0.00930509
0.00731281
0.00829842
0.0110105
0.00720117
0.00729583
0.00689189
0.00652458
0.00625473
0.00662242
0.006336
0.00661151
0.0107239
0.00626488
0.00764199
0.00747002
0.00650666
0.0111826
0.00673245
0.00571481
0.00581359
0.00598626
0.00704153
0.00663344
0.00666425
0.00711313
0.00737568
0.00658138
