0.0145701
0.0159042
0.0140334
0.0147139
0.0208523
0.0189225
0.016524
0.0202075
0.0160156
0.0186154
0.0191016
0.0210447
0.0155262
0.017381
0.0165204
0.0163116
0.0195243
0.0214321
0.0178049
0.017155
0.0182618
0.0157784
0.0141384
0.0106792
0.0122131
0.0124953
0.0112679
0.0111585
0.0154907
0.0109831
0.0130822
0.01214
0.0155011
0.0157892
0.0178953
0.0147615
0.0190599
0.0282866
0.0294298
0.0186144
0.0184928
0.0198828
0.0191415
0.0199126
0.0212503
0.021967
0.0529463
0.0319931
0.0285852
0.0347576
0.0306276
0.0320551
0.017713
0.0180205
0.0242898
0.0212065
0.0173939
0.0225414
0.0191513
0.0222131
0.0194267
0.0151069
0.0191696
0.0163249
0.016477
0.0191006
0.0125297
0.0209108
0.00991702
0.0110228
0.0140751
0.0138651
0.0158042
0.0204289
0.015112
0.0155419
0.0150708
0.016917
0.0212141
0.018293
0.0147256
0.0134594
0.0154193
0.0260472
0.0122313
0.0139454
0.0207205
0.0128178
0.0154559
0.010687
0.0110335
0.0120973
0.0112626
0.0114339
0.0108344
0.011342
0.0118222
0.0113285
0.012181
0.0110865
0.0130204
0.0131233
0.0108781
0.0113972
0.0109623
0.0117067
0.0113921
0.0127666
0.0113107
0.0111836
0.0155959
0.017191
0.0125023
0.0122386
0.0135702
0.0180243
0.0135172
0.0129046
0.0160535
0.0150836
0.018561
0.0209968
0.0188255
0.0153166
0.0151041
0.0171294
0.0189188
0.0173223
0.0191049
0.035061
0.0231527
0.0394451
0.0313585
0.0321445
0.0397013
0.0440472
0.0226572
0.0329147
0.0385498
0.0245974
0.0260224
0.0236489
0.0210722
0.0178202
0.018368
0.0226119
0.019239
0.0222854
0.0183263
0.0184697
0.0198599
0.0204979
0.0181681
0.0183725
0.0289618
0.0231298
0.0247131
0.0201975
0.0235195
0.0283484
0.0309135
0.0144762
0.0159467
0.0153137
0.016482
0.0139611
0.0154766
0.0163784
0.0151423
0.0117798
0.0138992
0.0159451
0.0148981
0.0239961
0.0146795
0.0133234
0.0121546
0.0109644
0.0146744
0.0120601
0.0117415
0.0154224
0.0137151
0.0126628
0.0156981
0.0137308
0.0150572
0.0182917
0.0174714
0.0180337
0.0275132
0.0319982
0.0285766
0.0262971
0.0274161
0.0238484
0.0225958
0.0241028
0.0260993
0.0351299
0.0331247
0.0343875
0.0313861
0.0374931
0.0270178
0.0280591
0.0312248
0.0360837
0.0280439
0.0173157
0.0210608
0.0195761
0.0195244
0.0151439
0.015672
0.0209833
0.0178332
0.0165467
0.024806
0.0283804
0.022015
0.0306122
0.0259088
0.0211274
0.0233801
0.0233683
0.024345
0.02713
0.0298983
0.0192681
0.019741
0.0254632
0.0136336
0.0164671
0.0166886
0.0162454
0.0137078
0.0144728
0.0150876
0.0138241
0.0180644
0.0153343
0.0243027
0.0135131
0.0125376
0.0161885
0.0143481
0.0201572
0.0148918
0.0174369
0.0109477
0.013872
0.0167251
0.0122726
0.0126491
0.0128496
0.0119461
0.0123727
0.0135421
0.0169565
0.0109537
0.0151158
0.0134847
0.0110026
0.0261073
0.0122157
0.0125523
0.0174005
0.0117216
0.013379
0.014618
0.0149829
0.0156074
0.0144338
0.015352
0.0156282
0.0146977
0.0206811
0.0150988
0.0294205
0.0255405
0.0224703
0.0144369
0.0182906
0.0151594
0.0192851
0.0232406
0.0242472
0.0303519
0.0239138
0.0250391
0.0301437
0.0177629
0.0256545
0.0272293
0.0312235
0.020817
0.0199945
0.0160673
0.0214074
0.043432
0.13373
0.0184677
0.0214035
0.06501
0.0209314
0.0216922
0.038824
0.0345865
0.0473104
0.0761088
0.0396084
0.0614346
0.0269099
0.13927
0.026055
0.0310431
0.0343979
0.0338522
0.0337651
0.0200591
0.0237156
0.0290924
0.022321
0.0221014
0.0228439
0.0313898
0.0371838
0.0873555
0.0871377
0.0785789
0.0271018
0.0548816
0.0327134
0.0778563
0.0255662
0.0377649
0.0170905
0.0468423
0.0211336
0.0215799
0.0316876
0.0542961
0.0285968
0.0224766
0.0736883
0.0781723
0.0208852
0.0244874
0.0403643
0.0215286
0.025298
0.0230273
0.027692
0.024939
0.0221026
0.0226904
0.0251711
0.0271133
0.0269425
0.0249253
0.0499413
0.028194
0.0250742
0.031177
0.0277
0.0241555
0.0274663
0.0365808
0.0257913
0.0338094
0.034957
0.0272685
0.0291678
0.0252655
0.0252358
0.0222347
0.0217129
0.021128
0.0277253
0.0240887
0.0225237
0.0807094
0.102338
0.0191815
0.0208928
0.0206304
0.0417533
0.0422856
0.042598
0.150443
0.0421585
0.0337301
0.0574034
0.0353161
0.0441389
0.0230861
0.0370209
0.0215848
0.0554477
0.0652215
0.0232285
0.0469104
0.10664
0.0724429
0.0332282
0.0612429
0.100942
0.0232718
0.0268832
0.063046
0.050596
0.0608585
0.0462923
0.0633774
0.237013
0.056188
0.1203
0.05333
0.033838
0.0170628
0.0692468
0.032272
0.0379066
0.0339424
0.0553971
0.0536991
0.0494481
0.0289728
0.0334744
0.0319856
0.0320528
0.0282953
0.0315634
0.0487004
0.0269615
0.166871
0.039444
0.0447159
0.0360483
0.0338355
0.0654183
0.0803546
0.0332552
0.0440547
0.0458917
0.0364645
0.0411785
0.0487874
0.0632309
0.0272558
0.0951603
0.140293
0.0465102
0.0562934
0.0366525
0.0379336
0.0356079
0.0821469
0.0343381
0.101827
0.0380608
0.066461
0.028052
0.0561642
0.0682723
0.0489065
0.0448064
0.0387568
0.0258235
0.0413143
0.0471393
0.0477078
0.0266773
0.0283404
0.0290967
0.0632385
0.0376614
0.0527871
0.299884
0.0319945
0.0402136
0.0309995
0.0800962
0.0425072
0.0566569
0.0392852
0.0415858
0.0408121
0.0387331
0.108234
0.0741018
0.0264962
0.0217733
0.177537
0.0225157
0.0314625
0.0254381
0.0331604
0.0956139
0.0474585
0.0296584
0.0229219
0.023594
0.0328512
0.0226434
0.022863
0.0223997
0.0226758
0.0263376
0.022256
0.0228352
0.0229641
0.021993
0.0240824
0.023181
0.0385948
0.0239116
0.0530337
0.0231805
0.025324
0.0233726
0.0321706
0.0225057
0.0245592
0.0288737
0.0229985
0.0256379
0.0232389
0.0230425
0.0284959
0.02314
0.0229483
0.0222703
