0.0159288
0.0164873
0.0175873
0.0219525
0.0206218
0.0148262
0.0140415
0.0138735
0.0137852
0.0201632
0.0193632
0.0188785
0.0171984
0.0162917
0.0156444
0.0175303
0.0136397
0.0211421
0.0158397
0.0252882
0.0173377
0.0135456
0.0136447
0.0119405
0.0127373
0.0138995
0.0104357
0.0158332
0.00960499
0.0129938
0.0180931
0.0164601
0.0168996
0.0181661
0.0202422
0.0208767
0.0167837
0.0235886
0.0185658
0.0226923
0.0251649
0.0157035
0.024915
0.0269349
0.0227073
0.0329772
0.0266403
0.0279426
0.0343738
0.0269676
0.0247665
0.0254842
0.0258413
0.0170181
0.0277914
0.0161693
0.0223836
0.0179951
0.0205397
0.0163652
0.016359
0.0227289
0.0184073
0.0169302
0.0133842
0.0111122
0.0124554
0.01079
0.0142938
0.0139493
0.0148476
0.017255
0.0165744
0.0198198
0.0246312
0.0191741
0.0147063
0.0135259
0.0127552
0.0128245
0.0137391
0.0150673
0.0156948
0.01904
0.0176319
0.0111356
0.0114316
0.0111434
0.0130733
0.0130148
0.0111381
0.0111119
0.0118717
0.011654
0.013775
0.014219
0.0118277
0.0111051
0.0115797
0.0112938
0.0125679
0.0111783
0.0111969
0.0121822
0.0118337
0.0162576
0.011519
0.0197119
0.0127702
0.0136305
0.0264414
0.0195477
0.0156914
0.0183909
0.0192319
0.0176614
0.019639
0.0186856
0.0198747
0.0201963
0.0220542
0.0356766
0.0284225
0.0380461
0.0582713
0.027007
0.0439607
0.0283034
0.0270407
0.030934
0.030833
0.0322845
0.0183058
0.0207341
0.0257024
0.0241031
0.0214965
0.0197977
0.0261578
0.0190793
0.0164024
0.0195992
0.0279772
0.0396173
0.0235608
0.0227772
0.0192225
0.028973
0.01933
0.0216019
0.0164232
0.015005
0.0179425
0.0148025
0.017084
0.0138818
0.0169406
0.0174895
0.0146738
0.0129625
0.0126781
0.0158168
0.0127302
0.0154962
0.0125771
0.0111357
0.0104449
0.015039
0.0110443
0.0135143
0.0160077
0.020494
0.0153257
0.0207232
0.0224005
0.0228144
0.0284265
0.0281716
0.0380827
0.0350359
0.0243108
0.0302165
0.0225046
0.0352933
0.0385966
0.0291115
0.034744
0.0292821
0.0499177
0.0253699
0.034418
0.0209695
0.0188994
0.0204823
0.0193419
0.0171219
0.0218511
0.0159467
0.0168096
0.024891
0.0217277
0.02774
0.0201129
0.0216902
0.0200438
0.0271276
0.0203921
0.0198379
0.0201398
0.0223146
0.014219
0.0207373
0.0136147
0.0224831
0.0225065
0.0133677
0.0204244
0.0159443
0.0187751
0.0160057
0.015189
0.0120528
0.0135311
0.0118523
0.0150773
0.0115099
0.0119791
0.011283
0.0119955
0.0121722
0.0136
0.0134411
0.0141705
0.0164331
0.0208564
0.0131874
0.0129604
0.0125433
0.0127628
0.0158981
0.0145559
0.0141596
0.0149086
0.0164348
0.0156069
0.0311543
0.019112
0.0162269
0.0223202
0.0152443
0.0218562
0.0320026
0.024997
0.0206776
0.0232672
0.0468581
0.0351804
0.0244183
0.0177358
0.0291512
0.0166253
0.0285455
0.176336
0.0903681
0.0168043
0.028164
0.0248392
0.220061
0.0164924
0.017182
0.0169982
0.0228892
0.0373305
0.0292651
0.232664
0.0210324
0.0215317
0.0200459
0.180766
0.0486811
0.0845628
0.0167356
0.0279646
0.0281432
0.0212609
0.0533988
0.0256898
0.0277136
0.0282921
0.0409379
0.0252029
0.0315015
0.163376
0.0711184
0.0247267
0.0397958
0.0262303
0.0227489
0.0211635
0.0246903
0.0243398
0.0359161
0.0299217
0.0257124
0.0251004
0.0269846
0.0258633
0.0265126
0.0257862
0.0382518
0.025676
0.0232028
0.0260512
0.0279809
0.0330133
0.0251934
0.0205875
0.0516283
0.0380611
0.0317399
0.0274249
0.0225388
0.024806
0.0242961
0.0240132
0.0270653
0.0260648
0.0575343
0.0251506
0.0553475
0.0360937
0.120018
0.0244494
0.0347447
0.0449482
0.0575533
0.084727
0.0548105
0.0725291
0.101542
0.148238
0.149748
0.0216467
0.0289909
0.0446192
0.0309752
0.0344567
0.113711
0.0325997
0.0232527
0.033794
0.023584
0.0361385
0.0224261
0.0375134
0.024183
0.0329374
0.109047
0.0247029
0.0406123
0.0530966
0.0401839
0.0683808
0.339233
0.110649
0.0361526
0.0589616
0.0371212
0.066915
0.0340917
0.04242
0.0532321
0.131877
0.0281515
0.0653716
0.0540964
0.0413223
0.112769
0.0992105
0.0429389
0.0388373
0.0409908
0.0296648
0.0533069
0.0538914
0.0274281
0.0799969
0.0370136
0.190364
0.0393674
0.0253507
0.0446893
0.0302092
0.0504106
0.0346919
0.185402
0.0279934
0.0269694
0.33895
0.0447154
0.0290224
0.0309639
0.0889082
0.0520505
0.0512122
0.0351058
0.0247161
0.0282761
0.0430164
0.0440186
0.0425165
0.0458405
0.0597273
0.0251183
0.0262345
0.0446778
0.0325103
0.0512882
0.0610345
0.0265027
0.0220562
0.0531642
0.0400851
0.0668138
0.0346303
0.0298617
0.0222757
0.0315854
0.0323987
0.0217414
0.0376692
0.0424964
0.0437991
0.0447944
0.0516998
0.0255946
0.0213185
0.0232603
0.0306241
0.0269049
0.0299259
0.0446405
0.0283402
0.0219088
0.04959
0.0299647
0.0310829
0.0215383
0.0270221
0.0440239
0.0297417
0.0214405
0.0227834
0.0220136
0.023855
0.023459
0.0275185
0.0232912
0.0310894
0.0236822
0.0223007
0.0361451
0.0216528
0.0220142
0.0244323
0.0257753
0.0239632
0.022518
0.0217241
0.0395658
0.0222881
0.0311925
0.0223084
0.0215687
0.0239615
0.0226251
0.022374
0.0311788
0.0248834
0.0214143
0.022861
0.0262654
0.0229644
0.0216432
0.0218786
0.0222241
0.027379
0.0227116
0.0246151
0.0229229
0.0294065
0.0306588
0.0275905
0.022258
0.0220017
0.0245977
0.0215342
0.0246935
