-9.43823e-05;0.00303627
-9.38022e-05;0.00302125
-9.38947e-05;0.00255261
-8.69783e-05;0.00211364
-9.17267e-05;0.00112504
-9.29419e-05;4.80587e-05
-9.92715e-05;-0.00037593
-0.000109168;-0.0011813
-0.000103881;-0.00149702
-0.000110355;-0.00211208
-0.000118214;-0.00236425
-0.000124414;-0.0028645
-0.000130108;-0.00305988
-0.000136767;-0.00344376
-0.000141237;-0.0039689
-0.000147438;-0.00412478
-0.000144782;-0.00427934
-0.000144004;-0.00434646
-0.00014709;-0.00443996
-0.000147348;-0.00445748
-0.000154262;-0.00460357
-0.000159686;-0.00476821
-0.000166079;-0.00483043
-0.000140367;-0.00487614
-0.000140355;-0.00487117
-0.000147179;-0.00498687
-0.000144111;-0.00505171
-0.000156989;-0.00519626
-0.000172872;-0.00533923
-0.000174327;-0.00538365
-0.00017566;-0.0054737
-0.000191969;-0.00562802
-0.000220095;-0.00580588
-0.000225275;-0.00579432
-0.000224592;-0.00577777
-0.000238969;-0.00587544
-0.000253506;-0.00598819
-0.00025747;-0.00598473
-0.000252772;-0.00595798
-0.000233406;-0.00583766
-0.000214463;-0.00572987
-0.000174904;-0.00559381
-0.000174499;-0.00560475
-0.000172966;-0.00560918
-0.000106157;-0.00524381
-1.06574e-05;-0.00475891
1.04874e-05;-0.00469365
2.53104e-05;-0.00463388
2.26621e-05;-0.00468424
1.35944e-05;-0.00472728
-5.84054e-05;-0.00502729
-0.000152998;-0.00539016
-0.00022822;-0.00586959
-0.000318744;-0.00619792
-0.000394985;-0.00650161
-0.000386662;-0.00648547
-0.000431553;-0.00663771
-0.000470111;-0.00674911
-0.000494951;-0.00681093
-0.000453976;-0.00669865
-0.000414051;-0.00657458
-0.000286157;-0.00616172
-0.000181789;-0.00587222
2.45376e-05;-0.00537571
7.96327e-05;-0.00520516
0.000365739;-0.00441519
0.000533191;-0.00393857
0.000709156;-0.00345728
0.00103637;-0.0025834
0.00121418;-0.00214122
0.00161487;-0.00115551
0.00187414;-0.000542664
0.00243691;0.000756912
0.00272857;0.00141641
0.00335469;0.00279773
0.00371086;0.00356895
0.00449179;0.00520185
0.00492302;0.0060969
0.0058285;0.00793288
0.00634079;0.00894177
0.00740627;0.0110133
0.00818308;0.0124263
0.00895114;0.0138371
0.0103255;0.0163237
0.0110152;0.0175573
0.012456;0.0200493
0.0132164;0.0213051
0.0149175;0.0241586
0.015827;0.0256234
0.0175918;0.0284085
0.0184892;0.029781
0.0204094;0.0326428
0.021426;0.03417
0.0224691;0.0356875
0.0246058;0.0387357
0.025699;0.040226
0.0285224;0.0439971
0.0300088;0.0459197
0.0328475;0.0495182
0.0343635;0.0514075
0.0370431;0.0546623
0.0417085;0.0602362
0.0434347;0.0622393
0.0468363;0.0661225
0.0494897;0.0690774
0.0554152;0.0755154
0.0586868;0.078978
0.0651907;0.0857077
0.0683867;0.0889622
0.0725672;0.0930838
0.0745292;0.0949772
0.0781692;0.0983767
0.0799511;0.100023
0.0817374;0.101658
0.0872827;0.106652
0.0898144;0.108878
0.0945381;0.112968
0.0965791;0.114687
0.098643;0.116396
0.103;0.119931
0.105242;0.121706
0.111344;0.126475
0.115154;0.12938
0.122856;0.135093
0.126744;0.137929
0.134589;0.143526
0.138336;0.146147
0.142118;0.148755
0.148871;0.153322
0.151714;0.155205
0.157009;0.158646
0.159636;0.160315
0.16225;0.161957
0.167891;0.165431
0.171978;0.167919
0.18026;0.172844
0.184441;0.17527
0.191175;0.179152
0.195268;0.181445
0.202624;0.185525
0.205856;0.187279
0.212;0.190552
0.214826;0.192042
0.217664;0.19351
0.223113;0.196304
0.227393;0.19844
0.23518;0.202287
0.238277;0.203763
0.244325;0.20654
0.247466;0.208014
0.250593;0.209495
0.256904;0.212372
0.267241;0.21702
0.273912;0.219938
0.276828;0.221214
0.27978;0.222473
0.285636;0.224946
0.288449;0.22612
0.294256;0.22849
0.297079;0.229631
0.30315;0.232072
0.306398;0.233358
0.313739;0.236226
0.31654;0.237316
0.31934;0.238399
0.325149;0.240581
0.328147;0.241708
0.334484;0.244047
0.337445;0.245142
0.34043;0.246294
0.347456;0.248843
0.351519;0.250287
0.357973;0.252521
0.361062;0.253589
0.367723;0.255848
0.37086;0.256905
0.376838;0.258931
0.380043;0.260015
0.383269;0.261098
0.389229;0.263099
0.39213;0.264072
0.398227;0.266103
0.401286;0.267127
0.407251;0.269168
0.410627;0.270256
0.414002;0.271343
0.420184;0.273325
0.423216;0.27429
0.428986;0.276111
0.431916;0.277032
0.437722;0.278832
0.440591;0.279725
0.443474;0.280609
0.449208;0.282356
0.452195;0.283279
0.458166;0.285116
0.461042;0.285996
0.466803;0.287747
0.469752;0.288585
0.475371;0.290285
0.47811;0.291119
0.480856;0.291961
0.486595;0.293702
0.489522;0.294594
0.495213;0.29631
0.498093;0.297183
0.503788;0.298957
0.506958;0.299941
0.510143;0.300904
0.515945;0.302676
0.518777;0.303548
0.524344;0.305258
0.526991;0.306064
0.532359;0.307747
0.535532;0.308735
0.541499;0.310574
0.544109;0.311408
0.546686;0.312218
0.552386;0.314011
0.555237;0.314912
0.560706;0.316617
0.563472;0.317498
0.568924;0.319241
0.571548;0.320073
0.574044;0.320858
0.579247;0.322541
0.581932;0.323407
0.587257;0.325113
0.589793;0.325935
0.595117;0.327662
0.598038;0.328611
0.60098;0.329569
0.606404;0.33138
0.609129;0.332278
0.614658;0.334114
0.617436;0.335033
0.622924;0.336854
0.625812;0.337833
0.631456;0.339725
0.634261;0.340678
0.637135;0.341663
0.642721;0.34354
0.645458;0.344454
0.650659;0.346243
0.653184;0.347107
0.658452;0.348938
0.661463;0.349995
0.667632;0.352134
0.670293;0.353069
0.675604;0.354916
0.678634;0.355998
0.684276;0.357997
0.686737;0.358844
0.691703;0.360602
0.694649;0.361654
0.697575;0.362712
0.702596;0.36453
0.705418;0.365569
0.711028;0.367608
0.713672;0.368565
0.718678;0.37038
0.721249;0.371319
0.726442;0.373231
0.72892;0.374134
0.731418;0.375043
0.73625;0.376855
0.738785;0.377788
0.743777;0.379636
0.746188;0.380526
0.751066;0.382379
0.753577;0.383328
0.756098;0.384282
0.761003;0.386161
0.763588;0.387164
0.768743;0.389136
0.772102;0.390408
0.778231;0.392756
0.780914;0.393792
0.786156;0.395824
0.789646;0.397209
0.796134;0.399724
0.798945;0.400821
0.804388;0.402963
0.806828;0.403931
0.809042;0.404808
0.813668;0.406649
0.816122;0.407631
0.820979;0.4096
0.823326;0.410556
0.825683;0.411527
0.830712;0.41358
0.833225;0.41462
0.838136;0.416639
0.840731;0.417709
0.845875;0.419847
0.84842;0.420908
0.850829;0.421916
0.856013;0.424067
0.858715;0.425203
0.864037;0.427454
0.866587;0.428529
0.871922;0.430796
0.874684;0.431987
0.880052;0.434292
0.882797;0.435487
0.885526;0.436675
0.890765;0.438955
0.89347;0.440134
0.898812;0.442474
0.901502;0.44367
0.906745;0.446003
0.909316;0.44714
0.911875;0.448276
0.916916;0.45053
0.919714;0.451768
0.925174;0.454215
0.927833;0.455417
0.933248;0.457875
0.935901;0.459088
0.938568;0.460303
0.943738;0.462671
0.946564;0.463978
0.952334;0.466624
0.955031;0.467864
0.960258;0.470275
0.962979;0.471545
0.968437;0.474068
0.971;0.475259
0.973495;0.476412
0.978673;0.478821
0.981904;0.480319
0.988638;0.48351
0.99141;0.484827
0.994159;0.486151
0.9998;0.488832
1.00241;0.490095
1.0074;0.492486
1.00996;0.493708
1.01509;0.496189
1.01761;0.497404
1.02243;0.499757
1.02494;0.500976
1.02746;0.502201
1.03249;0.504678
1.03497;0.505919
1.03746;0.507149
1.04342;0.510116
1.04933;0.513061
1.05179;0.514285
1.05428;0.515524
1.0593;0.518038
1.06184;0.519314
1.06679;0.521799
1.06941;0.523104
1.07463;0.52572
1.0773;0.527075
1.08249;0.529671
1.08514;0.530979
1.09028;0.53356
1.09284;0.534848
1.09515;0.53603
1.09996;0.538459
1.10262;0.539812
1.1077;0.54241
1.11021;0.543691
1.11271;0.544988
1.11772;0.547583
1.12023;0.548885
1.12515;0.551418
1.12771;0.552736
1.13279;0.555357
1.13574;0.556894
1.13832;0.558231
1.14351;0.560924
1.14613;0.562286
1.15121;0.564933
1.15365;0.566214
1.1561;0.567486
1.16121;0.570162
1.16377;0.571511
1.16879;0.574153
1.17143;0.575555
1.17405;0.576933
1.17923;0.579668
1.1818;0.581034
1.18691;0.583731
1.1896;0.585137
1.19504;0.588
1.19765;0.589372
1.20297;0.592191
1.20563;0.593601
1.21091;0.596406
1.21359;0.597833
1.21626;0.599257
1.22149;0.602035
1.22415;0.603438
1.22965;0.606369
1.23236;0.607798
1.23752;0.610574
1.24001;0.611909
1.24479;0.614474
1.2473;0.615805
1.25242;0.618564
1.25497;0.619934
1.25755;0.621314
1.26245;0.623961
1.26498;0.625341
1.27004;0.628074
1.27246;0.629386
1.27733;0.632025
1.2798;0.633363
1.28226;0.634712
1.28705;0.637318
1.28969;0.638741
1.29488;0.641558
1.29746;0.642967
1.29986;0.644272
1.30504;0.647066
1.3079;0.648603
1.31338;0.651555
1.31585;0.652881
1.32082;0.655569
1.32333;0.656916
1.32829;0.659589
1.3307;0.660892
1.3332;0.662251
1.33842;0.665089
1.34101;0.666468
1.34604;0.669155
1.34859;0.670527
1.35359;0.673223
1.35608;0.674572
1.35842;0.675842
1.36328;0.678475
1.36589;0.679879
1.37106;0.682592
1.37354;0.683925
1.37859;0.686657
1.38115;0.688082
1.38366;0.689456
1.38863;0.692151
1.39136;0.693619
1.39674;0.69656
1.39935;0.69798
1.40438;0.700727
1.4072;0.702278
1.41002;0.703814
1.4152;0.706633
1.4177;0.707999
1.42301;0.710919
1.42582;0.712451
1.43143;0.715513
1.4341;0.716953
1.43675;0.718394
1.44128;0.720882
1.4434;0.722038
1.4474;0.724241
1.44931;0.725275
1.45089;0.726129
1.45418;0.72794
1.45588;0.728866
1.45922;0.730678
1.46084;0.731559
1.46393;0.733229
1.46529;0.733954
1.46785;0.735322
1.46894;0.735907
1.47002;0.73649
1.47187;0.737487
1.47267;0.737912
1.47418;0.738725
1.47487;0.739092
1.47555;0.739455
1.47667;0.740036
1.47726;0.740351
1.47842;0.740959
1.4788;0.741155
1.47918;0.741351
1.48003;0.741791
1.48041;0.741988
1.48075;0.742166
1.48096;0.742273
1.48127;0.742432
1.48131;0.742453
1.48136;0.74248
1.4819;0.742746
1.48222;0.742902
1.48281;0.743196
1.48308;0.743328
1.48335;0.743459
1.48389;0.743723
1.48418;0.743863
1.4847;0.744112
1.48488;0.744198
1.48516;0.744335
1.48531;0.744407
1.48558;0.744535
1.48571;0.744597
1.48583;0.744653
1.48607;0.744763
1.48635;0.744884
1.48684;0.745091
1.48696;0.745147
1.48749;0.745377
1.48792;0.745566
1.48874;0.745916
1.48889;0.745982
1.48904;0.746046
1.48909;0.74608
1.48905;0.74606
1.4891;0.746082
1.48913;0.746094
1.48934;0.746186
1.48942;0.746218
1.4895;0.746249
1.48952;0.746259
1.48977;0.746355
1.49006;0.746469
1.49019;0.746513
1.49032;0.746555
1.49073;0.746706
1.4908;0.746731
1.49075;0.746711
1.49063;0.746666
1.49035;0.746565
1.49022;0.746525
1.48992;0.74642
1.48982;0.746379
1.48971;0.74634
1.48958;0.746294
1.48951;0.746271
1.48942;0.746234
1.48934;0.746208
1.48921;0.746169
1.48918;0.74616
1.48911;0.746134
1.48904;0.74611
1.48893;0.746072
1.48886;0.74605
1.48879;0.746031
1.48862;0.745982
1.48867;0.745997
1.4886;0.745974
1.48849;0.74594
1.48831;0.74589
1.48822;0.745865
1.48813;0.745837
1.48797;0.745793
1.48793;0.745784
1.48789;0.745771
1.48776;0.745734
1.48762;0.745695
1.48732;0.745613
1.48727;0.7456
1.48689;0.745489
1.48672;0.745445
1.48652;0.745391
1.48654;0.745396
1.48657;0.745403
1.48645;0.745371
1.48646;0.745377
1.48651;0.745393
1.48656;0.745409
1.48662;0.745423
1.48629;0.745343
1.4863;0.745344
1.48631;0.74535
1.48641;0.745378
1.48652;0.745407
1.48663;0.745432
1.48673;0.745457
1.48625;0.745347
1.48619;0.745335
1.48612;0.745321
1.4863;0.745363
1.48648;0.745402
1.48641;0.745386
1.48631;0.745363
1.48623;0.745351
1.48602;0.74531
1.48579;0.745259
1.48581;0.745264
1.48582;0.745267
1.48593;0.745292
1.48603;0.745313
1.48605;0.745321
1.48635;0.745378
1.48668;0.745444
1.4867;0.74545
1.48658;0.745424
1.48647;0.745402
1.48651;0.74541
1.4866;0.745424
1.48657;0.745419
1.48655;0.745414
1.48641;0.745398
1.48641;0.745394
1.48645;0.745404
1.48652;0.745429
1.48662;0.745447
1.48665;0.745454
1.48667;0.745456
1.4867;0.745466
1.48672;0.745471
1.48651;0.745434
1.48628;0.745397
1.48624;0.745388
1.48628;0.745395
1.4864;0.745413
1.48649;0.74541
1.48622;0.745366
1.48606;0.745344
1.48592;0.745323
1.48628;0.745386
1.48654;0.745433
1.48684;0.745477
1.4869;0.745488
1.48682;0.745481
1.48678;0.745474
1.48671;0.745461
1.48643;0.745421
1.4861;0.745369
1.48582;0.74533
1.48579;0.745325
1.4858;0.745326
1.48578;0.745323
1.48584;0.745331
1.48571;0.745313
1.48558;0.745295
1.48519;0.74524
1.48499;0.745214
1.485;0.74522
1.48496;0.745223
1.48494;0.745223
1.48488;0.745215
1.48481;0.745204
1.48489;0.745218
1.48467;0.745193
1.48444;0.745162
1.48455;0.745179
1.48466;0.745194
1.48478;0.745208
1.48474;0.745203
1.48496;0.745236
1.48511;0.745254
1.48535;0.745278
1.48545;0.74529
1.48556;0.745296
1.48566;0.745309
1.48566;0.745308
1.48553;0.745299
1.48541;0.745295
1.48551;0.745308
1.48563;0.74532
1.48572;0.745319
1.4858;0.745326
1.48588;0.745339
1.48585;0.745336
1.48583;0.745336
1.48578;0.745331
1.48558;0.745322
1.48531;0.745289
1.48525;0.745276
1.48503;0.745253
1.48497;0.745247
1.485;0.745261
1.48492;0.745252
1.48491;0.745258
1.48487;0.745279
1.48498;0.745288
1.48508;0.745297
1.48537;0.745331
1.48555;0.745343
1.48618;0.745398
1.4862;0.745391
1.48625;0.745395
1.48633;0.745407
1.48636;0.745405
1.48647;0.74542
1.48637;0.745407
1.48621;0.745389
1.48611;0.74538
1.48593;0.745361
1.48593;0.745355
1.48595;0.745348
1.48576;0.745321
1.48575;0.745319
1.48564;0.745311
1.48556;0.7453
1.48552;0.745305
1.48559;0.745317
1.48566;0.745327
1.4858;0.74534
1.48594;0.745361
1.4864;0.745394
1.48661;0.74542
1.48683;0.745443
1.48695;0.745443
1.48687;0.745433
1.48696;0.745428
1.48708;0.745437
1.48719;0.745451
1.4875;0.745487
1.48756;0.745502
1.48766;0.745502
1.48769;0.745505
1.48757;0.745497
1.48741;0.745474
1.4874;0.74547
1.48744;0.745479
1.48746;0.745479
1.4875;0.745468
1.48724;0.745452
1.48699;0.745438
1.48694;0.745416
1.48691;0.745414
1.4877;0.745465
1.48775;0.745476
1.48786;0.745492
1.48788;0.745502
1.48793;0.745502
1.48799;0.745496
1.48793;0.745493
1.48803;0.745499
1.48801;0.745505
1.48801;0.745505
1.48801;0.745508
1.488;0.745504
1.4879;0.745509
1.48776;0.745504
1.48741;0.745489
1.48733;0.745481
1.48722;0.74549
1.48723;0.745502
1.48729;0.745515
1.48723;0.745511
1.48719;0.745512
1.4868;0.745489
1.48673;0.74549
1.48667;0.745485
1.4867;0.745495
1.48668;0.7455
1.48665;0.745504
1.48662;0.745503
1.48625;0.745473
1.48609;0.745459
1.48591;0.745438
1.48599;0.745435
1.48627;0.745454
1.48633;0.745465
1.48646;0.74548
1.4868;0.745505
1.48715;0.745527
1.48722;0.745537
1.48724;0.745546
1.4874;0.745558
1.48731;0.745556
1.48724;0.745572
1.4872;0.745567
1.48718;0.745562
1.48726;0.745552
1.48736;0.745556
1.48744;0.745561
1.48745;0.745566
1.4874;0.745572
1.48737;0.745573
1.48738;0.745566
1.48741;0.745561
1.48747;0.745564
1.4877;0.74559
1.48774;0.745595
1.48776;0.745601
1.48743;0.745564
1.48709;0.745533
1.48696;0.74552
1.48693;0.745517
1.48709;0.745533
1.48716;0.745545
1.487;0.745538
1.48696;0.745535
1.48693;0.745531
1.48715;0.745531
1.48735;0.745535
1.4876;0.745531
1.48762;0.74552
1.48763;0.745532
1.48766;0.745549
1.4877;0.74555
1.48769;0.745545
1.48766;0.745538
1.48759;0.745533
1.48686;0.745499
1.48643;0.745469
1.4861;0.745454
1.48561;0.745439
1.48567;0.745443
1.48583;0.74545
1.48596;0.745457
1.48618;0.745473
1.48633;0.745494
1.48647;0.745521
1.4866;0.745546
1.48669;0.74555
1.48662;0.745555
1.48657;0.745549
1.48652;0.745535
1.48657;0.745538
1.4867;0.745553
1.48677;0.745558
1.48685;0.74557
1.48648;0.745544
1.48634;0.745534
1.48586;0.745486
1.48573;0.745477
1.48559;0.745466
1.48552;0.745458
1.48561;0.745458
1.48563;0.745456
1.48573;0.745463
1.48596;0.74547
1.48608;0.745469
1.48623;0.745479
1.48646;0.745501
1.48671;0.745516
1.48702;0.745532
1.48697;0.745532
1.48693;0.74554
1.48697;0.74555
1.48635;0.745522
1.48623;0.745519
1.48615;0.745511
1.48586;0.745489
1.48585;0.745482
1.48583;0.745469
1.48585;0.745464
1.486;0.745442
1.48604;0.74544
1.48612;0.745428
1.4859;0.745411
1.48567;0.745403
1.48569;0.74539
