28837
24495
23800
18290
23544
22859
35930
28856
20754
23599
23976
30794
28265
23432
34205
26678
24167
27197
23447
25574
22802
16916
24947
29801
22614
26543
18169
51397
24681
24122
20570
36302
23451
25851
27283
27572
25990
29517
3195
36777
24998
26936
33412
18348
35970
18515
28651
19902
21367
19242
15188
22532
32540
4574
27130
24150
47484
28822
6498
23140
34793
28393
6710
22598
40019
29191
48090
34935
28506
28026
54268
25878
7327
28600
37835
25727
40358
8753
8225
27350
26724
33685
5805
33444
31390
30920
7295
33530
7232
35773
13169
8449
9234
52847
15270
13579
8612
16830
7312
8415
12747
13154
9217
9824
12206
15310
7034
7511
7683
11701
18518
9915
9940
11943
9941
9836
7405
6759
17708
7115
11756
11013
12281
7671
7353
13647
11030
7465
7451
29235
19108
12230
21821
16070
13306
8878
16854
11844
13734
23682
18598
10206
11237
13569
10025
12219
11108
21635
54527
14266
13915
80110
99093
35026
39500
48034
99020
99187
99578
43201
62787
64112
46782
27227
30542
29801
35619
31320
34418
36898
41956
31926
39137
30108
33021
38196
38192
34865
34363
35224
31301
29166
32671
34752
30389
48686
29790
27910
28296
32941
38180
36332
27582
26850
34603
34122
28622
28322
33866
29458
27243
31934
27027
27546
23522
26987
25597
27566
25647
39706
31645
28571
38105
26446
34249
25343
35918
42351
37720
28545
24475
23647
41140
23729
30792
26341
36541
24925
28314
29438
38835
30811
25375
24933
27200
28545
36046
26474
39773
28870
32589
29320
32406
21541
27587
26442
30106
29237
31456
23659
32833
29194
24163
20783
27259
31605
30374
26722
33801
30344
17126
19525
19358
26013
21448
16810
19865
13285
12864
13062
15005
13879
13627
13496
13386
44252
29058
6920
5014
4964
6375
6110
6019
5321
5348
10093
12499
30621
10934
48430
20167
5220
3735
11691
3617
3637
13626
3639
12408
4984
6083
4050
3685
3612
3601
14261
3602
3688
3741
4507
3584
3818
4492
3561
3644
3607
3592
3908
3638
5751
3833
3576
3624
3875
3893
3669
3704
2992
4160
3085
4122
3280
3094
3687
3682
3019
3075
3216
3131
3139
3168
3124
3862
3779
3155
3248
3681
3882
3132
3204
3891
3196
3347
3093
3896
3066
3178
3795
3161
4081
3126
3805
3769
3122
3789
3736
4138
5745
4016
5681
3845
3716
3722
3778
3759
3757
5482
3781
3746
3787
4102
5071
4003
4932
5691
3821
3828
3759
3756
4495
3730
4078
3844
3708
3751
3753
3730
3845
3714
3894
3752
3847
4533
4815
4387
4866
4721
3877
3860
3768
3836
15154
21321
22807
26449
22306
35188
31431
22903
13842
13885
15368
24636
14487
14850
17719
16840
16157
15349
15489
14355
14738
14054
16479
13445
11983
5414
95331
18084
5794
4649
9679
12473
16774
15752
19143
10658
14081
8710
5934
7204
7061
6747
7993
9630
8539
10362
12547
14541
9757
13004
10459
6155
13329
12191
12292
13965
10945
12080
12058
8701
14038
8892
10281
13503
15070
15418
14477
15359
14903
14938
13382
13729
9674
9963
13267
10803
12274
16028
18267
10920
13518
56180
11539
15985
15043
13084
18705
14806
60410
39186
11762
17215
53685
49236
15477
15398
15874
43202
37920
33239
8591
8564
8627
12304
11193
40446
39670
11072
39003
15320
16800
66873
6021
6014
11421
6189
6230
6241
6234
12457
6024
6029
6396
6682
6584
7396
8290
44082
31820
35234
35987
29999
34605
27287
34994
29163
28474
27165
43333
29288
22905
25210
21011
30173
22184
22997
21272
20299
21753
21355
20449
24954
24663
23462
23446
6056
6153
5639
5458
5112
6070
5037
4808
4935
5870
4780
4754
4793
4125
4135
4215
4173
4165
5457
4200
4132
4161
4453
4203
4123
8497
31333
5377
5425
4934
4846
5793
4822
4210
4240
4175
4166
4776
4621
4168
4375
5731
7893
4795
4852
4125
4166
4133
6197
6702
5543
4892
5061
4817
4181
4243
4233
4092
4057
4139
6461
4796
4708
4729
4052
4054
4114
4034
4028
4060
3975
4020
6512
4104
22488
5966
4642
4600
4075
4023
6411
4107
30989
4090
4049
5519
4833
23286
4636
4027
6372
25070
4625
4472
4991
24494
8910
5972
4121
27423
10136
5753
4181
3997
3969
4356
25940
54285
7549
4005
4113
4010
4159
23738
47426
5690
4442
3934
4059
4040
24377
39468
4091
24402
30295
8850
4008
4575
4001
26658
41889
6789
3999
4441
3967
3931
4250
27439
23117
24744
8686
5068
3908
18968
21738
27065
6882
4010
4843
5158
4024
22598
23019
30182
24762
62753
5168
4385
21474
23097
23349
27283
5802
4189
24398
27039
24201
23818
24832
6874
5173
3996
23445
22461
26680
27401
5123
4088
39742
21957
22124
26778
6951
4136
21905
24256
8952
3994
5692
20850
24880
4812
23632
20939
3648
19005
25946
15211
14083
13791
17843
16392
15042
17031
15233
19052
14119
15794
13575
13388
12341
11208
11585
2306
17823
18973
20131
18272
16128
18822
17052
17248
14247
12491
13604
13470
13031
12382
13465
15706
12894
13027
20899
14787
13627
14239
16761
14844
14158
15953
15983
16038
16513
18470
19401
20634
21166
19425
18694
16574
21313
26139
21941
22747
21194
23629
19667
21306
20590
19604
17720
15969
22147
21805
22489
32392
25185
23194
27804
23928
25981
23561
24123
18347
18288
4584
14924
2795
2164
13481
17669
13577
19704
2228
12420
19990
19639
12273
17295
13751
12764
12221
12378
15205
22544
15977
17652
18965
19099
20956
23600
24953
24697
22651
31899
22922
34121
20526
22323
23415
28594
25160
24796
23122
21702
23380
24408
20743
20081
24038
22502
19911
22492
20059
18821
15802
19316
17672
15961
15800
15810
14864
18933
20367
17761
17952
18002
13289
13196
2718
13493
12414
12531
14750
14132
16432
15236
15508
14308
17231
2163
2242
20448
18875
26586
20838
21104
28897
23497
30864
22712
21908
22867
28924
26569
27082
16331
17617
15418
13603
2778
2849
2750
4165
2192
17339
11741
17662
13813
10417
10412
12966
13253
12625
25092
