33539
92478
17033
16465
18565
65317
16288
16138
16429
17487
20525
133978
264240
24019
20491
20030
21882
21924
45795
57426
35980
129038
23791
31996
29269
23194
27612
83871
22734
50841
24718
27283
56817
27666
58163
26640
22414
25889
27074
100008
20390
20695
607575
18122
82273
27815
23323
24616
24350
24464
23499
75980
19808
63006
94172
60237
226845
29602
29895
25916
30955
24877
45016
37498
32535
30702
121912
26453
98028
21263
23741
59662
35534
88599
37534
97033
33001
53305
32922
26572
29991
27116
65219
165837
31606
283642
51840
48475
37378
137897
260622
108076
36500
115569
28439
56897
21999
25183
38309
92973
31368
29103
26797
61922
53746
31150
18658
58404
20101
27942
26707
35638
27829
46291
206695
22570
27955
31929
15941
40653
19869
143303
21065
29086
20339
19744
19681
132356
19969
20388
51351
108495
56085
17030
51291
40268
21224
20033
85598
59041
73049
30079
22003
54570
106376
89672
26612
24184
98702
25315
63507
81718
112189
26070
57695
222207
19681
35186
20829
22479
20106
21399
46541
21142
64453
29121
20880
21501
22966
26980
21669
47319
23530
24156
33017
20887
21544
33012
25970
20384
20518
25916
109923
22239
20978
23363
82339
35168
47268
25229
22483
23113
21184
23062
19195
23508
20056
20730
19189
19011
20430
18980
19249
19591
15553
14890
13539
19443
41843
19247
13330
18654
25896
20337
13670
13300
17892
186560
34879
14900
13944
58266
53981
16859
82785
18819
31668
26304
16697
28352
39919
13881
93031
15934
60781
31625
18028
21088
33431
14341
32111
18322
30661
39429
27029
28437
71141
22922
96304
811888
46883
202071
31414
23146
22051
46873
20792
27956
39514
32685
29324
26353
31900
33297
29038
20970
69103
21382
35448
23421
21503
21874
53644
21978
77876
25523
19696
21467
25978
58582
132799
27523
27985
21724
20957
23135
92646
82385
25132
21134
48269
22970
212286
18945
47428
93473
32935
56429
90713
17434
19960
68812
32201
26171
17367
51101
41761
107409
27534
36057
34725
29531
21181
39377
21509
69423
14837
23215
22328
40523
33876
108523
15777
24046
29821
32303
109663
147547
25351
116956
38310
29870
49797
27252
28453
24899
18518
78124
120659
26327
120437
26259
41790
30022
38055
34456
45138
41078
91599
37997
41563
29633
28518
28908
41888
37436
25308
16429
15860
32650
28336
26806
31588
20569
20176
20003
18519
18584
24274
22263
20283
38241
144100
23412
27269
89409
15470
105703
17599
24184
21633
17057
19599
16883
17467
17186
17159
14868
137244
26886
21253
21060
90677
14549
25994
30856
17079
16120
43436
24542
25842
24141
138886
203640
11696
48263
17980
23049
14200
50996
20386
30022
18699
56935
42533
14847
48268
83714
202204
16149
125075
34493
18193
92005
206512
19234
24793
57142
176759
20443
20102
58484
37826
23188
48022
22870
22079
22971
20617
20674
142473
37112
36925
20414
20528
20488
20748
23742
17813
21660
18613
48723
72866
33128
51974
23225
27498
48953
34371
20028
34437
21113
27760
95521
99089
33846
30566
60669
47782
46013
62225
71571
20855
43193
19451
37912
19733
97002
102542
39447
36083
18727
19112
14690
66382
60611
86153
39482
49442
83601
50278
42659
22087
40373
35414
62401
126699
33935
14987
142870
15166
19253
82692
19636
95346
36817
21848
33835
42527
24382
23589
22613
64135
20267
19931
17505
15464
142342
196047
57166
76207
19110
20849
28763
44959
19422
60279
20686
18721
20477
20639
16124
15296
56766
88742
19286
36936
31564
21730
44034
21749
14631
18440
15470
26691
26478
21808
51860
21339
20509
21363
75961
20754
21182
44783
23078
21364
18811
39054
28476
79863
21500
23322
62326
35741
21599
22647
22988
35946
28185
25678
18158
18535
22358
21185
93992
29064
72015
34953
20751
41390
89272
37443
50216
31145
20858
37354
30777
26282
36682
33568
45078
37744
152342
19539
107429
66709
70659
111375
26030
28149
27425
26097
82550
707253
31434
53877
58713
60457
91679
51640
51403
26602
45142
62921
24382
22732
20318
17621
18058
19149
38806
22384
35480
22798
24197
18189
22973
20133
31172
18272
248709
27752
21739
25149
29004
26314
190152
31576
16483
29782
31500
23278
33420
43848
22387
46149
91654
17639
24599
43295
14431
33561
66115
78685
72041
38578
14679
16907
13818
168819
63039
105704
13173
13071
13171
37619
36994
29520
13041
13329
13210
39906
25562
23723
11768
13629
13420
25984
28025
88235
11775
12958
17134
14827
45165
27425
12465
13806
13091
25844
94058
26725
12354
13811
12805
61203
49916
40372
16846
14213
13349
70527
19078
35275
13382
12107
13480
34814
20826
32703
28937
27165
37356
34113
27921
93316
28093
25191
21366
26723
21305
21778
23696
30048
27754
60059
13435
13614
16739
21803
17753
58401
29152
14233
19158
23379
41795
38522
47780
60903
34003
24345
88267
23799
55462
89979
22159
73595
15711
20464
93533
21764
19844
45419
20183
22056
48210
58780
21136
100696
31135
81079
44698
39000
34737
29845
104552
66231
26394
82075
46323
45061
43463
72106
16134
30480
43384
16602
110394
246050
42119
45154
19586
20212
19987
21078
18537
23040
108570
27159
144137
126477
137195
58527
50513
47740
21361
21331
71479
29643
37485
275295
21427
51282
19509
20114
27458
23970
261431
33213
20961
31726
29276
28714
22861
21429
24511
21694
30885
69075
22301
21468
22511
32665
42831
85120
169635
95805
44826
58509
20377
20437
19332
67749
59685
21538
33512
21305
24338
20859
21196
21623
372168
67438
58810
24515
73490
15934
84236
156579
40369
46943
36812
38905
18572
28726
49911
147941
25814
26277
31449
19447
205443
46573
22927
17457
134400
37344
113585
18006
44867
27633
20265
146240
227982
27981
17080
29565
20726
24075
33271
19006
71449
54619
34165
49327
26041
29351
39412
27026
54755
51244
24977
65465
26386
19313
20162
23765
20667
30478
20854
21790
82455
32051
24581
23325
26062
38128
38368
66332
15817
39289
35031
23327
23503
23297
23592
26224
20528
19408
20677
20954
23569
27859
19718
20158
20291
42793
32329
22744
22382
20364
25333
24905
24180
29554
40850
20894
19185
89017
27416
42422
25828
27466
276754
39583
23017
11924
113737
16943
62032
162773
25095
13042
40845
43690
22284
13386
26026
126571
29112
122107
41364
19420
20166
19428
20504
19543
24889
38832
19351
54380
22970
21902
23530
22606
89817
20970
34827
24948
20644
21054
21297
21108
20634
16525
19195
19183
99503
22270
21610
20937
23607
20564
19644
23029
89426
35384
103883
87030
21035
14310
16125
17724
16307
68838
145984
15948
19386
17332
16120
16118
19923
17535
17582
15400
44870
89306
22128
20896
19632
33849
20365
55201
13731
16107
14477
168343
22670
41801
15594
30249
35981
19902
29976
124187
20464
16392
20932
15706
20658
16100
28622
16317
20576
15338
20685
15871
28768
15485
21410
22122
16843
16374
93346
63943
96519
209821
247953
120571
16329
318991
101392
14246
16043
16235
15339
14525
14229
14428
29134
16992
25834
15824
20420
14403
20758
21391
16258
37737
14618
32595
14138
18399
15841
16338
16985
14943
14240
14945
14952
14306
14859
14295
37498
15433
29164
21181
16303
29390
25000
23542
14898
28497
14917
20595
14238
18218
29478
20742
35544
23652
20804
15531
29136
15625
38046
15760
28403
15822
56437
32187
15218
20503
14646
27449
