0.00323533
0.00200643
0.00228797
0.00425536
0.00371667
0.00200411
0.00189445
0.00186064
0.00193468
0.00302583
0.0023052
0.00227196
0.00189978
0.00200024
0.0018816
0.00187769
0.00195023
0.00194986
0.0018173
0.00299724
0.00181749
0.00181864
0.00181756
0.00191961
0.00192919
0.00159002
0.00171398
0.00242782
0.00169728
0.00166468
0.00161062
0.00136903
0.00140736
0.00141542
0.00138717
0.00157048
0.0014799
0.00149217
0.00138538
0.00151216
0.0014596
0.0014613
0.00142244
0.00145127
0.00146755
0.00109019
0.00105398
0.00100971
0.00103967
0.000966442
0.000956734
0.00111276
0.00104388
0.00106212
0.000975198
0.0011258
0.000960781
0.00102421
0.000974767
0.00103014
0.000963988
0.00100893
0.00111232
0.00102208
0.00112138
0.00106088
0.00109923
0.000757851
0.000734668
0.000779692
0.000855594
0.00085327
0.000815339
0.000812633
0.000778069
0.000824105
0.000814667
0.000841478
0.00089105
0.000796353
0.000747151
0.000851577
0.000785322
0.000804699
0.000875812
0.000821661
0.00081637
0.000904646
0.000786766
0.000824285
0.00153995
0.000787437
0.000838061
0.00114315
0.000851457
0.000808836
0.000824957
0.000768661
0.00081055
0.000886242
0.000827491
0.000848
0.000838151
0.000772839
0.000789941
0.000961383
0.00105353
0.000835446
0.000926307
0.00088556
0.000807274
0.000984837
0.000815429
0.000783709
0.000962725
0.000867326
0.00103051
0.00082158
0.000989876
0.00102709
0.000958958
0.00151807
0.00125303
0.00128509
0.013917
0.0153363
0.0136024
0.011136
0.00847292
0.0205144
0.00985148
0.0116899
0.00311999
0.00578109
0.00106423
0.00618447
0.00157893
0.00613101
0.00697247
0.00159559
0.00110535
0.00124206
0.00128008
0.00117989
0.00895291
0.0012651
0.00125469
0.00120488
0.0134191
0.00155215
0.00263996
0.00173715
0.0158642
0.00416266
0.0028737
0.00242259
0.00238168
0.00242185
0.0022357
0.00217421
0.00200805
0.0021313
0.00258509
0.00213302
0.00242608
0.00185587
0.00333245
0.00281471
0.00319596
0.0080743
0.0103173
0.00761723
0.0133791
0.0021596
0.00242879
0.00217411
0.00211723
0.00217892
0.00718158
0.00662916
0.00526212
0.00569496
0.00547175
0.0130057
0.00749657
0.0154689
0.00707993
0.0116064
0.00253752
0.00315387
0.00861287
0.00198746
0.0019811
0.00184449
0.00323671
0.00200277
0.00177362
0.00362194
0.00176667
0.00927273
0.00836038
0.00197133
0.00202534
0.00915664
0.00211813
0.00329835
0.00867202
0.00272291
0.00436733
0.0020511
0.0100091
0.0131074
0.00991273
0.011371
0.0109758
0.0109551
0.011468
0.00207636
0.00884834
0.00888371
0.00191149
0.00174746
0.00702875
0.00179561
0.00170217
0.00157069
0.00342623
0.00171377
0.00257574
0.00570745
0.00205642
0.00741617
0.0019282
0.00184936
0.00159069
0.00838853
0.00576223
0.00168546
0.00170744
0.0015117
0.00564983
0.00297399
0.00164285
0.00701441
0.00169893
0.00277636
0.00159131
0.00298989
0.00159357
0.00906208
0.00155064
0.00805872
0.0016092
0.00999882
0.00251895
0.00244558
0.00154147
0.00666922
0.00206753
0.0028615
0.0022077
0.0068071
0.00226324
0.00908305
0.00281655
0.00374022
0.00217211
0.00768611
0.00222152
0.00901062
0.00224078
0.00719748
0.00402776
0.0182045
0.00237595
0.00709882
0.00225755
0.00149142
0.00831899
0.00216743
0.00759142
0.00333518
0.0137045
0.0019132
0.00787768
0.00229214
0.00250155
0.00237587
0.0102172
0.00238
0.00961256
0.00990985
0.0031609
0.00871997
0.00161326
0.0078376
0.00851584
0.00193072
0.00663306
0.00193106
0.00776908
0.00990209
0.00320101
0.0109354
0.00746924
0.0112187
0.0107525
0.00733056
0.00200676
0.00792343
0.00876824
0.0016105
0.00677436
0.0108598
0.0043259
0.00202182
0.00731938
0.0138451
0.0075865
0.00680576
0.00189686
0.00723662
0.00898872
0.00194464
0.00804721
0.00221808
0.00781045
0.00665266
0.00706712
0.00917125
0.00188472
0.0056292
0.00382879
0.00637721
0.0116378
0.00152258
0.00749354
0.0078989
0.00994851
0.00448767
0.00450044
0.00519681
0.00644405
0.00693909
0.00630438
0.00822656
0.0156712
0.00149003
0.00570136
0.00646883
0.00717768
0.00595088
0.00859785
0.00518601
0.00593067
0.00467707
0.00476904
0.0054436
0.00659903
0.00688376
0.00834367
0.00764786
0.00466408
0.00524657
0.00531199
0.00542962
0.00593192
0.0101443
0.00765712
0.00693438
0.00867587
0.0107073
0.00184919
0.00615114
0.0085741
0.00774002
0.00152162
0.00538513
0.00186342
0.007467
0.00664726
0.0061093
0.0152209
0.00735791
0.00571431
0.00676509
0.00667065
0.00614283
0.00654455
0.00696711
0.00732225
0.0069338
0.00801574
0.00861889
0.00208721
0.00303873
0.00853907
0.00596428
0.0055498
0.00638811
0.00574828
0.00514964
0.00661118
0.00621165
0.00679323
0.00748385
0.012056
0.00716147
0.0075365
0.00756706
0.0102718
0.00272518
0.00857424
0.00603191
0.00607964
0.00642934
0.00149052
0.00527367
0.00736441
0.00490054
0.00407269
0.0040708
0.00473675
0.00396873
0.00483533
0.00452657
0.0058033
0.00791684
0.00523522
0.00576596
0.00864673
0.0092342
0.00389297
0.0044825
0.00397807
0.00404571
0.00410774
0.0043503
0.00665874
0.00778619
0.00437908
0.00408778
0.00418643
0.00465844
0.00400317
0.00407139
0.00447807
0.00392343
0.00597407
0.00472697
0.00425277
0.00398846
0.00532168
0.00399285
0.00703395
0.0039229
0.00593828
0.00534163
0.00636064
0.00736738
0.0068914
0.0044358
0.00452891
0.00391507
0.00407928
0.00407591
0.00419285
0.00450577
0.00424421
0.0068675
0.0050564
0.00469197
0.00531601
0.00391866
0.00427812
0.00411914
0.00431433
0.00411645
0.00427344
0.00416466
0.00209702
0.00841183
0.00865426
0.00726999
0.00432846
0.00439654
0.00400264
0.00709718
0.00481188
0.00432275
0.00354251
0.00395481
0.00705014
0.00889638
0.00675562
0.00409716
0.00829906
0.0043391
0.00441569
0.00560861
0.00553433
0.00529373
0.00639599
0.00609511
0.00613063
0.0061164
0.00659949
0.00647457
0.00794406
0.00636298
0.00727485
0.00692096
0.00711522
0.00625157
0.00833053
0.00586875
0.0106485
0.00712126
0.00782932
0.00902258
0.00870734
0.00638295
0.00563517
0.00598936
0.00698156
0.00714116
0.00423678
0.00654303
0.00449156
0.00704321
0.00441524
0.00606588
0.00448966
0.00639686
0.00835287
0.00669957
0.00436952
0.00654211
0.00397331
0.00435365
0.00475172
0.00445278
0.00472535
0.00550935
0.0103353
0.00653868
0.00630233
0.00643584
0.0064615
0.00685904
0.00651145
0.00740932
0.0104567
0.00870372
0.00826695
0.00833752
0.00750999
0.00885778
0.00717422
0.00754997
0.00700378
0.00820427
0.00865094
0.00598049
0.00773866
0.00989446
0.00634792
0.006101
0.00551637
0.00550898
0.00555785
0.00577051
0.0070759
0.00612971
0.00601415
0.00561606
0.00560261
0.00607398
0.00621157
0.00703707
0.0063351
0.00961226
0.0061673
0.00789403
0.00627856
0.00653612
0.00567389
0.00652795
0.00737801
0.0068395
0.00710029
0.00640395
0.00666249
0.00590595
0.00743233
0.00165781
0.00931983
0.00718536
0.00785088
0.00426235
0.0110856
0.00463863
0.00756575
0.00489847
0.00488718
0.0143928
0.00586119
0.00488358
0.00406912
0.00562492
0.00411366
0.0038638
0.00480426
0.00514318
0.00495887
0.00493547
0.00482983
0.00538339
0.0045851
0.00465911
0.0103179
0.00391297
0.00443501
0.0104625
0.00807869
0.00391485
0.00434758
0.00997743
0.00769966
0.00494596
0.00448055
0.00643913
0.00451324
0.00431117
0.00405135
0.0045361
0.00542077
0.00710229
0.00631678
0.00475721
0.0104831
0.00570548
0.00695783
0.00747151
0.00947299
0.00954391
0.0085476
0.00704249
0.00977917
0.00752008
0.00709916
0.0077522
0.0081879
0.00760108
0.00782195
0.00691688
0.00737466
0.00786199
0.0071039
0.00570836
0.00763355
0.00639109
0.00689161
0.00935869
0.00631044
0.00566789
0.00471003
0.00541519
0.00529401
0.0052333
0.00495993
0.0046005
0.00487588
0.00883424
0.0046325
0.00462295
0.00688983
0.00630784
0.00528135
0.00617427
0.00556288
0.00568156
0.00559198
0.00952854
0.00577339
0.00604499
0.0066885
0.0059456
0.00672348
0.00592895
0.00539863
