-0.000244201;0.502338
-0.000265919;0.502321
-0.000313447;0.497989
-0.000431376;0.493282
-0.000620681;0.488604
-0.000609828;0.488597
0.000457081;0.49544
0.00113242;0.498946
0.00316178;0.505617
0.00587869;0.51214
0.00935464;0.518412
0.0113234;0.521465
0.015897;0.527409
0.0183674;0.530259
0.0238946;0.535712
0.0268062;0.538316
0.0298323;0.540847
0.0362574;0.545665
0.043109;0.550011
0.0466449;0.552042
0.0540908;0.555812
0.0579514;0.557485
0.0659158;0.560669
0.0741099;0.563476
0.0783548;0.564761
0.0869839;0.567092
0.0913955;0.56816
0.100328;0.570062
0.109457;0.571743
0.114075;0.572495
0.12337;0.573884
0.132778;0.57511
0.137549;0.575668
0.147115;0.576669
0.151927;0.577144
0.161612;0.578013
0.166491;0.578408
0.176235;0.579171
0.186013;0.579865
0.190922;0.580199
0.20076;0.58082
0.205692;0.581114
0.215543;0.581648
0.225416;0.582173
0.230378;0.58243
0.240288;0.582912
0.2502;0.583378
0.25515;0.583609
0.265071;0.58405
0.270055;0.584263
0.279957;0.584668
0.289876;0.585069
0.294841;0.585254
0.304765;0.585618
0.314695;0.585983
0.319663;0.58616
0.329369;0.586533
0.334097;0.586766
0.342831;0.587414
0.351355;0.588453
0.355584;0.589124
0.364099;0.590816
0.368355;0.591807
0.377203;0.594152
0.386516;0.596836
0.391294;0.598224
0.400453;0.600818
0.409466;0.603174
0.413938;0.604242
0.422935;0.606198
0.427481;0.607087
0.436631;0.608691
0.441253;0.609413
0.450546;0.610695
0.45524;0.611269
0.464689;0.612306
0.474174;0.613184
0.478947;0.613562
0.488508;0.614212
0.493325;0.614497
0.502975;0.614963
0.507816;0.615153
0.517514;0.61547
0.52725;0.615693
0.532124;0.615769
0.541897;0.615867
0.546785;0.615895
0.556574;0.615892
0.566384;0.615827
0.571302;0.615768
0.581129;0.615625
0.590978;0.615435
0.595907;0.615316
0.605769;0.615048
0.61564;0.614736
0.62058;0.614566
0.630453;0.614197
0.635391;0.613997
0.645271;0.613577
0.655157;0.613124
0.660105;0.612887
0.669991;0.612388
0.674932;0.612127
0.684823;0.611583
0.694713;0.611011
0.704599;0.610412
0.709538;0.610105
0.719422;0.609455
0.724371;0.609114
0.734251;0.608463
0.739194;0.608113
0.749078;0.607398
0.758985;0.606672
0.763921;0.606297
0.773809;0.60551
0.778745;0.605088
0.788609;0.604265
0.798476;0.603414
0.803407;0.602975
0.813279;0.602107
0.823155;0.601204
0.832909;0.600303
0.842273;0.599542
0.850123;0.59912
0.857601;0.599074
0.861807;0.599254
0.870301;0.599949
0.87456;0.600488
0.883196;0.601837
0.887536;0.602676
0.896937;0.604695
0.901763;0.605737
0.906588;0.606801
0.911292;0.607798
0.920487;0.609626
0.929683;0.611232
0.934279;0.611952
0.943518;0.613198
0.948163;0.613751
0.957482;0.614676
0.962156;0.615064
0.971561;0.615705
0.981003;0.616156
0.985738;0.616304
0.995231;0.616478
1.00476;0.61649
1.00953;0.616441
1.01907;0.616237
1.02865;0.615871
1.03344;0.615639
1.04304;0.614964
1.04784;0.614564
1.05745;0.613809
1.06226;0.613383
1.07188;0.612438
1.08149;0.611374
1.0863;0.610804
1.0959;0.60958
1.10549;0.608247
1.11029;0.607547
1.11987;0.606065
1.12466;0.605295
1.13424;0.60366
1.13903;0.602804
1.14857;0.601039
1.15813;0.599174
1.1629;0.598208
1.17243;0.596205
1.17718;0.595169
1.18667;0.593026
1.19141;0.591923
1.20089;0.589667
1.20562;0.588504
1.21507;0.586126
1.21978;0.584903
1.22919;0.582397
1.2339;0.581112
1.24327;0.57848
1.25263;0.575763
1.25729;0.574387
1.26661;0.571549
1.27127;0.570106
1.28055;0.567144
1.28981;0.564139
1.29442;0.562593
1.30362;0.559422
1.30821;0.557806
1.31279;0.556179
1.32194;0.552843
1.3265;0.551143
1.33104;0.549421
1.34009;0.545939
1.34462;0.544161
1.34913;0.542362
1.35811;0.538678
1.3626;0.536806
1.37153;0.532999
1.37597;0.531064
1.38041;0.529104
1.38924;0.52511
1.39365;0.52308
1.39804;0.521018
1.40677;0.516839
1.41112;0.514713
1.41979;0.510404
1.42409;0.508212
1.4284;0.505997
1.43669;0.501646
1.4406;0.499549
1.44787;0.495562
1.45102;0.4938
1.4539;0.492164
1.45677;0.490512
1.46227;0.487278
1.465;0.485653
1.46915;0.48312
1.47092;0.48202
1.47267;0.480904
1.47566;0.478978
1.47713;0.478019
1.47843;0.47715
1.48005;0.476062
1.48063;0.475656
1.48205;0.474664
1.48279;0.474128
1.48353;0.473588
1.48478;0.472666
1.48538;0.472216
1.48638;0.471459
1.48677;0.471156
1.48717;0.470843
1.48773;0.470399
1.48797;0.470205
1.48836;0.469882
1.48849;0.469773
1.4887;0.4696
1.48899;0.469343
1.48908;0.469257
1.48914;0.469212
1.48903;0.469305
1.48903;0.469304
1.48902;0.469309
1.48917;0.469175
1.48922;0.469133
1.48924;0.469108
1.48957;0.468779
1.48957;0.468773
1.48881;0.46956
1.4878;0.4706
1.4868;0.471636
1.48624;0.472234
1.48607;0.472416
1.48591;0.472595
1.48579;0.472719
1.48574;0.472772
1.48571;0.472797
1.48573;0.472777
1.48578;0.472714
1.48576;0.472744
1.48584;0.472643
1.48592;0.472546
1.48579;0.472694
1.48569;0.472822
1.48559;0.472942
1.48521;0.47341
1.48502;0.473647
1.48484;0.473877
1.48456;0.474237
1.48442;0.474431
1.48416;0.474774
1.48383;0.475233
1.4835;0.475686
1.4832;0.476069
1.48309;0.47621
1.483;0.476341
1.48299;0.476354
1.48299;0.476351
1.48274;0.476703
1.48266;0.47684
1.48254;0.477016
1.48245;0.477149
1.48242;0.477198
1.48233;0.477322
1.48222;0.477497
1.48218;0.477557
1.48207;0.477737
1.48211;0.477672
1.48215;0.477613
1.48209;0.477709
1.48202;0.477834
1.48188;0.478076
1.48184;0.47813
1.4818;0.478212
1.48174;0.478301
1.48171;0.47837
1.48167;0.47844
1.48147;0.478796
1.48135;0.47903
1.48122;0.479269
1.48091;0.479865
1.4808;0.480063
1.48069;0.480259
1.48063;0.48038
1.48061;0.480411
1.48054;0.480539
1.48018;0.481259
1.47999;0.481644
1.47971;0.482266
1.4796;0.482515
1.4795;0.482716
1.47935;0.483048
1.47929;0.483183
1.47923;0.483307
1.47913;0.483474
1.47904;0.483668
1.47879;0.484235
1.47874;0.484352
1.47867;0.484484
1.47842;0.485069
1.47837;0.485173
1.47824;0.485495
1.4782;0.485584
1.47816;0.485678
1.47812;0.485776
1.47808;0.485843
1.478;0.486001
1.47792;0.486213
1.47783;0.486416
1.47772;0.486692
1.47767;0.486828
1.47748;0.487319
1.47732;0.487716
1.47718;0.488111
1.47703;0.488497
1.47697;0.488659
1.4769;0.488837
1.47684;0.489003
1.47677;0.489204
1.47664;0.489556
1.47663;0.489601
1.4766;0.48966
1.47655;0.489807
1.47651;0.489922
1.47647;0.490036
1.47653;0.489828
1.47658;0.489711
1.47661;0.489587
1.47661;0.489595
1.4766;0.489622
1.47653;0.489811
1.47644;0.490104
1.47635;0.490386
1.4762;0.490829
1.47615;0.491
1.47602;0.491433
1.47599;0.491543
1.4759;0.491827
1.47584;0.492002
1.47605;0.491274
1.47604;0.49135
1.47596;0.491599
1.47571;0.492485
1.47552;0.493111
1.47538;0.493604
1.47536;0.49369
1.47531;0.493844
1.47529;0.493909
1.47514;0.494459
1.475;0.494918
1.47501;0.494877
1.47504;0.49476
1.47509;0.494576
1.47511;0.494503
1.4751;0.494528
1.47507;0.49464
1.47505;0.49469
1.47501;0.494825
1.47498;0.494911
1.47497;0.494957
1.47497;0.494941
1.475;0.494822
1.475;0.494769
1.47499;0.494843
1.47496;0.494959
1.4749;0.495277
1.47479;0.49575
1.47466;0.496327
1.47464;0.496443
1.47459;0.496643
1.47462;0.496503
1.47462;0.49643
1.47463;0.496399
1.47463;0.496385
1.47461;0.496434
1.47477;0.49573
1.47494;0.494982
1.47505;0.494531
1.47502;0.494666
1.47501;0.494754
1.47495;0.495067
1.47495;0.495057
1.47494;0.495011
1.47495;0.49498
1.47487;0.49537
1.47484;0.495526
1.47477;0.495876
1.47474;0.49601
1.47469;0.49626
1.47469;0.496257
1.47471;0.496205
1.4747;0.496166
1.4747;0.496185
1.47468;0.496295
1.47464;0.496515
1.47462;0.496621
1.47459;0.496773
1.47456;0.497008
1.47453;0.497204
1.47453;0.497237
1.47451;0.497271
1.4745;0.497285
1.47449;0.497334
1.47447;0.497479
1.47445;0.497592
1.4744;0.49786
1.47439;0.497914
1.47438;0.497974
1.47436;0.498011
1.47436;0.498042
1.47434;0.498152
1.47431;0.498321
1.47426;0.498636
1.47419;0.49903
1.47418;0.499168
1.47414;0.49931
1.47414;0.499357
1.47406;0.499854
1.47398;0.500314
1.474;0.500274
1.474;0.500257
1.47403;0.500143
1.47405;0.500076
1.47402;0.50042
1.47397;0.500803
1.47395;0.500925
1.47394;0.501064
1.47393;0.501091
1.47393;0.501092
1.47394;0.501012
1.47394;0.500952
1.47395;0.500917
1.47397;0.500842
1.47399;0.500732
1.474;0.500618
1.47401;0.500542
1.47401;0.500565
1.47398;0.500725
1.47394;0.500925
1.47391;0.501046
1.47391;0.500946
1.47391;0.500902
1.47392;0.500811
1.47393;0.500753
1.47396;0.500574
1.47398;0.500418
1.47398;0.500347
1.47397;0.500414
1.47396;0.500566
1.47394;0.500777
1.47393;0.500835
1.47393;0.500755
1.47392;0.501026
1.47386;0.50151
1.47386;0.501542
1.47379;0.502212
1.4737;0.502866
1.47366;0.503212
1.47364;0.503325
1.47365;0.503234
1.47368;0.50306
1.47368;0.503004
1.47368;0.502878
1.47369;0.502841
1.4737;0.502725
1.47371;0.502617
1.47374;0.50236
1.47374;0.502321
1.47372;0.502543
1.47366;0.503062
1.47365;0.503165
1.47364;0.503247
1.47365;0.503153
1.47366;0.503117
1.47366;0.503096
1.47366;0.503044
1.47366;0.503006
1.47371;0.502718
1.47371;0.502663
1.47373;0.502532
1.47374;0.502471
1.47379;0.502139
1.4738;0.501958
1.47383;0.501664
1.47387;0.501331
1.47382;0.501666
1.47376;0.502491
1.47372;0.502928
1.47373;0.502916
1.47372;0.50305
1.47373;0.503082
1.47376;0.502967
1.4738;0.502726
1.47381;0.502586
1.47392;0.501573
1.47401;0.500695
1.47405;0.500453
1.47413;0.499832
1.47417;0.499466
1.47421;0.499063
1.47422;0.498923
1.47422;0.498905
1.47422;0.498935
1.47429;0.49827
1.47435;0.49787
1.47435;0.497769
1.47436;0.497805
1.47434;0.497948
1.47431;0.498288
1.4743;0.498372
1.47428;0.498537
1.47429;0.498521
1.47427;0.498574
1.47426;0.498631
1.4742;0.498969
1.47413;0.499551
1.47415;0.499245
1.47418;0.498794
1.47418;0.498842
1.47419;0.498749
1.4742;0.498633
1.4742;0.498455
1.47421;0.498343
1.47423;0.498194
1.47427;0.497463
1.47403;0.499538
1.47373;0.502648
1.47364;0.503527
1.47363;0.503738
1.47363;0.503742
1.47366;0.50351
1.47367;0.503239
1.47366;0.503181
1.47368;0.503118
1.47371;0.502793
1.47375;0.502272
1.47379;0.501886
1.47385;0.501316
1.47385;0.501223
1.47386;0.501208
1.47386;0.501287
1.47387;0.501209
1.47387;0.501207
1.47393;0.500687
1.47399;0.499891
1.474;0.499737
1.47404;0.49928
1.47409;0.49868
1.4741;0.498547
1.47411;0.498573
1.47412;0.49852
1.47412;0.49843
1.47413;0.498388
1.47391;0.501039
1.47365;0.503831
1.47299;0.510391
1.47283;0.512579
1.47285;0.512443
1.4729;0.511892
1.47296;0.511219
1.47313;0.509782
1.4732;0.509109
1.47328;0.508444
1.47342;0.507363
1.47353;0.506395
1.47358;0.505986
1.47363;0.505487
1.47367;0.505148
1.47373;0.504558
1.47376;0.504262
1.47381;0.503817
1.47381;0.503664
1.4738;0.503787
1.47377;0.504119
1.47377;0.50402
1.47378;0.503708
1.4738;0.503532
1.47383;0.503258
1.47389;0.502577
1.47397;0.501914
1.47405;0.501358
1.47409;0.5012
1.47409;0.501247
1.47408;0.501273
1.47411;0.500916
1.47412;0.500743
1.47413;0.500634
1.47413;0.500605
1.47413;0.500563
1.47412;0.500634
1.47414;0.500561
1.47414;0.500521
1.47418;0.500413
1.47418;0.500344
1.47418;0.50026
1.47403;0.501414
1.47397;0.502198
1.47371;0.504518
1.47353;0.506565
1.47345;0.507459
1.47344;0.507526
1.47349;0.506605
1.47355;0.505878
1.47363;0.505059
1.47366;0.50468
1.47371;0.50405
1.47373;0.50379
1.47375;0.503477
1.47377;0.503425
1.47379;0.503168
1.47382;0.502914
1.47382;0.502814
1.47389;0.501861
1.47392;0.501677
1.47394;0.501346
1.47396;0.501194
1.47399;0.500926
1.47401;0.500833
1.47402;0.500641
1.47401;0.500625
1.47399;0.500682
1.47397;0.500737
1.47396;0.500743
1.47395;0.500748
1.47394;0.500685
1.47393;0.50068
1.47394;0.500664
1.47393;0.50069
1.47393;0.500704
1.47395;0.50043
1.474;0.499933
1.47402;0.499905
1.47402;0.499927
1.47402;0.500044
1.47402;0.500098
1.474;0.500274
1.47399;0.500358
1.47398;0.500402
1.47397;0.500361
1.47399;0.500313
1.47399;0.500319
1.474;0.500284
1.47401;0.500243
1.47402;0.500139
1.47402;0.500129
1.47404;0.500103
1.47404;0.500094
1.47403;0.500169
1.47402;0.500194
1.47402;0.50023
1.47402;0.500288
1.47402;0.500342
1.47402;0.5004
1.474;0.500495
1.47399;0.500539
1.47398;0.500563
1.47395;0.500569
1.47394;0.500578
1.47393;0.500583
1.47392;0.500621
1.47392;0.500638
1.47391;0.500659
1.47389;0.50069
1.47388;0.5007
1.47387;0.500771
1.47386;0.500838
1.47386;0.500874
1.47386;0.500886
1.47386;0.500966
1.47385;0.501029
1.47385;0.501041
1.47386;0.500849
1.47386;0.500889
1.47386;0.500908
1.47386;0.500852
1.47387;0.500832
1.47387;0.500809
1.47385;0.500889
1.47385;0.500871
1.47385;0.500917
1.47386;0.500839
1.47386;0.500838
1.47386;0.500826
1.47384;0.501065
1.47383;0.501313
1.47383;0.501411
1.47384;0.501411
1.47384;0.501416
1.47383;0.501509
1.47382;0.501791
1.47381;0.501949
1.4738;0.502102
1.47377;0.5023
1.47376;0.50243
1.47373;0.502969
1.47371;0.503222
1.47371;0.503217
1.47373;0.50294
1.47373;0.50282
1.47368;0.503274
1.47365;0.503454
1.47364;0.503636
1.47363;0.503858
1.47364;0.503857
1.47365;0.503709
1.47366;0.503576
1.47366;0.503631
1.47364;0.503729
1.47363;0.503824
1.47365;0.503738
1.47366;0.503677
1.47368;0.50366
1.47369;0.503738
1.47368;0.50381
1.47366;0.503939
1.47366;0.503857
1.47367;0.503786
1.47367;0.503743
1.47367;0.50368
1.47368;0.503505
1.47369;0.503431
1.4737;0.503366
1.47373;0.502985
1.47374;0.502821
1.47372;0.502964
1.47372;0.502988
1.47372;0.503006
1.47373;0.503023
1.47372;0.503053
1.47376;0.502491
1.47378;0.502143
1.47379;0.501785
1.47381;0.50153
1.47382;0.501404
1.4738;0.501694
1.47379;0.501768
1.47378;0.501852
1.47378;0.501857
1.47376;0.501924
1.47376;0.501998
1.47377;0.501935
1.47378;0.501916
1.47378;0.501923
1.47377;0.501897
1.47377;0.501884
1.47377;0.501901
1.47378;0.501838
1.47379;0.501735
1.4738;0.501644
1.47379;0.501726
1.47379;0.501808
1.47381;0.501846
1.47381;0.501891
1.47383;0.501995
1.47384;0.50204
1.47383;0.502202
1.4738;0.50257
1.47377;0.50297
1.4738;0.502605
1.47383;0.502471
1.47386;0.502377
1.47382;0.502951
1.47378;0.503554
1.47379;0.50326
1.47378;0.503199
1.47377;0.503225
1.47375;0.503443
1.47374;0.503499
1.47374;0.503567
1.47373;0.503845
1.47373;0.50397
1.47373;0.504063
1.47373;0.504005
1.47371;0.503936
1.4737;0.503943
1.47369;0.503963
1.47371;0.503859
1.47369;0.50402
1.47367;0.504325
1.47367;0.504552
1.47365;0.504787
1.47364;0.505104
1.47364;0.505161
1.47364;0.505218
1.47365;0.505146
1.47365;0.505187
1.47365;0.505057
1.47365;0.505155
1.47365;0.505339
1.47362;0.505491
1.47361;0.505335
1.47361;0.505278
1.47359;0.505137
1.47358;0.505064
1.47357;0.504985
1.47358;0.504877
1.47359;0.504816
1.47362;0.504719
1.47364;0.504496
1.47366;0.504265
1.47371;0.503643
1.47373;0.503272
1.47379;0.502617
1.4738;0.502395
1.47382;0.502171
1.47385;0.501945
1.47388;0.501856
1.4739;0.50186
1.4739;0.501902
1.4739;0.501913
1.47393;0.501388
1.47393;0.501245
1.47394;0.501117
1.47395;0.501037
1.47396;0.500953
1.47396;0.501407
1.47395;0.501603
1.47397;0.501632
1.47399;0.501403
1.47399;0.501292
1.47399;0.501312
1.47397;0.501466
1.47395;0.501648
1.47394;0.501908
1.47394;0.502045
1.47393;0.502425
1.47392;0.502602
1.47392;0.502781
1.47387;0.503355
1.47385;0.503667
1.47382;0.503587
1.47381;0.503564
1.4738;0.503557
1.47381;0.50345
1.47382;0.503444
1.47382;0.503448
1.47382;0.50363
1.47382;0.503659
1.47382;0.503691
1.47382;0.503711
1.47381;0.503744
1.47381;0.503706
1.47381;0.503672
1.47382;0.503558
1.47382;0.503523
1.47382;0.503666
1.47381;0.503871
1.47381;0.503991
1.47381;0.504084
1.47381;0.504153
1.4738;0.504252
1.47379;0.50425
1.47379;0.504194
1.4738;0.504141
1.47379;0.504148
1.47378;0.504178
1.47379;0.504106
1.47379;0.504045
1.4738;0.50395
1.47381;0.50381
1.4738;0.503875
1.47379;0.503886
1.47379;0.503826
1.47379;0.503799
1.47378;0.504038
1.47378;0.504
1.47379;0.503967
1.47378;0.504127
1.47378;0.504038
1.47379;0.50396
1.47378;0.504028
1.47379;0.504038
1.47374;0.504831
1.47373;0.505183
1.47371;0.505517
1.47372;0.505672
1.47372;0.505711
1.4737;0.505628
1.4737;0.505576
1.4737;0.505463
1.4737;0.505424
1.4737;0.505382
1.47374;0.504548
1.47376;0.50443
1.47376;0.504216
1.47374;0.504336
1.47372;0.504448
1.47371;0.504451
1.47371;0.504425
1.47373;0.504383
1.47373;0.504388
1.47373;0.504401
1.47371;0.504224
1.47371;0.504208
1.47371;0.50411
1.47372;0.504054
1.47372;0.503994
1.47372;0.503937
1.47373;0.503799
1.47374;0.503662
1.47375;0.503603
1.47374;0.503591
1.47375;0.503638
1.47374;0.503711
1.47374;0.503782
1.47373;0.503855
1.47372;0.503927
1.47371;0.503883
