0.00719706
0.00505491
0.00123149
0.00138136
0.00157862
0.00149238
0.0015512
0.0021788
0.00225217
0.00187525
0.0015163
0.00178206
0.00187943
0.0015436
0.0015394
0.00154647
0.00151408
0.00150475
0.00301808
0.0031214
0.0015917
0.00161983
0.00148528
0.0015011
0.00145658
0.00178836
0.00207751
0.00152591
0.00162589
0.00169691
0.00151974
0.00147155
0.00149037
0.00151221
0.00155856
0.0014975
0.00157032
0.00152512
0.00157602
0.00159806
0.00148493
0.00126588
0.00425302
0.00135383
0.00190816
0.00107864
0.00131196
0.00111763
0.00126838
0.00108793
0.00110355
0.00106271
0.00110454
0.00111892
0.0010327
0.00111694
0.00104677
0.00105977
0.0010818
0.00115957
0.00110293
0.00104212
0.00103171
0.0010741
0.00117201
0.00107247
0.00126972
0.00112099
0.00110404
0.00109758
0.00107007
0.00111346
0.0010701
0.00119542
0.00116643
0.00111728
0.00112254
0.00109134
0.00114388
0.00119105
0.00111599
0.00106463
0.0010288
0.00109683
0.00115891
0.00118757
0.00110113
0.00104538
0.00110683
0.00118651
0.00109013
0.00101993
0.0015635
0.00110726
0.00109108
0.00132327
0.00116007
0.0011237
0.00102918
0.00103928
0.00110305
0.00110008
0.00119896
0.00168615
0.00107747
0.00110908
0.00106743
0.00105337
0.00107088
0.00107284
0.00110271
0.00110747
0.00116662
0.00234412
0.00108266
0.00111413
0.0011111
0.00105296
0.00105707
0.00128012
0.00106365
0.00117515
0.00109981
0.00104997
0.00105878
0.00127196
0.001144
0.00128945
0.00110505
0.00106373
0.0010916
0.00106343
0.00108054
0.00128553
0.00130842
0.00131895
0.00130877
0.0013518
0.00137747
0.00131336
0.00198475
0.00165941
0.00129312
0.0013368
0.0012614
0.00126369
0.00128071
0.00129799
0.00130033
0.00143545
0.00154749
0.00156603
0.00145934
0.00150716
0.00147395
0.00147589
0.00158772
0.00170943
0.00143977
0.00219236
0.00184407
0.00151885
0.0019931
0.00159324
0.00151343
0.00152352
0.00147067
0.00233477
0.00206885
0.00192727
0.0029487
0.00333973
0.00334238
0.0031588
0.0034309
0.0034671
0.00345261
0.00464474
0.00457568
0.00439577
0.00464249
0.00463827
0.0101442
0.00456167
0.00649939
0.00461466
0.00461118
0.00378884
0.00616941
0.00391366
0.00456101
0.00609693
0.0127071
0.00388084
0.00417554
0.00449054
0.0104014
0.0116849
0.0113541
0.012695
0.0143063
0.00954345
0.0104252
0.00819036
0.0033811
0.0123346
0.0110099
0.0091227
0.00572888
0.0113033
0.00412181
0.00289063
0.00341732
0.00321747
0.00341245
0.0111989
0.0183242
0.0146485
0.011382
0.0171579
0.0042649
0.00238864
0.00197509
0.00377831
0.00331051
0.0130276
0.00199574
0.00293599
0.00237843
0.0112888
0.00233359
0.0103979
0.0139769
0.0108565
0.00217159
0.00219283
0.00196797
0.00181572
0.00204381
0.00181819
0.00162642
0.00180066
0.00203789
0.0024474
0.00791759
0.00236207
0.0103909
0.00818509
0.00936317
0.00848163
0.00935543
0.00932907
0.0068002
0.00873544
0.0107712
0.0065288
0.00793155
0.00752263
0.00763275
0.00755144
0.00653964
0.00631267
0.00748273
0.00671009
0.00734824
0.00834487
0.00717768
0.00659813
0.00666236
0.00829606
0.00734298
0.00815836
0.00704428
0.0082886
0.00719782
0.00736361
0.0069687
0.0093872
0.00622303
0.0126747
0.00698534
0.00707312
0.00937121
0.01012
0.00783188
0.00793436
0.00766264
0.0093667
0.00708166
0.00782409
0.00804839
0.00880107
0.00201633
0.0015104
0.00842137
0.00673045
0.00540263
0.00427755
0.00733332
0.00578018
0.00394413
0.00443782
0.00529025
0.0059947
0.0060113
0.00849143
0.00765376
0.00618393
0.0112308
0.0123845
0.00830946
0.00992774
0.00730625
0.00698463
0.00694694
0.00718497
0.00676765
0.00677859
0.00718724
0.0068142
0.00761618
0.00772667
0.00664619
0.00693752
0.0064719
0.00706963
0.00843296
0.00807739
0.00827
0.00849682
0.00617826
0.00734229
0.00616502
0.00627823
0.00622782
0.00801948
0.00722086
0.0081433
0.00690272
0.00715116
0.00752442
0.0072566
0.00715126
0.00607186
0.0065199
0.00504078
0.00617667
0.00540489
0.00495768
0.00929119
0.00524455
0.00515004
0.00780056
0.00569286
0.00514723
0.00567358
0.00592736
0.00700207
0.00767539
0.0124144
0.00147793
0.0068911
0.0077651
0.00662091
0.00160454
0.0105945
0.0053623
0.00428144
0.00620712
0.00453508
0.00425855
0.00420571
0.00460242
0.00605397
0.00434961
0.00122639
0.00109361
0.00614692
0.00111789
0.00441237
0.00455879
0.00455175
0.00449239
0.00112613
0.00626005
0.00164162
0.00604699
0.00444939
0.00429982
0.00378418
0.00763336
0.00533282
0.00638105
0.00546912
0.00586837
0.00708116
0.00777761
0.00655721
0.0080065
0.00652655
0.00700409
0.00845106
0.00710381
0.0103496
0.00752757
0.00748221
0.00672375
0.00803241
0.00681571
0.00657141
0.0120509
0.00864533
0.00646808
0.00725734
0.00707236
0.00756549
0.00673523
0.00809426
0.00859113
0.00610277
0.00616152
0.00637029
0.0218758
0.00929827
0.00664798
0.00621483
0.00606239
0.00776303
0.00443732
0.00443451
0.00498458
0.00609691
0.00805121
0.00548908
0.00634566
0.00657476
0.0058287
0.0055683
0.00579037
0.0132679
0.00714805
0.00655234
0.00532235
0.00491781
0.00894071
0.00533809
0.00546697
0.00486428
0.00510021
0.00721442
0.00599576
0.00828656
0.00728715
0.00769264
0.00650258
0.00641259
0.00754196
